# This file uses centimeters as units for non-parametric coordinates.

v -102.270889 -39.908806 4.702025
v -22.138809 -40.184433 5.457240
v -102.270889 -38.089851 5.365878
v -22.138809 -38.365479 6.121092
v -102.270889 -34.367218 -4.834128
v -22.138809 -34.091595 -5.589343
v -102.270889 -36.186172 -5.497981
v -22.138809 -35.910549 -6.253195
v -62.615978 -39.653362 9.649893
v -62.615978 -32.803707 -9.118144
v -62.615978 -34.622665 -9.781996
v -62.615978 -41.472317 8.986041
v -82.854561 -39.288734 8.650820
v -82.854561 -33.168335 -8.119070
v -82.854561 -34.987289 -8.782923
v -82.854561 -41.107689 7.986967
v -42.377396 -39.288734 8.650820
v -42.377396 -33.168335 -8.119070
v -42.377396 -34.987289 -8.782923
v -42.377396 -41.107689 7.986967
v -99.605942 -38.524559 6.556976
v -99.605942 -33.932510 -6.025226
v -99.605942 -35.751465 -6.689079
v -99.605942 -40.343513 5.893123
v -27.131552 -39.908806 98.718399
v -1.651125 -40.184433 22.741640
v -26.500189 -38.089851 98.923546
v -1.019764 -38.365479 22.946781
v -36.200974 -34.367218 95.771568
v -12.157049 -34.091595 19.328058
v -36.832333 -36.186172 95.566429
v -12.788410 -35.910549 19.122915
v -10.171808 -39.653362 62.533314
v -28.021271 -32.803707 56.733673
v -28.652632 -34.622665 56.528534
v -10.803168 -41.472317 62.328171
v -17.376049 -39.288734 81.472618
v -33.325161 -33.168335 76.290436
v -33.956524 -34.987289 76.085297
v -18.007410 -41.107689 81.267479
v -4.867917 -39.288734 42.976551
v -20.817030 -33.168335 37.794369
v -21.448393 -34.987289 37.589226
v -5.499279 -41.107689 42.771408
v -24.543875 -38.524559 96.757095
v -36.510262 -33.932510 92.868980
v -37.141621 -35.751465 92.663841
v -25.175236 -40.343513 96.551956
v 85.502670 -39.908806 56.309299
v 21.118359 -40.184433 8.597866
v 85.892876 -38.089851 55.772232
v 21.508560 -38.365479 8.060798
v 79.897461 -34.367218 64.024208
v 14.625339 -34.091595 17.534739
v 79.507263 -36.186172 64.561279
v 14.235137 -35.910549 18.071806
v 56.329460 -39.653362 28.997822
v 45.297882 -32.803707 44.181480
v 44.907677 -34.622665 44.718548
v 55.939259 -41.472317 29.534887
v 72.115570 -39.288734 41.702026
v 62.258476 -33.168335 55.269154
v 61.868275 -34.987289 55.806221
v 71.725365 -41.107689 42.239094
v 39.368858 -39.288734 17.910149
v 29.511765 -33.168335 31.477274
v 29.121563 -34.987289 32.014343
v 38.978657 -41.107689 18.447216
v 84.436996 -38.524559 53.242195
v 77.041359 -33.932510 63.421417
v 76.651161 -35.751465 63.958477
v 84.046791 -40.343513 53.779266
v 79.975113 -39.908806 -63.917339
v 14.702988 -40.184433 -17.427864
v 79.584908 -38.089851 -64.454407
v 14.312786 -38.365479 -17.964931
v 85.580322 -34.367218 -56.202431
v 21.196007 -34.091595 -8.490992
v 85.970520 -36.186172 -55.665363
v 21.586208 -35.910549 -7.953924
v 44.985325 -39.653362 -44.611675
v 56.016899 -32.803707 -29.428015
v 56.407104 -34.622665 -28.890947
v 45.375526 -41.472317 -44.074608
v 61.945923 -39.288734 -55.699348
v 71.803017 -33.168335 -42.132221
v 72.193222 -34.987289 -41.595154
v 62.336124 -41.107689 -55.162281
v 29.199209 -39.288734 -31.907467
v 39.056305 -33.168335 -18.340342
v 39.446507 -34.987289 -17.803274
v 29.589413 -41.107689 -31.370398
v 76.728806 -38.524559 -63.851608
v 84.124443 -33.932510 -53.672390
v 84.514641 -35.751465 -53.135323
v 77.119011 -40.343513 -63.314541
v -36.075336 -39.908806 -95.812393
v -12.031412 -40.184433 -19.368879
v -36.706696 -38.089851 -95.607246
v -12.662773 -38.365479 -19.163738
v -27.005915 -34.367218 -98.759224
v -1.525488 -34.091595 -22.782461
v -26.374556 -36.186172 -98.964363
v -0.894127 -35.910549 -22.987602
v -28.526995 -39.653362 -56.569355
v -10.677531 -32.803707 -62.368996
v -10.046170 -34.622665 -62.574135
v -27.895632 -41.472317 -56.774498
v -33.830887 -39.288734 -76.126122
v -17.881773 -33.168335 -81.308304
v -17.250414 -34.987289 -81.513443
v -33.199524 -41.107689 -76.331261
v -21.322754 -39.288734 -37.630047
v -5.373641 -33.168335 -42.812229
v -4.742280 -34.987289 -43.017372
v -20.691393 -41.107689 -37.835190
v -37.015984 -38.524559 -92.704666
v -25.049601 -33.932510 -96.592781
v -24.418238 -35.751465 -96.797920
v -36.384624 -40.343513 -92.909805
vt 0.605726 0.794524
vt 0.600714 0.787851
vt 0.601123 0.792434
vt 0.606135 0.799107
vt 0.598065 0.854933
vt 0.603656 0.849773
vt 0.597655 0.850350
vt 0.603247 0.845190
vt 0.604502 0.768012
vt 0.607510 0.826181
vt 0.607077 0.830764
vt 0.604070 0.772596
vt 0.518063 0.766564
vt 0.560870 0.765778
vt 0.565177 0.849078
vt 0.522883 0.859790
vt 0.523316 0.855206
vt 0.565610 0.844495
vt 0.518495 0.761981
vt 0.561302 0.761195
vt 0.568306 0.777275
vt 0.564231 0.860575
vt 0.563821 0.855992
vt 0.567897 0.772692
vt 0.605726 0.794524
vt 0.600714 0.787851
vt 0.601123 0.792434
vt 0.606135 0.799107
vt 0.598065 0.854933
vt 0.603656 0.849773
vt 0.597655 0.850350
vt 0.603247 0.845190
vt 0.604502 0.768012
vt 0.607510 0.826181
vt 0.607077 0.830764
vt 0.604070 0.772596
vt 0.518063 0.766564
vt 0.560870 0.765778
vt 0.565177 0.849078
vt 0.522883 0.859790
vt 0.523316 0.855206
vt 0.565610 0.844495
vt 0.518495 0.761981
vt 0.561302 0.761195
vt 0.568306 0.777275
vt 0.564231 0.860575
vt 0.563821 0.855992
vt 0.567897 0.772692
vt 0.605726 0.794524
vt 0.600714 0.787851
vt 0.601123 0.792434
vt 0.606135 0.799107
vt 0.598065 0.854933
vt 0.603656 0.849773
vt 0.597655 0.850350
vt 0.603247 0.845190
vt 0.604502 0.768012
vt 0.607510 0.826181
vt 0.607077 0.830764
vt 0.604070 0.772596
vt 0.518063 0.766564
vt 0.560870 0.765778
vt 0.565177 0.849078
vt 0.522883 0.859790
vt 0.523316 0.855206
vt 0.565610 0.844495
vt 0.518495 0.761981
vt 0.561302 0.761195
vt 0.568306 0.777275
vt 0.564231 0.860575
vt 0.563821 0.855992
vt 0.567897 0.772692
vt 0.605726 0.794524
vt 0.600714 0.787851
vt 0.601123 0.792434
vt 0.606135 0.799107
vt 0.598065 0.854933
vt 0.603656 0.849773
vt 0.597655 0.850350
vt 0.603247 0.845190
vt 0.604502 0.768012
vt 0.607510 0.826181
vt 0.607077 0.830764
vt 0.604070 0.772596
vt 0.518063 0.766564
vt 0.560870 0.765778
vt 0.565177 0.849078
vt 0.522883 0.859790
vt 0.523316 0.855206
vt 0.565610 0.844495
vt 0.518495 0.761981
vt 0.561302 0.761195
vt 0.568306 0.777275
vt 0.564231 0.860575
vt 0.563821 0.855992
vt 0.567897 0.772692
vt 0.605726 0.794524
vt 0.600714 0.787851
vt 0.601123 0.792434
vt 0.606135 0.799107
vt 0.598065 0.854933
vt 0.603656 0.849773
vt 0.597655 0.850350
vt 0.603247 0.845190
vt 0.604502 0.768012
vt 0.607510 0.826181
vt 0.607077 0.830764
vt 0.604070 0.772596
vt 0.518063 0.766564
vt 0.560870 0.765778
vt 0.565177 0.849078
vt 0.522883 0.859790
vt 0.523316 0.855206
vt 0.565610 0.844495
vt 0.518495 0.761981
vt 0.561302 0.761195
vt 0.568306 0.777275
vt 0.564231 0.860575
vt 0.563821 0.855992
vt 0.567897 0.772692
vn -0.429636 -0.309588 0.848274
vn -0.177248 -0.337415 0.924518
vn -0.177248 -0.337415 0.924518
vn -0.429636 -0.309588 0.848274
vn 0.000000 0.939392 0.342844
vn 0.000000 0.939392 0.342844
vn 0.000000 0.939392 0.342844
vn 0.000000 0.939392 0.342844
vn -0.429636 0.309591 -0.848273
vn -0.177248 0.337416 -0.924518
vn -0.177248 0.337416 -0.924518
vn -0.429636 0.309591 -0.848273
vn 0.000000 -0.939392 -0.342844
vn 0.000000 -0.939392 -0.342844
vn 0.000000 -0.939392 -0.342844
vn 0.000000 -0.939392 -0.342844
vn 1.000000 0.000000 0.000000
vn 1.000000 0.000000 0.000000
vn 1.000000 0.000000 0.000000
vn 1.000000 0.000000 0.000000
vn -1.000000 -0.000003 0.000000
vn -1.000000 -0.000003 0.000000
vn -1.000000 -0.000003 0.000000
vn -1.000000 -0.000003 0.000000
vn 0.000000 0.939392 0.342844
vn 0.000000 0.939392 0.342844
vn 0.000000 0.939392 0.342844
vn 0.000000 0.939392 0.342844
vn -0.000000 0.342844 -0.939392
vn -0.000000 0.342844 -0.939392
vn 0.092408 0.341377 -0.935373
vn 0.092408 0.341377 -0.935373
vn 0.000000 -0.939392 -0.342844
vn 0.000000 -0.939392 -0.342844
vn 0.000000 -0.939392 -0.342844
vn 0.000000 -0.939392 -0.342844
vn 0.000000 -0.342844 0.939392
vn 0.000000 -0.342844 0.939392
vn 0.092408 -0.341377 0.935373
vn 0.092408 -0.341377 0.935373
vn 0.000000 0.939392 0.342844
vn 0.000000 0.939392 0.342844
vn 0.000000 0.939392 0.342844
vn 0.000000 0.939392 0.342844
vn -0.088659 0.341494 -0.935693
vn -0.088659 0.341494 -0.935693
vn -0.000000 0.342844 -0.939392
vn -0.000000 0.342844 -0.939392
vn 0.000000 -0.939392 -0.342844
vn 0.000000 -0.939392 -0.342844
vn 0.000000 -0.939392 -0.342844
vn 0.000000 -0.939392 -0.342844
vn -0.088659 -0.341494 0.935693
vn -0.088659 -0.341494 0.935693
vn 0.000000 -0.342844 0.939392
vn 0.000000 -0.342844 0.939392
vn 0.000000 0.939392 0.342844
vn 0.000000 0.939392 0.342844
vn 0.000000 0.939392 0.342844
vn 0.000000 0.939392 0.342844
vn 0.092408 0.341377 -0.935373
vn 0.092408 0.341377 -0.935373
vn 0.131897 0.339849 -0.931185
vn 0.131897 0.339849 -0.931185
vn 0.000000 -0.939392 -0.342844
vn 0.000000 -0.939392 -0.342844
vn 0.000000 -0.939392 -0.342844
vn 0.000000 -0.939392 -0.342844
vn 0.092408 -0.341377 0.935373
vn 0.092408 -0.341377 0.935373
vn 0.131897 -0.339848 0.931186
vn 0.131897 -0.339848 0.931186
vn 0.000000 0.939392 0.342844
vn 0.000000 0.939392 0.342844
vn 0.000000 0.939392 0.342844
vn 0.000000 0.939392 0.342844
vn -0.177248 0.337416 -0.924518
vn -0.177248 0.337416 -0.924518
vn -0.088659 0.341494 -0.935693
vn -0.088659 0.341494 -0.935693
vn 0.000000 -0.939392 -0.342844
vn 0.000000 -0.939392 -0.342844
vn 0.000000 -0.939392 -0.342844
vn 0.000000 -0.939392 -0.342844
vn -0.177248 -0.337415 0.924518
vn -0.177248 -0.337415 0.924518
vn -0.088659 -0.341494 0.935693
vn -0.088659 -0.341494 0.935693
vn 0.673989 -0.309591 0.670740
vn 0.824497 -0.337415 0.454264
vn 0.824497 -0.337415 0.454264
vn 0.673989 -0.309591 0.670740
vn 0.326064 0.939393 0.105944
vn 0.326064 0.939392 0.105945
vn 0.326064 0.939392 0.105945
vn 0.326064 0.939393 0.105944
vn -0.939521 0.309589 0.146477
vn -0.934042 0.337415 -0.117119
vn -0.934042 0.337415 -0.117119
vn -0.939521 0.309589 0.146477
vn -0.326064 -0.939392 -0.105945
vn -0.326064 -0.939392 -0.105945
vn -0.326064 -0.939392 -0.105945
vn -0.326064 -0.939392 -0.105945
vn 0.309018 0.000000 -0.951056
vn 0.309018 0.000000 -0.951056
vn 0.309018 0.000000 -0.951056
vn 0.309018 0.000000 -0.951056
vn -0.309017 -0.000001 0.951057
vn -0.309017 -0.000001 0.951057
vn -0.309017 -0.000001 0.951057
vn -0.309017 -0.000001 0.951057
vn 0.326064 0.939392 0.105945
vn 0.326064 0.939392 0.105944
vn 0.326064 0.939392 0.105944
vn 0.326064 0.939392 0.105945
vn -0.893416 0.342843 -0.290288
vn -0.893416 0.342843 -0.290288
vn -0.861037 0.341377 -0.376931
vn -0.861037 0.341377 -0.376931
vn -0.326064 -0.939392 -0.105945
vn -0.326064 -0.939392 -0.105945
vn -0.326064 -0.939392 -0.105945
vn -0.326064 -0.939392 -0.105945
vn 0.893415 -0.342844 0.290288
vn 0.893415 -0.342844 0.290288
vn 0.918148 -0.341377 0.201162
vn 0.918148 -0.341377 0.201162
vn 0.326064 0.939392 0.105945
vn 0.326064 0.939392 0.105945
vn 0.326064 0.939392 0.105945
vn 0.326064 0.939392 0.105945
vn -0.917294 0.341493 -0.204825
vn -0.917294 0.341494 -0.204825
vn -0.893416 0.342843 -0.290288
vn -0.893416 0.342843 -0.290288
vn -0.326064 -0.939392 -0.105944
vn -0.326064 -0.939392 -0.105944
vn -0.326064 -0.939392 -0.105945
vn -0.326064 -0.939392 -0.105945
vn 0.862500 -0.341494 0.373464
vn 0.862500 -0.341494 0.373464
vn 0.893415 -0.342844 0.290288
vn 0.893415 -0.342844 0.290288
vn 0.326064 0.939392 0.105944
vn 0.326064 0.939392 0.105944
vn 0.326064 0.939392 0.105944
vn 0.326064 0.939392 0.105944
vn -0.861037 0.341377 -0.376931
vn -0.861037 0.341377 -0.376931
vn -0.844851 0.339849 -0.413193
vn -0.844851 0.339849 -0.413193
vn -0.326064 -0.939392 -0.105945
vn -0.326064 -0.939392 -0.105945
vn -0.326064 -0.939392 -0.105944
vn -0.326064 -0.939392 -0.105944
vn 0.918148 -0.341377 0.201162
vn 0.918148 -0.341377 0.201162
vn 0.926368 -0.339849 0.162311
vn 0.926368 -0.339849 0.162311
vn 0.326064 0.939392 0.105945
vn 0.326064 0.939392 0.105945
vn 0.326064 0.939392 0.105945
vn 0.326064 0.939392 0.105945
vn -0.934042 0.337415 -0.117119
vn -0.934042 0.337415 -0.117119
vn -0.917294 0.341494 -0.204825
vn -0.917294 0.341493 -0.204825
vn -0.326064 -0.939392 -0.105945
vn -0.326064 -0.939392 -0.105945
vn -0.326064 -0.939392 -0.105944
vn -0.326064 -0.939392 -0.105944
vn 0.824497 -0.337415 0.454264
vn 0.824497 -0.337415 0.454264
vn 0.862500 -0.341494 0.373464
vn 0.862500 -0.341494 0.373464
vn 0.846185 -0.309589 -0.433734
vn 0.686814 -0.337416 -0.643767
vn 0.686814 -0.337416 -0.643767
vn 0.846185 -0.309589 -0.433734
vn 0.201518 0.939392 -0.277367
vn 0.201519 0.939392 -0.277367
vn 0.201519 0.939392 -0.277367
vn 0.201518 0.939392 -0.277367
vn -0.151015 0.309588 0.938802
vn -0.400021 0.337413 0.852136
vn -0.400021 0.337413 0.852136
vn -0.151015 0.309588 0.938802
vn -0.201518 -0.939392 0.277367
vn -0.201519 -0.939392 0.277367
vn -0.201519 -0.939392 0.277367
vn -0.201518 -0.939392 0.277367
vn -0.809017 0.000000 -0.587785
vn -0.809017 0.000000 -0.587785
vn -0.809017 0.000000 -0.587785
vn -0.809017 0.000000 -0.587785
vn 0.809017 0.000000 0.587785
vn 0.809017 0.000000 0.587785
vn 0.809017 0.000000 0.587785
vn 0.809017 0.000000 0.587785
vn 0.201519 0.939392 -0.277367
vn 0.201519 0.939392 -0.277367
vn 0.201519 0.939392 -0.277367
vn 0.201519 0.939392 -0.277367
vn -0.552161 0.342845 0.759984
vn -0.552161 0.342845 0.759984
vn -0.624558 0.341378 0.702416
vn -0.624558 0.341378 0.702416
vn -0.201519 -0.939392 0.277367
vn -0.201519 -0.939392 0.277367
vn -0.201519 -0.939392 0.277367
vn -0.201519 -0.939392 0.277367
vn 0.552161 -0.342843 -0.759984
vn 0.552161 -0.342843 -0.759984
vn 0.475039 -0.341376 -0.811049
vn 0.475039 -0.341376 -0.811049
vn 0.201519 0.939392 -0.277367
vn 0.201519 0.939392 -0.277367
vn 0.201519 0.939392 -0.277367
vn 0.201519 0.939392 -0.277367
vn -0.478260 0.341493 0.809104
vn -0.478260 0.341493 0.809104
vn -0.552161 0.342845 0.759984
vn -0.552161 0.342845 0.759984
vn -0.201519 -0.939392 0.277367
vn -0.201519 -0.939392 0.277367
vn -0.201519 -0.939392 0.277367
vn -0.201519 -0.939392 0.277367
vn 0.621713 -0.341494 -0.704879
vn 0.621713 -0.341494 -0.704879
vn 0.552161 -0.342843 -0.759984
vn 0.552161 -0.342843 -0.759984
vn 0.201519 0.939392 -0.277367
vn 0.201519 0.939392 -0.277367
vn 0.201519 0.939392 -0.277367
vn 0.201519 0.939392 -0.277367
vn -0.624558 0.341378 0.702416
vn -0.624558 0.341378 0.702416
vn -0.654044 0.339848 0.675818
vn -0.654044 0.339848 0.675818
vn -0.201519 -0.939392 0.277367
vn -0.201519 -0.939392 0.277367
vn -0.201519 -0.939392 0.277367
vn -0.201519 -0.939392 0.277367
vn 0.475039 -0.341376 -0.811049
vn 0.475039 -0.341376 -0.811049
vn 0.440630 -0.339848 -0.830872
vn 0.440630 -0.339848 -0.830872
vn 0.201519 0.939392 -0.277367
vn 0.201519 0.939392 -0.277367
vn 0.201519 0.939392 -0.277367
vn 0.201519 0.939392 -0.277367
vn -0.400021 0.337413 0.852136
vn -0.400021 0.337413 0.852136
vn -0.478260 0.341493 0.809104
vn -0.478260 0.341493 0.809104
vn -0.201519 -0.939392 0.277367
vn -0.201519 -0.939392 0.277367
vn -0.201519 -0.939392 0.277367
vn -0.201519 -0.939392 0.277367
vn 0.686814 -0.337416 -0.643767
vn 0.686814 -0.337416 -0.643767
vn 0.621713 -0.341494 -0.704879
vn 0.621713 -0.341494 -0.704879
vn -0.151019 -0.309589 -0.938801
vn -0.400021 -0.337416 -0.852135
vn -0.400021 -0.337417 -0.852135
vn -0.151019 -0.309589 -0.938801
vn -0.201518 0.939392 -0.277367
vn -0.201519 0.939392 -0.277367
vn -0.201519 0.939392 -0.277367
vn -0.201518 0.939392 -0.277367
vn 0.846186 0.309586 0.433734
vn 0.686816 0.337413 0.643767
vn 0.686816 0.337413 0.643767
vn 0.846187 0.309586 0.433734
vn 0.201519 -0.939393 0.277366
vn 0.201519 -0.939392 0.277367
vn 0.201519 -0.939392 0.277367
vn 0.201519 -0.939393 0.277366
vn -0.809017 0.000001 0.587785
vn -0.809017 0.000001 0.587785
vn -0.809017 0.000001 0.587785
vn -0.809017 0.000001 0.587785
vn 0.809017 0.000001 -0.587785
vn 0.809017 0.000001 -0.587785
vn 0.809017 0.000001 -0.587785
vn 0.809017 0.000001 -0.587785
vn -0.201519 0.939392 -0.277367
vn -0.201519 0.939392 -0.277367
vn -0.201519 0.939392 -0.277367
vn -0.201519 0.939392 -0.277367
vn 0.552161 0.342844 0.759984
vn 0.552161 0.342844 0.759984
vn 0.475039 0.341377 0.811048
vn 0.475039 0.341377 0.811048
vn 0.201519 -0.939392 0.277367
vn 0.201519 -0.939392 0.277366
vn 0.201519 -0.939392 0.277367
vn 0.201519 -0.939392 0.277367
vn -0.552161 -0.342844 -0.759984
vn -0.552161 -0.342844 -0.759984
vn -0.624558 -0.341378 -0.702416
vn -0.624558 -0.341378 -0.702416
vn -0.201519 0.939392 -0.277367
vn -0.201519 0.939392 -0.277367
vn -0.201519 0.939392 -0.277367
vn -0.201519 0.939392 -0.277367
vn 0.621714 0.341494 0.704879
vn 0.621714 0.341494 0.704879
vn 0.552161 0.342844 0.759984
vn 0.552161 0.342844 0.759984
vn 0.201519 -0.939392 0.277366
vn 0.201519 -0.939392 0.277367
vn 0.201519 -0.939392 0.277366
vn 0.201519 -0.939392 0.277367
vn -0.478260 -0.341495 -0.809104
vn -0.478260 -0.341495 -0.809104
vn -0.552161 -0.342844 -0.759984
vn -0.552161 -0.342844 -0.759984
vn -0.201519 0.939392 -0.277367
vn -0.201519 0.939392 -0.277367
vn -0.201519 0.939392 -0.277367
vn -0.201519 0.939392 -0.277367
vn 0.475039 0.341377 0.811048
vn 0.475039 0.341377 0.811048
vn 0.440630 0.339849 0.830872
vn 0.440630 0.339849 0.830872
vn 0.201519 -0.939392 0.277367
vn 0.201519 -0.939392 0.277367
vn 0.201519 -0.939392 0.277366
vn 0.201519 -0.939392 0.277366
vn -0.624558 -0.341378 -0.702416
vn -0.624558 -0.341378 -0.702416
vn -0.654045 -0.339850 -0.675817
vn -0.654045 -0.339850 -0.675816
vn -0.201519 0.939392 -0.277367
vn -0.201519 0.939392 -0.277367
vn -0.201519 0.939392 -0.277367
vn -0.201519 0.939392 -0.277367
vn 0.686816 0.337413 0.643767
vn 0.686816 0.337413 0.643767
vn 0.621714 0.341494 0.704879
vn 0.621714 0.341494 0.704879
vn 0.201519 -0.939392 0.277367
vn 0.201519 -0.939392 0.277367
vn 0.201519 -0.939392 0.277367
vn 0.201519 -0.939392 0.277366
vn -0.400021 -0.337417 -0.852135
vn -0.400021 -0.337416 -0.852135
vn -0.478260 -0.341495 -0.809104
vn -0.478260 -0.341495 -0.809104
vn -0.939521 -0.309587 -0.146477
vn -0.934043 -0.337413 0.117119
vn -0.934043 -0.337413 0.117119
vn -0.939521 -0.309587 -0.146477
vn -0.326064 0.939392 0.105945
vn -0.326064 0.939392 0.105945
vn -0.326064 0.939392 0.105945
vn -0.326064 0.939392 0.105945
vn 0.673991 0.309588 -0.670740
vn 0.824496 0.337415 -0.454265
vn 0.824497 0.337415 -0.454265
vn 0.673991 0.309588 -0.670740
vn 0.326064 -0.939392 -0.105944
vn 0.326064 -0.939392 -0.105945
vn 0.326064 -0.939392 -0.105945
vn 0.326064 -0.939393 -0.105944
vn 0.309017 0.000000 0.951056
vn 0.309017 0.000000 0.951056
vn 0.309017 0.000000 0.951056
vn 0.309017 0.000000 0.951056
vn -0.309017 0.000001 -0.951057
vn -0.309017 0.000001 -0.951057
vn -0.309017 0.000001 -0.951057
vn -0.309017 0.000001 -0.951057
vn -0.326064 0.939392 0.105945
vn -0.326064 0.939392 0.105945
vn -0.326064 0.939392 0.105945
vn -0.326064 0.939392 0.105945
vn 0.893416 0.342843 -0.290288
vn 0.893416 0.342843 -0.290288
vn 0.918148 0.341377 -0.201161
vn 0.918148 0.341377 -0.201161
vn 0.326064 -0.939392 -0.105945
vn 0.326064 -0.939392 -0.105945
vn 0.326064 -0.939392 -0.105945
vn 0.326064 -0.939392 -0.105945
vn -0.893415 -0.342845 0.290288
vn -0.893415 -0.342845 0.290288
vn -0.861037 -0.341377 0.376931
vn -0.861037 -0.341377 0.376931
vn -0.326064 0.939392 0.105945
vn -0.326064 0.939392 0.105945
vn -0.326064 0.939392 0.105945
vn -0.326064 0.939392 0.105945
vn 0.862500 0.341493 -0.373465
vn 0.862500 0.341493 -0.373465
vn 0.893416 0.342843 -0.290288
vn 0.893416 0.342843 -0.290288
vn 0.326064 -0.939392 -0.105945
vn 0.326064 -0.939392 -0.105945
vn 0.326064 -0.939392 -0.105945
vn 0.326064 -0.939392 -0.105945
vn -0.917294 -0.341494 0.204825
vn -0.917294 -0.341494 0.204825
vn -0.893415 -0.342845 0.290288
vn -0.893415 -0.342845 0.290288
vn -0.326064 0.939392 0.105945
vn -0.326064 0.939392 0.105945
vn -0.326064 0.939392 0.105945
vn -0.326064 0.939392 0.105945
vn 0.918148 0.341377 -0.201161
vn 0.918148 0.341377 -0.201161
vn 0.926368 0.339849 -0.162310
vn 0.926368 0.339849 -0.162310
vn 0.326064 -0.939392 -0.105945
vn 0.326064 -0.939392 -0.105945
vn 0.326064 -0.939392 -0.105945
vn 0.326064 -0.939392 -0.105945
vn -0.861037 -0.341377 0.376931
vn -0.861037 -0.341377 0.376931
vn -0.844851 -0.339849 0.413194
vn -0.844851 -0.339849 0.413194
vn -0.326064 0.939392 0.105945
vn -0.326064 0.939392 0.105945
vn -0.326064 0.939392 0.105945
vn -0.326064 0.939392 0.105945
vn 0.824497 0.337415 -0.454265
vn 0.824496 0.337415 -0.454265
vn 0.862500 0.341493 -0.373465
vn 0.862500 0.341493 -0.373465
vn 0.326064 -0.939392 -0.105945
vn 0.326064 -0.939392 -0.105945
vn 0.326064 -0.939392 -0.105945
vn 0.326064 -0.939392 -0.105945
vn -0.934043 -0.337413 0.117119
vn -0.934043 -0.337413 0.117119
vn -0.917294 -0.341494 0.204825
vn -0.917294 -0.341494 0.204825
f 1/1/1 24/2/2 21/3/3 3/4/4
f 3/4/5 21/3/6 22/5/7 5/6/8
f 5/6/9 22/5/10 23/7/11 7/8/12
f 7/8/13 23/7/14 24/2/15 1/1/16
f 2/9/17 8/10/18 6/11/19 4/12/20
f 7/8/21 1/1/22 3/4/23 5/6/24
f 9/13/25 17/14/26 18/15/27 10/16/28
f 11/17/29 10/16/30 18/15/31 19/18/32
f 12/19/33 11/17/34 19/18/35 20/20/36
f 9/13/37 12/19/38 20/20/39 17/14/40
f 13/21/41 9/13/42 10/16/43 14/22/44
f 15/23/45 14/22/46 10/16/47 11/17/48
f 16/24/49 15/23/50 11/17/51 12/19/52
f 13/21/53 16/24/54 12/19/55 9/13/56
f 17/14/57 4/12/58 6/11/59 18/15/60
f 19/18/61 18/15/62 6/11/63 8/10/64
f 20/20/65 19/18/66 8/10/67 2/9/68
f 17/14/69 20/20/70 2/9/71 4/12/72
f 21/3/73 13/21/74 14/22/75 22/5/76
f 23/7/77 22/5/78 14/22/79 15/23/80
f 24/2/81 23/7/82 15/23/83 16/24/84
f 21/3/85 24/2/86 16/24/87 13/21/88
f 25/25/89 48/26/90 45/27/91 27/28/92
f 27/28/93 45/27/94 46/29/95 29/30/96
f 29/30/97 46/29/98 47/31/99 31/32/100
f 31/32/101 47/31/102 48/26/103 25/25/104
f 26/33/105 32/34/106 30/35/107 28/36/108
f 31/32/109 25/25/110 27/28/111 29/30/112
f 33/37/113 41/38/114 42/39/115 34/40/116
f 35/41/117 34/40/118 42/39/119 43/42/120
f 36/43/121 35/41/122 43/42/123 44/44/124
f 33/37/125 36/43/126 44/44/127 41/38/128
f 37/45/129 33/37/130 34/40/131 38/46/132
f 39/47/133 38/46/134 34/40/135 35/41/136
f 40/48/137 39/47/138 35/41/139 36/43/140
f 37/45/141 40/48/142 36/43/143 33/37/144
f 41/38/145 28/36/146 30/35/147 42/39/148
f 43/42/149 42/39/150 30/35/151 32/34/152
f 44/44/153 43/42/154 32/34/155 26/33/156
f 41/38/157 44/44/158 26/33/159 28/36/160
f 45/27/161 37/45/162 38/46/163 46/29/164
f 47/31/165 46/29/166 38/46/167 39/47/168
f 48/26/169 47/31/170 39/47/171 40/48/172
f 45/27/173 48/26/174 40/48/175 37/45/176
f 49/49/177 72/50/178 69/51/179 51/52/180
f 51/52/181 69/51/182 70/53/183 53/54/184
f 53/54/185 70/53/186 71/55/187 55/56/188
f 55/56/189 71/55/190 72/50/191 49/49/192
f 50/57/193 56/58/194 54/59/195 52/60/196
f 55/56/197 49/49/198 51/52/199 53/54/200
f 57/61/201 65/62/202 66/63/203 58/64/204
f 59/65/205 58/64/206 66/63/207 67/66/208
f 60/67/209 59/65/210 67/66/211 68/68/212
f 57/61/213 60/67/214 68/68/215 65/62/216
f 61/69/217 57/61/218 58/64/219 62/70/220
f 63/71/221 62/70/222 58/64/223 59/65/224
f 64/72/225 63/71/226 59/65/227 60/67/228
f 61/69/229 64/72/230 60/67/231 57/61/232
f 65/62/233 52/60/234 54/59/235 66/63/236
f 67/66/237 66/63/238 54/59/239 56/58/240
f 68/68/241 67/66/242 56/58/243 50/57/244
f 65/62/245 68/68/246 50/57/247 52/60/248
f 69/51/249 61/69/250 62/70/251 70/53/252
f 71/55/253 70/53/254 62/70/255 63/71/256
f 72/50/257 71/55/258 63/71/259 64/72/260
f 69/51/261 72/50/262 64/72/263 61/69/264
f 73/73/265 96/74/266 93/75/267 75/76/268
f 75/76/269 93/75/270 94/77/271 77/78/272
f 77/78/273 94/77/274 95/79/275 79/80/276
f 79/80/277 95/79/278 96/74/279 73/73/280
f 74/81/281 80/82/282 78/83/283 76/84/284
f 79/80/285 73/73/286 75/76/287 77/78/288
f 81/85/289 89/86/290 90/87/291 82/88/292
f 83/89/293 82/88/294 90/87/295 91/90/296
f 84/91/297 83/89/298 91/90/299 92/92/300
f 81/85/301 84/91/302 92/92/303 89/86/304
f 85/93/305 81/85/306 82/88/307 86/94/308
f 87/95/309 86/94/310 82/88/311 83/89/312
f 88/96/313 87/95/314 83/89/315 84/91/316
f 85/93/317 88/96/318 84/91/319 81/85/320
f 89/86/321 76/84/322 78/83/323 90/87/324
f 91/90/325 90/87/326 78/83/327 80/82/328
f 92/92/329 91/90/330 80/82/331 74/81/332
f 89/86/333 92/92/334 74/81/335 76/84/336
f 93/75/337 85/93/338 86/94/339 94/77/340
f 95/79/341 94/77/342 86/94/343 87/95/344
f 96/74/345 95/79/346 87/95/347 88/96/348
f 93/75/349 96/74/350 88/96/351 85/93/352
f 97/97/353 120/98/354 117/99/355 99/100/356
f 99/100/357 117/99/358 118/101/359 101/102/360
f 101/102/361 118/101/362 119/103/363 103/104/364
f 103/104/365 119/103/366 120/98/367 97/97/368
f 98/105/369 104/106/370 102/107/371 100/108/372
f 103/104/373 97/97/374 99/100/375 101/102/376
f 105/109/377 113/110/378 114/111/379 106/112/380
f 107/113/381 106/112/382 114/111/383 115/114/384
f 108/115/385 107/113/386 115/114/387 116/116/388
f 105/109/389 108/115/390 116/116/391 113/110/392
f 109/117/393 105/109/394 106/112/395 110/118/396
f 111/119/397 110/118/398 106/112/399 107/113/400
f 112/120/401 111/119/402 107/113/403 108/115/404
f 109/117/405 112/120/406 108/115/407 105/109/408
f 113/110/409 100/108/410 102/107/411 114/111/412
f 115/114/413 114/111/414 102/107/415 104/106/416
f 116/116/417 115/114/418 104/106/419 98/105/420
f 113/110/421 116/116/422 98/105/423 100/108/424
f 117/99/425 109/117/426 110/118/427 118/101/428
f 119/103/429 118/101/430 110/118/431 111/119/432
f 120/98/433 119/103/434 111/119/435 112/120/436
f 117/99/437 120/98/438 112/120/439 109/117/440
