# This file uses centimeters as units for non-parametric coordinates.

v 38.592987 1.991013 -15.985714
v 29.537804 1.991013 -29.537769
v 15.985757 1.991013 -38.592968
v 0.000021 1.991013 -41.772736
v -15.985718 1.991013 -38.592983
v -29.537777 1.991013 -29.537804
v -38.592972 1.991013 -15.985753
v -41.772736 1.991013 -0.000016
v -38.592979 1.991013 15.985721
v -29.537798 1.991013 29.537785
v -15.985745 1.991013 38.592972
v -0.000006 1.991013 41.772736
v 15.985733 1.991013 38.592976
v 29.537790 1.991013 29.537798
v 38.592976 1.991013 15.985738
v 41.772736 1.991013 -0.000001
v 16.556686 40.474670 -6.857992
v 12.671942 40.474670 -12.671928
v 6.858011 40.474670 -16.556677
v 0.000009 40.474670 -17.920820
v -6.857995 40.474670 -16.556684
v -12.671933 40.474670 -12.671940
v -16.556679 40.474670 -6.858007
v -17.920820 40.474670 -0.000006
v -16.556684 40.474670 6.857998
v -12.671939 40.474670 12.671936
v -6.858006 40.474670 16.556681
v -0.000003 40.474670 17.920820
v 6.858001 40.474670 16.556683
v 12.671936 40.474670 12.671936
v 16.556681 40.474670 6.858003
v 17.920820 40.474670 0.000000
v 35.625107 0.000000 -14.756379
v 27.266289 0.000000 -27.266254
v 10.400426 40.474670 -10.400412
v 13.588810 40.474670 -5.628657
v 14.756422 0.000000 -35.625092
v 5.628673 40.474670 -13.588800
v 0.000020 0.000000 -38.560326
v 0.000008 40.474670 -14.708415
v -14.756384 0.000000 -35.625103
v -5.628662 40.474670 -13.588805
v -27.266260 0.000000 -27.266289
v -10.400418 40.474670 -10.400424
v -35.625092 0.000000 -14.756417
v -13.588801 40.474670 -5.628673
v -38.560326 0.000000 -0.000015
v -14.708415 40.474670 -0.000006
v -35.625099 0.000000 14.756386
v -13.588807 40.474670 5.628662
v -27.266281 0.000000 27.266273
v -10.400423 40.474670 10.400419
v -14.756410 0.000000 35.625092
v -5.628670 40.474670 13.588804
v -0.000006 0.000000 38.560326
v -0.000002 40.474670 14.708415
v 14.756399 0.000000 35.625095
v 5.628665 40.474670 13.588805
v 27.266275 0.000000 27.266281
v 10.400421 40.474670 10.400420
v 35.625095 0.000000 14.756402
v 13.588804 40.474670 5.628667
v 38.560326 0.000000 -0.000002
v 14.708415 40.474670 -0.000001
v -0.000004 21.232834 29.846779
v -11.421875 21.232834 27.574827
v -21.104870 21.232834 21.104860
v -27.574835 21.232834 11.421861
v -29.846779 21.232834 -0.000011
v -27.574825 21.232834 -11.421880
v -21.104853 21.232834 -21.104874
v -11.421856 21.232834 -27.574835
v 0.000015 21.232834 -29.846779
v 11.421884 21.232834 -27.574821
v 21.104874 21.232834 -21.104849
v 27.574837 21.232834 -11.421852
v 29.846779 21.232834 0.000000
v 27.574827 21.232834 11.421870
v 21.104862 21.232834 21.104864
v 11.421867 21.232834 27.574827
v -10.192524 20.237350 -24.606955
v -18.833340 20.237350 -18.833357
v -24.606945 20.237350 -10.192545
v -26.634371 20.237350 -0.000011
v -24.606953 20.237350 10.192525
v -18.833357 20.237350 18.833345
v -10.192540 20.237350 24.606949
v -0.000004 20.237350 26.634371
v 10.192533 20.237350 24.606951
v 18.833347 20.237350 18.833351
v 24.606951 20.237350 10.192534
v 26.634371 20.237350 -0.000001
v 24.606958 20.237350 -10.192518
v 18.833359 20.237350 -18.833332
v 10.192547 20.237350 -24.606945
v 0.000014 20.237350 -26.634371
vt 0.898203 0.117901
vt 0.979613 0.117901
vt 0.979613 0.111613
vt 0.898203 0.111613
vt 0.979613 0.105324
vt 0.898203 0.105324
vt 0.979613 0.099036
vt 0.898203 0.099036
vt 0.979613 0.092748
vt 0.898203 0.092748
vt 0.979613 0.086459
vt 0.898203 0.086459
vt 0.979613 0.080171
vt 0.898203 0.080171
vt 0.979613 0.073883
vt 0.898203 0.073883
vt 0.979613 0.067594
vt 0.898203 0.067594
vt 0.979613 0.073925
vt 0.898203 0.073925
vt 0.979613 0.080255
vt 0.898203 0.080255
vt 0.979613 0.086586
vt 0.898203 0.086586
vt 0.979613 0.092916
vt 0.898203 0.092916
vt 0.979613 0.099246
vt 0.898203 0.099246
vt 0.979613 0.105577
vt 0.898203 0.105577
vt 0.979613 0.111907
vt 0.898203 0.111907
vt 0.979613 0.118237
vt 0.898203 0.118237
vt 0.888446 0.117901
vt 0.888446 0.111613
vt 0.979613 0.111613
vt 0.979613 0.117901
vt 0.888446 0.105324
vt 0.979613 0.105324
vt 0.888446 0.099036
vt 0.979613 0.099036
vt 0.888446 0.092748
vt 0.979613 0.092748
vt 0.888446 0.086459
vt 0.979613 0.086459
vt 0.888446 0.080171
vt 0.979613 0.080171
vt 0.888446 0.073883
vt 0.979613 0.073883
vt 0.888446 0.067594
vt 0.979613 0.067594
vt 0.888446 0.073925
vt 0.979613 0.073925
vt 0.888446 0.080255
vt 0.979613 0.080255
vt 0.888446 0.086586
vt 0.979613 0.086586
vt 0.888446 0.092916
vt 0.979613 0.092916
vt 0.888446 0.099246
vt 0.979613 0.099246
vt 0.888446 0.105577
vt 0.979613 0.105577
vt 0.888446 0.111907
vt 0.979613 0.111907
vt 0.888446 0.118237
vt 0.979613 0.118237
vt 0.888446 0.117901
vt 0.888446 0.111613
vt 0.888655 0.111613
vt 0.898389 0.111613
vt 0.898389 0.117901
vt 0.888655 0.117901
vt 0.888446 0.105324
vt 0.888655 0.105324
vt 0.898389 0.105324
vt 0.888446 0.099036
vt 0.888655 0.099036
vt 0.898389 0.099036
vt 0.888446 0.092748
vt 0.888655 0.092748
vt 0.898389 0.092748
vt 0.888446 0.086459
vt 0.888655 0.086459
vt 0.898389 0.086459
vt 0.888446 0.080171
vt 0.888655 0.080171
vt 0.898389 0.080171
vt 0.888446 0.073883
vt 0.888655 0.073883
vt 0.898389 0.073883
vt 0.888446 0.067594
vt 0.888655 0.067594
vt 0.898389 0.067594
vt 0.888446 0.073925
vt 0.888655 0.073925
vt 0.898389 0.073925
vt 0.888446 0.080255
vt 0.888655 0.080255
vt 0.898389 0.080255
vt 0.888446 0.086586
vt 0.888654 0.086586
vt 0.898389 0.086585
vt 0.888446 0.092916
vt 0.888655 0.092916
vt 0.898389 0.092916
vt 0.888446 0.099246
vt 0.888655 0.099246
vt 0.898389 0.099246
vt 0.888446 0.105577
vt 0.888655 0.105577
vt 0.898389 0.105577
vt 0.888446 0.111907
vt 0.888655 0.111907
vt 0.898389 0.111907
vt 0.888446 0.118237
vt 0.888655 0.118237
vt 0.898389 0.118237
vt 0.888654 0.086586
vt 0.888655 0.080255
vt 0.888655 0.073925
vt 0.888655 0.067594
vt 0.888655 0.073883
vt 0.888655 0.080171
vt 0.888655 0.086459
vt 0.888655 0.092748
vt 0.888655 0.099036
vt 0.888655 0.105324
vt 0.888655 0.111613
vt 0.888655 0.117901
vt 0.888655 0.118237
vt 0.888655 0.111907
vt 0.888655 0.105577
vt 0.888655 0.099246
vt 0.888655 0.092916
vn -0.795951 -0.507704 0.329693
vn -0.795951 -0.507704 0.329693
vn -0.609195 -0.507704 0.609194
vn -0.609195 -0.507704 0.609194
vn -0.609195 -0.507704 0.609194
vn -0.609195 -0.507704 0.609194
vn -0.329694 -0.507704 0.795951
vn -0.329694 -0.507704 0.795951
vn -0.329694 -0.507704 0.795951
vn -0.329694 -0.507704 0.795951
vn 0.000000 -0.507704 0.861531
vn 0.000000 -0.507704 0.861532
vn 0.000000 -0.507704 0.861532
vn 0.000000 -0.507704 0.861531
vn 0.329693 -0.507704 0.795951
vn 0.329693 -0.507704 0.795952
vn 0.329693 -0.507704 0.795952
vn 0.329693 -0.507704 0.795951
vn 0.609194 -0.507704 0.609195
vn 0.609194 -0.507704 0.609195
vn 0.609194 -0.507704 0.609195
vn 0.609194 -0.507704 0.609195
vn 0.795951 -0.507704 0.329694
vn 0.795951 -0.507704 0.329694
vn 0.795951 -0.507704 0.329694
vn 0.795951 -0.507704 0.329694
vn 0.861531 -0.507704 0.000000
vn 0.861532 -0.507704 0.000000
vn 0.861532 -0.507704 0.000000
vn 0.861531 -0.507704 0.000000
vn 0.795951 -0.507704 -0.329693
vn 0.795952 -0.507704 -0.329693
vn 0.795952 -0.507704 -0.329693
vn 0.795951 -0.507704 -0.329693
vn 0.609195 -0.507704 -0.609194
vn 0.609195 -0.507704 -0.609195
vn 0.609195 -0.507704 -0.609195
vn 0.609195 -0.507704 -0.609194
vn 0.329694 -0.507704 -0.795951
vn 0.329694 -0.507704 -0.795951
vn 0.329694 -0.507704 -0.795951
vn 0.329694 -0.507704 -0.795951
vn 0.000000 -0.507704 -0.861531
vn 0.000000 -0.507704 -0.861532
vn 0.000000 -0.507704 -0.861532
vn 0.000000 -0.507704 -0.861531
vn -0.329693 -0.507704 -0.795951
vn -0.329693 -0.507704 -0.795951
vn -0.329693 -0.507704 -0.795951
vn -0.329693 -0.507704 -0.795951
vn -0.609195 -0.507704 -0.609195
vn -0.609195 -0.507704 -0.609195
vn -0.609195 -0.507704 -0.609195
vn -0.609195 -0.507704 -0.609195
vn -0.795951 -0.507704 -0.329694
vn -0.795951 -0.507704 -0.329694
vn -0.795951 -0.507704 -0.329694
vn -0.795951 -0.507704 -0.329694
vn -0.861531 -0.507704 0.000000
vn -0.861532 -0.507704 0.000000
vn -0.861532 -0.507704 0.000000
vn -0.861531 -0.507704 0.000000
vn -0.795951 -0.507704 0.329693
vn -0.795951 -0.507704 0.329693
vn 0.785280 0.526813 -0.325273
vn 0.601028 0.526813 -0.601027
vn 0.601028 0.526813 -0.601027
vn 0.785281 0.526813 -0.325274
vn 0.601028 0.526813 -0.601027
vn 0.325274 0.526813 -0.785280
vn 0.325274 0.526813 -0.785280
vn 0.601028 0.526813 -0.601027
vn 0.325274 0.526813 -0.785280
vn 0.000000 0.526813 -0.849981
vn 0.000000 0.526813 -0.849981
vn 0.325274 0.526813 -0.785280
vn 0.000000 0.526813 -0.849981
vn -0.325273 0.526813 -0.785281
vn -0.325273 0.526813 -0.785281
vn 0.000000 0.526813 -0.849981
vn -0.325273 0.526813 -0.785281
vn -0.601027 0.526813 -0.601028
vn -0.601027 0.526813 -0.601028
vn -0.325273 0.526813 -0.785281
vn -0.601027 0.526813 -0.601028
vn -0.785280 0.526813 -0.325274
vn -0.785280 0.526813 -0.325274
vn -0.601027 0.526813 -0.601028
vn -0.785280 0.526813 -0.325274
vn -0.849981 0.526813 0.000000
vn -0.849981 0.526813 0.000000
vn -0.785280 0.526813 -0.325274
vn -0.849981 0.526813 0.000000
vn -0.785281 0.526813 0.325273
vn -0.785281 0.526813 0.325273
vn -0.849981 0.526813 0.000000
vn -0.785281 0.526813 0.325273
vn -0.601028 0.526813 0.601027
vn -0.601028 0.526813 0.601027
vn -0.785281 0.526813 0.325273
vn -0.601028 0.526813 0.601027
vn -0.325274 0.526813 0.785280
vn -0.325274 0.526813 0.785280
vn -0.601028 0.526813 0.601027
vn -0.325274 0.526813 0.785280
vn 0.000000 0.526813 0.849981
vn 0.000000 0.526813 0.849981
vn -0.325274 0.526813 0.785280
vn 0.000000 0.526813 0.849981
vn 0.325273 0.526813 0.785280
vn 0.325273 0.526813 0.785281
vn 0.000000 0.526813 0.849981
vn 0.325273 0.526813 0.785280
vn 0.601027 0.526813 0.601027
vn 0.601027 0.526813 0.601028
vn 0.325273 0.526813 0.785281
vn 0.601027 0.526813 0.601027
vn 0.785280 0.526813 0.325274
vn 0.785280 0.526813 0.325274
vn 0.601027 0.526813 0.601028
vn 0.785280 0.526813 0.325274
vn 0.849981 0.526813 0.000000
vn 0.849981 0.526813 0.000000
vn 0.785280 0.526813 0.325274
vn 0.849981 0.526813 0.000000
vn 0.785280 0.526813 -0.325273
vn 0.785281 0.526813 -0.325274
vn 0.849981 0.526813 0.000000
vn 0.486709 -0.849983 -0.201601
vn 0.486709 -0.849983 -0.201601
vn 0.372511 -0.849983 -0.372510
vn 0.372511 -0.849983 -0.372510
vn 0.000000 1.000000 0.000000
vn 0.000000 1.000000 0.000000
vn 0.000000 1.000000 0.000000
vn 0.000000 1.000000 0.000000
vn 0.372511 -0.849983 -0.372510
vn 0.372511 -0.849983 -0.372510
vn 0.201602 -0.849983 -0.486709
vn 0.201602 -0.849983 -0.486709
vn 0.000000 1.000000 0.000000
vn 0.000000 1.000000 0.000000
vn 0.000000 1.000000 0.000000
vn 0.000000 1.000000 0.000000
vn 0.201602 -0.849983 -0.486709
vn 0.201602 -0.849983 -0.486709
vn 0.000000 -0.849983 -0.526810
vn 0.000000 -0.849983 -0.526810
vn 0.000000 1.000000 0.000001
vn 0.000000 1.000000 0.000001
vn 0.000000 1.000000 0.000000
vn 0.000000 1.000000 0.000000
vn 0.000000 -0.849983 -0.526810
vn 0.000000 -0.849983 -0.526810
vn -0.201601 -0.849983 -0.486709
vn -0.201601 -0.849983 -0.486709
vn 0.000000 1.000000 0.000001
vn 0.000000 1.000000 0.000001
vn 0.000000 1.000000 0.000001
vn 0.000000 1.000000 0.000001
vn -0.201601 -0.849983 -0.486709
vn -0.201601 -0.849983 -0.486709
vn -0.372510 -0.849984 -0.372511
vn -0.372510 -0.849984 -0.372511
vn 0.000000 1.000000 0.000000
vn 0.000000 1.000000 0.000000
vn 0.000000 1.000000 0.000001
vn 0.000000 1.000000 0.000001
vn -0.372510 -0.849984 -0.372511
vn -0.372510 -0.849984 -0.372511
vn -0.486708 -0.849984 -0.201601
vn -0.486708 -0.849984 -0.201601
vn 0.000000 1.000000 0.000000
vn 0.000000 1.000000 0.000000
vn 0.000000 1.000000 0.000000
vn 0.000000 1.000000 0.000000
vn -0.486708 -0.849984 -0.201601
vn -0.486708 -0.849984 -0.201601
vn -0.526809 -0.849984 0.000000
vn -0.526809 -0.849984 0.000000
vn 0.000000 1.000000 0.000000
vn 0.000000 1.000000 0.000000
vn 0.000000 1.000000 0.000000
vn 0.000000 1.000000 0.000000
vn -0.526809 -0.849984 0.000000
vn -0.526809 -0.849984 0.000000
vn -0.486709 -0.849983 0.201601
vn -0.486709 -0.849983 0.201601
vn 0.000000 1.000000 0.000000
vn 0.000000 1.000000 0.000000
vn 0.000000 1.000000 0.000000
vn 0.000000 1.000000 0.000000
vn -0.486709 -0.849983 0.201601
vn -0.486709 -0.849983 0.201601
vn -0.372511 -0.849983 0.372510
vn -0.372511 -0.849983 0.372510
vn 0.000000 1.000000 0.000000
vn 0.000000 1.000000 0.000000
vn 0.000000 1.000000 0.000000
vn 0.000000 1.000000 0.000000
vn -0.372511 -0.849983 0.372510
vn -0.372511 -0.849983 0.372510
vn -0.201601 -0.849983 0.486709
vn -0.201601 -0.849983 0.486709
vn 0.000000 1.000000 0.000000
vn 0.000000 1.000000 0.000000
vn 0.000000 1.000000 0.000000
vn 0.000000 1.000000 0.000000
vn -0.201601 -0.849983 0.486709
vn -0.201601 -0.849983 0.486709
vn 0.000000 -0.849984 0.526809
vn 0.000000 -0.849984 0.526809
vn 0.000000 1.000000 0.000001
vn 0.000000 1.000000 0.000001
vn 0.000000 1.000000 0.000000
vn 0.000000 1.000000 0.000000
vn 0.000000 -0.849984 0.526809
vn 0.000000 -0.849984 0.526809
vn 0.201601 -0.849983 0.486709
vn 0.201601 -0.849983 0.486709
vn 0.000000 1.000000 0.000001
vn 0.000000 1.000000 0.000001
vn 0.000000 1.000000 0.000001
vn 0.000000 1.000000 0.000001
vn 0.201601 -0.849983 0.486709
vn 0.201601 -0.849983 0.486709
vn 0.372511 -0.849983 0.372511
vn 0.372511 -0.849983 0.372511
vn 0.000000 1.000000 0.000000
vn 0.000000 1.000000 0.000000
vn 0.000000 1.000000 0.000001
vn 0.000000 1.000000 0.000001
vn 0.372511 -0.849983 0.372511
vn 0.372511 -0.849983 0.372511
vn 0.486709 -0.849983 0.201601
vn 0.486709 -0.849983 0.201601
vn 0.000000 1.000000 0.000000
vn 0.000000 1.000000 0.000000
vn 0.000000 1.000000 0.000000
vn 0.000000 1.000000 0.000000
vn 0.486709 -0.849983 0.201601
vn 0.486709 -0.849983 0.201601
vn 0.526810 -0.849983 0.000000
vn 0.526810 -0.849983 0.000000
vn 0.000000 1.000000 0.000000
vn 0.000000 1.000000 0.000000
vn 0.000000 1.000000 0.000000
vn 0.000000 1.000000 0.000000
vn 0.526810 -0.849983 0.000000
vn 0.526810 -0.849983 0.000000
vn 0.486709 -0.849983 -0.201601
vn 0.486709 -0.849983 -0.201601
vn 0.000000 1.000000 0.000000
vn 0.000000 1.000000 0.000000
vn 0.000000 1.000000 0.000000
vn 0.000000 1.000000 0.000000
vn -0.325274 0.526813 0.785280
vn 0.000000 0.526813 0.849981
vn 0.000000 0.526813 0.849981
vn -0.325274 0.526813 0.785281
vn -0.601028 0.526813 0.601027
vn -0.325274 0.526813 0.785280
vn -0.325274 0.526813 0.785281
vn -0.601028 0.526813 0.601028
vn -0.785281 0.526813 0.325273
vn -0.601028 0.526813 0.601027
vn -0.601028 0.526813 0.601028
vn -0.785281 0.526813 0.325273
vn -0.849981 0.526813 0.000000
vn -0.785281 0.526813 0.325273
vn -0.785281 0.526813 0.325273
vn -0.849981 0.526813 0.000000
vn -0.785280 0.526813 -0.325274
vn -0.849981 0.526813 0.000000
vn -0.849981 0.526813 0.000000
vn -0.785280 0.526813 -0.325274
vn -0.601027 0.526813 -0.601028
vn -0.785280 0.526813 -0.325274
vn -0.785280 0.526813 -0.325274
vn -0.601027 0.526813 -0.601028
vn -0.325273 0.526813 -0.785281
vn -0.601027 0.526813 -0.601028
vn -0.601027 0.526813 -0.601028
vn -0.325273 0.526813 -0.785281
vn 0.000000 0.526813 -0.849981
vn -0.325273 0.526813 -0.785281
vn -0.325273 0.526813 -0.785281
vn 0.000000 0.526813 -0.849981
vn 0.325274 0.526813 -0.785280
vn 0.000000 0.526813 -0.849981
vn 0.000000 0.526813 -0.849981
vn 0.325274 0.526813 -0.785280
vn 0.601028 0.526813 -0.601027
vn 0.325274 0.526813 -0.785280
vn 0.325274 0.526813 -0.785280
vn 0.601028 0.526813 -0.601027
vn 0.785281 0.526813 -0.325274
vn 0.601028 0.526813 -0.601027
vn 0.601028 0.526813 -0.601027
vn 0.785281 0.526813 -0.325274
vn 0.849981 0.526813 0.000000
vn 0.785281 0.526813 -0.325274
vn 0.785281 0.526813 -0.325274
vn 0.849981 0.526813 0.000000
vn 0.785280 0.526813 0.325274
vn 0.849981 0.526813 0.000000
vn 0.849981 0.526813 0.000000
vn 0.785281 0.526813 0.325274
vn 0.601027 0.526813 0.601028
vn 0.785280 0.526813 0.325274
vn 0.785281 0.526813 0.325274
vn 0.601028 0.526813 0.601028
vn 0.325273 0.526813 0.785281
vn 0.601027 0.526813 0.601028
vn 0.601028 0.526813 0.601028
vn 0.325274 0.526813 0.785281
vn 0.000000 0.526813 0.849981
vn 0.325273 0.526813 0.785281
vn 0.325274 0.526813 0.785281
vn 0.000000 0.526813 0.849981
vn 0.329693 -0.507704 0.795951
vn 0.329693 -0.507705 0.795951
vn 0.609194 -0.507705 0.609195
vn 0.609194 -0.507704 0.609195
vn 0.795951 -0.507704 0.329694
vn 0.609194 -0.507704 0.609195
vn 0.609194 -0.507705 0.609195
vn 0.795951 -0.507705 0.329694
vn 0.861531 -0.507704 0.000000
vn 0.795951 -0.507704 0.329694
vn 0.795951 -0.507705 0.329694
vn 0.861531 -0.507705 0.000000
vn 0.795951 -0.507704 -0.329693
vn 0.861531 -0.507704 0.000000
vn 0.861531 -0.507705 0.000000
vn 0.795951 -0.507705 -0.329693
vn 0.609195 -0.507704 -0.609194
vn 0.795951 -0.507704 -0.329693
vn 0.795951 -0.507705 -0.329693
vn 0.609195 -0.507705 -0.609194
vn 0.329694 -0.507704 -0.795951
vn 0.609195 -0.507704 -0.609194
vn 0.609195 -0.507705 -0.609194
vn 0.329694 -0.507705 -0.795951
vn 0.000000 -0.507704 -0.861531
vn 0.329694 -0.507704 -0.795951
vn 0.329694 -0.507705 -0.795951
vn 0.000000 -0.507705 -0.861531
vn -0.329693 -0.507704 -0.795951
vn 0.000000 -0.507704 -0.861531
vn 0.000000 -0.507705 -0.861531
vn -0.329693 -0.507705 -0.795951
vn -0.609195 -0.507704 -0.609195
vn -0.329693 -0.507704 -0.795951
vn -0.329693 -0.507705 -0.795951
vn -0.609194 -0.507705 -0.609195
vn -0.795951 -0.507704 -0.329694
vn -0.609195 -0.507704 -0.609195
vn -0.609194 -0.507705 -0.609195
vn -0.795951 -0.507705 -0.329694
vn -0.861531 -0.507704 0.000000
vn -0.795951 -0.507704 -0.329694
vn -0.795951 -0.507705 -0.329694
vn -0.861531 -0.507705 0.000000
vn -0.795951 -0.507704 0.329693
vn -0.861531 -0.507704 0.000000
vn -0.861531 -0.507705 0.000000
vn -0.795951 -0.507705 0.329693
vn -0.609195 -0.507704 0.609194
vn -0.795951 -0.507704 0.329693
vn -0.795951 -0.507705 0.329693
vn -0.609195 -0.507705 0.609194
vn -0.329694 -0.507704 0.795951
vn -0.609195 -0.507704 0.609194
vn -0.609195 -0.507705 0.609194
vn -0.329694 -0.507705 0.795951
vn 0.000000 -0.507704 0.861531
vn -0.329694 -0.507704 0.795951
vn -0.329694 -0.507705 0.795951
vn 0.000000 -0.507705 0.861531
vn 0.329693 -0.507704 0.795951
vn 0.000000 -0.507704 0.861531
vn 0.000000 -0.507705 0.861531
vn 0.329693 -0.507705 0.795951
f 33/1/1 93/2/2 94/3/3 34/4/4
f 34/4/5 94/3/6 95/5/7 37/6/8
f 37/6/9 95/5/10 96/7/11 39/8/12
f 39/8/13 96/7/14 81/9/15 41/10/16
f 41/10/17 81/9/18 82/11/19 43/12/20
f 43/12/21 82/11/22 83/13/23 45/14/24
f 45/14/25 83/13/26 84/15/27 47/16/28
f 47/16/29 84/15/30 85/17/31 49/18/32
f 49/18/33 85/17/34 86/19/35 51/20/36
f 51/20/37 86/19/38 87/21/39 53/22/40
f 53/22/41 87/21/42 88/23/43 55/24/44
f 55/24/45 88/23/46 89/25/47 57/26/48
f 57/26/49 89/25/50 90/27/51 59/28/52
f 59/28/53 90/27/54 91/29/55 61/30/56
f 61/30/57 91/29/58 92/31/59 63/32/60
f 63/32/61 92/31/62 93/33/63 33/34/64
f 1/35/65 2/36/66 75/37/67 76/38/68
f 2/36/69 3/39/70 74/40/71 75/37/72
f 3/39/73 4/41/74 73/42/75 74/40/76
f 4/41/77 5/43/78 72/44/79 73/42/80
f 5/43/81 6/45/82 71/46/83 72/44/84
f 6/45/85 7/47/86 70/48/87 71/46/88
f 7/47/89 8/49/90 69/50/91 70/48/92
f 8/49/93 9/51/94 68/52/95 69/50/96
f 9/51/97 10/53/98 67/54/99 68/52/100
f 10/53/101 11/55/102 66/56/103 67/54/104
f 11/55/105 12/57/106 65/58/107 66/56/108
f 12/57/109 13/59/110 80/60/111 65/58/112
f 13/59/113 14/61/114 79/62/115 80/60/116
f 14/61/117 15/63/118 78/64/119 79/62/120
f 15/63/121 16/65/122 77/66/123 78/64/124
f 16/65/125 1/67/126 76/68/127 77/66/128
f 1/69/129 33/1/130 34/4/131 2/70/132
f 18/71/133 35/72/134 36/73/135 17/74/136
f 2/70/137 34/4/138 37/6/139 3/75/140
f 19/76/141 38/77/142 35/72/143 18/71/144
f 3/75/145 37/6/146 39/8/147 4/78/148
f 20/79/149 40/80/150 38/77/151 19/76/152
f 4/78/153 39/8/154 41/10/155 5/81/156
f 21/82/157 42/83/158 40/80/159 20/79/160
f 5/81/161 41/10/162 43/12/163 6/84/164
f 22/85/165 44/86/166 42/83/167 21/82/168
f 6/84/169 43/12/170 45/14/171 7/87/172
f 23/88/173 46/89/174 44/86/175 22/85/176
f 7/87/177 45/14/178 47/16/179 8/90/180
f 24/91/181 48/92/182 46/89/183 23/88/184
f 8/90/185 47/16/186 49/18/187 9/93/188
f 25/94/189 50/95/190 48/92/191 24/91/192
f 9/93/193 49/18/194 51/20/195 10/96/196
f 26/97/197 52/98/198 50/95/199 25/94/200
f 10/96/201 51/20/202 53/22/203 11/99/204
f 27/100/205 54/101/206 52/98/207 26/97/208
f 11/99/209 53/22/210 55/24/211 12/102/212
f 28/103/213 56/104/214 54/101/215 27/100/216
f 12/102/217 55/24/218 57/26/219 13/105/220
f 29/106/221 58/107/222 56/104/223 28/103/224
f 13/105/225 57/26/226 59/28/227 14/108/228
f 30/109/229 60/110/230 58/107/231 29/106/232
f 14/108/233 59/28/234 61/30/235 15/111/236
f 31/112/237 62/113/238 60/110/239 30/109/240
f 15/111/241 61/30/242 63/32/243 16/114/244
f 32/115/245 64/116/246 62/113/247 31/112/248
f 16/114/249 63/32/250 33/34/251 1/117/252
f 17/118/253 36/119/254 64/116/255 32/115/256
f 66/56/257 65/58/258 28/120/259 27/121/260
f 67/54/261 66/56/262 27/121/263 26/122/264
f 68/52/265 67/54/266 26/122/267 25/123/268
f 69/50/269 68/52/270 25/123/271 24/124/272
f 70/48/273 69/50/274 24/124/275 23/125/276
f 71/46/277 70/48/278 23/125/279 22/126/280
f 72/44/281 71/46/282 22/126/283 21/127/284
f 73/42/285 72/44/286 21/127/287 20/128/288
f 74/40/289 73/42/290 20/128/291 19/129/292
f 75/37/293 74/40/294 19/129/295 18/130/296
f 76/38/297 75/37/298 18/130/299 17/131/300
f 77/66/301 76/68/302 17/132/303 32/133/304
f 78/64/305 77/66/306 32/133/307 31/134/308
f 79/62/309 78/64/310 31/134/311 30/135/312
f 80/60/313 79/62/314 30/135/315 29/136/316
f 65/58/317 80/60/318 29/136/319 28/120/320
f 81/9/321 42/83/322 44/86/323 82/11/324
f 83/13/325 82/11/326 44/86/327 46/89/328
f 84/15/329 83/13/330 46/89/331 48/92/332
f 85/17/333 84/15/334 48/92/335 50/95/336
f 86/19/337 85/17/338 50/95/339 52/98/340
f 87/21/341 86/19/342 52/98/343 54/101/344
f 88/23/345 87/21/346 54/101/347 56/104/348
f 89/25/349 88/23/350 56/104/351 58/107/352
f 90/27/353 89/25/354 58/107/355 60/110/356
f 91/29/357 90/27/358 60/110/359 62/113/360
f 92/31/361 91/29/362 62/113/363 64/116/364
f 93/33/365 92/31/366 64/116/367 36/119/368
f 94/3/369 93/2/370 36/73/371 35/72/372
f 95/5/373 94/3/374 35/72/375 38/77/376
f 96/7/377 95/5/378 38/77/379 40/80/380
f 81/9/381 96/7/382 40/80/383 42/83/384
