# This file uses centimeters as units for non-parametric coordinates.

v 19.695950 0.000000 -8.158316
v 15.074618 0.000000 -15.074608
v 8.158332 0.000000 -19.695930
v 0.000011 0.000000 -21.318741
v -8.158316 0.000000 -19.695950
v -15.074610 0.000000 -15.074617
v -19.695934 0.000000 -8.158328
v -21.318743 0.000000 -0.000007
v -19.695950 0.000000 8.158319
v -15.074618 0.000000 15.074612
v -8.158327 0.000000 19.695950
v -0.000003 0.000000 21.318745
v 8.158321 0.000000 19.695950
v 15.074611 0.000000 15.074615
v 19.695950 0.000000 8.158323
v 21.318743 0.000000 0.000001
v 15.105474 55.095825 -6.256882
v 11.561229 55.095825 -11.561218
v 6.256897 55.095825 -15.105461
v 0.000008 55.095825 -16.350044
v -6.256883 55.095825 -15.105474
v -11.561220 55.095825 -11.561228
v -15.105465 55.095825 -6.256895
v -16.350046 55.095825 -0.000005
v -15.105473 55.095825 6.256886
v -11.561229 55.095825 11.561222
v -6.256894 55.095825 15.105471
v -0.000002 55.095825 16.350048
v 6.256888 55.095825 15.105471
v 11.561221 55.095825 11.561225
v 15.105471 55.095825 6.256890
v 16.350046 55.095825 0.000001
v 18.415417 0.000000 -7.627895
v 14.094541 0.000000 -14.094529
v 10.809575 55.095825 -10.809564
v 14.123394 55.095825 -5.850085
v 7.627921 0.000000 -18.415398
v 5.850106 55.095825 -14.123375
v 0.000009 0.000000 -19.932686
v 0.000007 55.095825 -15.287041
v -7.627898 0.000000 -18.415417
v -5.850088 55.095825 -14.123394
v -14.094536 0.000000 -14.094540
v -10.809570 55.095825 -10.809574
v -18.415401 0.000000 -7.627919
v -14.123379 55.095825 -5.850104
v -19.932690 0.000000 -0.000006
v -15.287045 55.095825 -0.000004
v -18.415415 0.000000 7.627901
v -14.123392 55.095825 5.850091
v -14.094541 0.000000 14.094538
v -10.809575 55.095825 10.809572
v -7.627918 0.000000 18.415405
v -5.850103 55.095825 14.123383
v -0.000003 0.000000 19.932690
v -0.000002 55.095825 15.287045
v 7.627913 0.000000 18.415405
v 5.850098 55.095825 14.123383
v 14.094538 0.000000 14.094540
v 10.809572 55.095825 10.809575
v 18.415405 0.000000 7.627917
v 14.123383 55.095825 5.850102
v 19.932690 0.000000 0.000000
v 15.287045 55.095825 0.000001
vt 0.878062 0.495006
vt 0.997126 0.495006
vt 0.997126 0.481472
vt 0.878062 0.481472
vt 0.997126 0.467937
vt 0.878062 0.467937
vt 0.997126 0.454402
vt 0.878062 0.454402
vt 0.997126 0.440868
vt 0.878062 0.440868
vt 0.997126 0.454251
vt 0.878062 0.454251
vt 0.997126 0.467876
vt 0.878062 0.467876
vt 0.997126 0.481501
vt 0.878062 0.481501
vt 0.997126 0.495126
vt 0.878062 0.495126
vt 0.997126 0.481531
vt 0.878062 0.481531
vt 0.997126 0.467937
vt 0.878062 0.467937
vt 0.997126 0.454342
vt 0.878062 0.454342
vt 0.997126 0.440747
vt 0.878062 0.440747
vt 0.997126 0.454251
vt 0.878062 0.454251
vt 0.997126 0.467756
vt 0.878062 0.467756
vt 0.997126 0.481260
vt 0.878062 0.481260
vt 0.997126 0.494765
vt 0.878062 0.494765
vt 0.876441 0.495006
vt 0.876442 0.481472
vt 0.998747 0.481472
vt 0.998747 0.495006
vt 0.876441 0.467937
vt 0.998747 0.467937
vt 0.876441 0.454402
vt 0.998746 0.454402
vt 0.876441 0.440868
vt 0.998747 0.440868
vt 0.876441 0.454251
vt 0.998747 0.454251
vt 0.876441 0.467876
vt 0.998747 0.467876
vt 0.876441 0.481501
vt 0.998747 0.481501
vt 0.876441 0.495126
vt 0.998747 0.495126
vt 0.876441 0.481531
vt 0.998747 0.481532
vt 0.876441 0.467937
vt 0.998747 0.467937
vt 0.876441 0.454342
vt 0.998747 0.454342
vt 0.876442 0.440747
vt 0.998747 0.440747
vt 0.876441 0.454251
vt 0.998747 0.454251
vt 0.876441 0.467756
vt 0.998747 0.467756
vt 0.876441 0.481260
vt 0.998747 0.481261
vt 0.876441 0.494765
vt 0.998747 0.494765
vt 0.876441 0.495006
vt 0.876442 0.481472
vt 0.998747 0.481472
vt 0.998747 0.495006
vt 0.876441 0.467937
vt 0.998747 0.467937
vt 0.876441 0.454402
vt 0.998746 0.454402
vt 0.876441 0.440868
vt 0.998747 0.440868
vt 0.876441 0.454251
vt 0.998747 0.454251
vt 0.876441 0.467876
vt 0.998747 0.467876
vt 0.876441 0.481501
vt 0.998747 0.481501
vt 0.876441 0.495126
vt 0.998747 0.495126
vt 0.876441 0.481531
vt 0.998747 0.481532
vt 0.876441 0.467937
vt 0.998747 0.467937
vt 0.876441 0.454342
vt 0.998747 0.454342
vt 0.876442 0.440747
vt 0.998747 0.440747
vt 0.876441 0.454251
vt 0.998747 0.454251
vt 0.876441 0.467756
vt 0.998747 0.467756
vt 0.876441 0.481260
vt 0.998747 0.481261
vt 0.876441 0.494765
vt 0.998747 0.494765
vn -0.920613 -0.084021 0.381330
vn -0.920613 -0.084021 0.381330
vn -0.704607 -0.084021 0.704606
vn -0.704607 -0.084021 0.704606
vn -0.704607 -0.084021 0.704606
vn -0.704607 -0.084021 0.704606
vn -0.381331 -0.084021 0.920612
vn -0.381331 -0.084021 0.920612
vn -0.381331 -0.084021 0.920612
vn -0.381331 -0.084021 0.920612
vn -0.000001 -0.084021 0.996464
vn -0.000001 -0.084021 0.996464
vn -0.000001 -0.084021 0.996464
vn -0.000001 -0.084021 0.996464
vn 0.381330 -0.084021 0.920613
vn 0.381330 -0.084021 0.920613
vn 0.381330 -0.084021 0.920613
vn 0.381330 -0.084021 0.920613
vn 0.704606 -0.084021 0.704606
vn 0.704606 -0.084021 0.704607
vn 0.704606 -0.084021 0.704607
vn 0.704606 -0.084021 0.704606
vn 0.920612 -0.084021 0.381331
vn 0.920612 -0.084021 0.381331
vn 0.920612 -0.084021 0.381331
vn 0.920612 -0.084021 0.381331
vn 0.996464 -0.084021 0.000001
vn 0.996464 -0.084021 0.000001
vn 0.996464 -0.084021 0.000001
vn 0.996464 -0.084021 0.000001
vn 0.920613 -0.084021 -0.381330
vn 0.920613 -0.084021 -0.381330
vn 0.920613 -0.084021 -0.381330
vn 0.920613 -0.084021 -0.381330
vn 0.704607 -0.084021 -0.704606
vn 0.704607 -0.084021 -0.704606
vn 0.704607 -0.084021 -0.704606
vn 0.704607 -0.084021 -0.704606
vn 0.381330 -0.084021 -0.920613
vn 0.381330 -0.084021 -0.920613
vn 0.381330 -0.084021 -0.920613
vn 0.381330 -0.084021 -0.920613
vn 0.000000 -0.084021 -0.996464
vn 0.000000 -0.084021 -0.996464
vn 0.000000 -0.084021 -0.996464
vn 0.000000 -0.084021 -0.996464
vn -0.381330 -0.084021 -0.920613
vn -0.381330 -0.084021 -0.920613
vn -0.381330 -0.084021 -0.920613
vn -0.381330 -0.084021 -0.920613
vn -0.704606 -0.084021 -0.704607
vn -0.704606 -0.084021 -0.704607
vn -0.704606 -0.084021 -0.704607
vn -0.704606 -0.084021 -0.704607
vn -0.920613 -0.084021 -0.381330
vn -0.920613 -0.084021 -0.381330
vn -0.920613 -0.084021 -0.381330
vn -0.920613 -0.084021 -0.381330
vn -0.996464 -0.084021 -0.000001
vn -0.996464 -0.084021 -0.000001
vn -0.996464 -0.084021 -0.000001
vn -0.996464 -0.084021 -0.000001
vn -0.920613 -0.084021 0.381330
vn -0.920613 -0.084021 0.381330
vn 0.920145 0.089818 -0.381137
vn 0.704249 0.089818 -0.704249
vn 0.704249 0.089818 -0.704249
vn 0.920145 0.089818 -0.381137
vn 0.704249 0.089818 -0.704249
vn 0.381138 0.089818 -0.920145
vn 0.381138 0.089818 -0.920145
vn 0.704249 0.089818 -0.704249
vn 0.381138 0.089818 -0.920145
vn 0.000001 0.089818 -0.995958
vn 0.000001 0.089818 -0.995958
vn 0.381138 0.089818 -0.920145
vn 0.000001 0.089818 -0.995958
vn -0.381137 0.089818 -0.920145
vn -0.381137 0.089818 -0.920145
vn 0.000001 0.089818 -0.995958
vn -0.381137 0.089818 -0.920145
vn -0.704249 0.089818 -0.704249
vn -0.704249 0.089818 -0.704249
vn -0.381137 0.089818 -0.920145
vn -0.704249 0.089818 -0.704249
vn -0.920145 0.089818 -0.381138
vn -0.920145 0.089818 -0.381138
vn -0.704249 0.089818 -0.704249
vn -0.920145 0.089818 -0.381138
vn -0.995958 0.089818 -0.000001
vn -0.995958 0.089818 -0.000001
vn -0.920145 0.089818 -0.381138
vn -0.995958 0.089818 -0.000001
vn -0.920145 0.089818 0.381137
vn -0.920145 0.089818 0.381137
vn -0.995958 0.089818 -0.000001
vn -0.920145 0.089818 0.381137
vn -0.704249 0.089818 0.704249
vn -0.704249 0.089818 0.704249
vn -0.920145 0.089818 0.381137
vn -0.704249 0.089818 0.704249
vn -0.381138 0.089818 0.920145
vn -0.381138 0.089818 0.920145
vn -0.704249 0.089818 0.704249
vn -0.381138 0.089818 0.920145
vn 0.000000 0.089818 0.995958
vn 0.000000 0.089818 0.995958
vn -0.381138 0.089818 0.920145
vn 0.000000 0.089818 0.995958
vn 0.381138 0.089818 0.920145
vn 0.381138 0.089818 0.920145
vn 0.000000 0.089818 0.995958
vn 0.381138 0.089818 0.920145
vn 0.704249 0.089818 0.704249
vn 0.704249 0.089818 0.704249
vn 0.381138 0.089818 0.920145
vn 0.704249 0.089818 0.704249
vn 0.920145 0.089818 0.381138
vn 0.920145 0.089818 0.381138
vn 0.704249 0.089818 0.704249
vn 0.920145 0.089818 0.381138
vn 0.995958 0.089818 0.000000
vn 0.995958 0.089818 0.000000
vn 0.920145 0.089818 0.381138
vn 0.995958 0.089818 0.000000
vn 0.920145 0.089818 -0.381137
vn 0.920145 0.089818 -0.381137
vn 0.995958 0.089818 0.000000
vn 0.000000 -1.000000 0.000000
vn 0.000000 -1.000000 0.000000
vn 0.000000 -1.000000 0.000000
vn 0.000000 -1.000000 0.000000
vn 0.000000 1.000000 0.000000
vn 0.000000 1.000000 0.000000
vn 0.000000 1.000000 0.000000
vn 0.000000 1.000000 0.000000
vn 0.000000 -1.000000 0.000000
vn 0.000000 -1.000000 0.000000
vn 0.000000 -1.000000 0.000000
vn 0.000000 -1.000000 0.000000
vn 0.000000 1.000000 0.000000
vn 0.000000 1.000000 0.000000
vn 0.000000 1.000000 0.000000
vn 0.000000 1.000000 0.000000
vn 0.000000 -1.000000 0.000000
vn 0.000000 -1.000000 0.000000
vn 0.000000 -1.000000 0.000000
vn 0.000000 -1.000000 0.000000
vn 0.000000 1.000000 0.000000
vn 0.000000 1.000000 0.000000
vn 0.000000 1.000000 0.000000
vn 0.000000 1.000000 0.000000
vn 0.000000 -1.000000 0.000000
vn 0.000000 -1.000000 0.000000
vn 0.000000 -1.000000 0.000000
vn 0.000000 -1.000000 0.000000
vn 0.000000 1.000000 -0.000002
vn 0.000000 1.000000 -0.000002
vn 0.000000 1.000000 0.000000
vn 0.000000 1.000000 0.000000
vn 0.000000 -1.000000 0.000000
vn 0.000000 -1.000000 0.000000
vn 0.000000 -1.000000 0.000000
vn 0.000000 -1.000000 0.000000
vn 0.000000 1.000000 -0.000002
vn 0.000000 1.000000 -0.000002
vn 0.000000 1.000000 -0.000002
vn 0.000000 1.000000 -0.000002
vn 0.000000 -1.000000 0.000000
vn 0.000000 -1.000000 0.000000
vn 0.000000 -1.000000 0.000000
vn 0.000000 -1.000000 0.000000
vn 0.000000 1.000000 -0.000001
vn 0.000000 1.000000 -0.000001
vn 0.000000 1.000000 -0.000002
vn 0.000000 1.000000 -0.000002
vn 0.000000 -1.000000 0.000000
vn 0.000000 -1.000000 0.000000
vn 0.000000 -1.000000 0.000000
vn 0.000000 -1.000000 0.000000
vn 0.000000 1.000000 -0.000001
vn 0.000000 1.000000 -0.000001
vn 0.000000 1.000000 -0.000001
vn 0.000000 1.000000 -0.000001
vn 0.000000 -1.000000 0.000000
vn 0.000000 -1.000000 0.000000
vn 0.000000 -1.000000 0.000000
vn 0.000000 -1.000000 0.000000
vn 0.000000 1.000000 0.000000
vn 0.000000 1.000000 0.000000
vn 0.000000 1.000000 -0.000001
vn 0.000000 1.000000 -0.000001
vn 0.000000 -1.000000 0.000000
vn 0.000000 -1.000000 0.000000
vn 0.000000 -1.000000 0.000000
vn 0.000000 -1.000000 0.000000
vn 0.000000 1.000000 -0.000002
vn 0.000000 1.000000 -0.000002
vn 0.000000 1.000000 0.000000
vn 0.000000 1.000000 0.000000
vn 0.000000 -1.000000 0.000000
vn 0.000000 -1.000000 0.000000
vn 0.000000 -1.000000 0.000000
vn 0.000000 -1.000000 0.000000
vn 0.000000 1.000000 -0.000002
vn 0.000000 1.000000 -0.000002
vn 0.000000 1.000000 -0.000002
vn 0.000000 1.000000 -0.000002
vn 0.000000 -1.000000 0.000000
vn 0.000000 -1.000000 0.000000
vn 0.000000 -1.000000 0.000000
vn 0.000000 -1.000000 0.000000
vn 0.000000 1.000000 0.000000
vn 0.000000 1.000000 0.000000
vn 0.000000 1.000000 -0.000002
vn 0.000000 1.000000 -0.000002
vn 0.000000 -1.000000 0.000000
vn 0.000000 -1.000000 0.000000
vn 0.000000 -1.000000 0.000000
vn 0.000000 -1.000000 0.000000
vn 0.000000 1.000000 0.000000
vn 0.000000 1.000000 0.000000
vn 0.000000 1.000000 0.000000
vn 0.000000 1.000000 0.000000
vn 0.000000 -1.000000 0.000000
vn 0.000000 -1.000000 0.000000
vn 0.000000 -1.000000 0.000000
vn 0.000000 -1.000000 0.000000
vn 0.000000 1.000000 0.000000
vn 0.000000 1.000000 0.000000
vn 0.000000 1.000000 0.000000
vn 0.000000 1.000000 0.000000
vn 0.000000 -1.000000 0.000000
vn 0.000000 -1.000000 0.000000
vn 0.000000 -1.000000 0.000000
vn 0.000000 -1.000000 0.000000
vn 0.000000 1.000000 0.000000
vn 0.000000 1.000000 0.000000
vn 0.000000 1.000000 0.000000
vn 0.000000 1.000000 0.000000
vn 0.000000 -1.000000 0.000000
vn 0.000000 -1.000000 0.000000
vn 0.000000 -1.000000 0.000000
vn 0.000000 -1.000000 0.000000
vn 0.000000 1.000000 0.000000
vn 0.000000 1.000000 0.000000
vn 0.000000 1.000000 0.000000
vn 0.000000 1.000000 0.000000
vn 0.000000 -1.000000 0.000000
vn 0.000000 -1.000000 0.000000
vn 0.000000 -1.000000 0.000000
vn 0.000000 -1.000000 0.000000
vn 0.000000 1.000000 0.000000
vn 0.000000 1.000000 0.000000
vn 0.000000 1.000000 0.000000
vn 0.000000 1.000000 0.000000
f 33/1/1 36/2/2 35/3/3 34/4/4
f 34/4/5 35/3/6 38/5/7 37/6/8
f 37/6/9 38/5/10 40/7/11 39/8/12
f 39/8/13 40/7/14 42/9/15 41/10/16
f 41/10/17 42/9/18 44/11/19 43/12/20
f 43/12/21 44/11/22 46/13/23 45/14/24
f 45/14/25 46/13/26 48/15/27 47/16/28
f 47/16/29 48/15/30 50/17/31 49/18/32
f 49/18/33 50/17/34 52/19/35 51/20/36
f 51/20/37 52/19/38 54/21/39 53/22/40
f 53/22/41 54/21/42 56/23/43 55/24/44
f 55/24/45 56/23/46 58/25/47 57/26/48
f 57/26/49 58/25/50 60/27/51 59/28/52
f 59/28/53 60/27/54 62/29/55 61/30/56
f 61/30/57 62/29/58 64/31/59 63/32/60
f 63/32/61 64/31/62 36/33/63 33/34/64
f 1/35/65 2/36/66 18/37/67 17/38/68
f 2/36/69 3/39/70 19/40/71 18/37/72
f 3/39/73 4/41/74 20/42/75 19/40/76
f 4/41/77 5/43/78 21/44/79 20/42/80
f 5/43/81 6/45/82 22/46/83 21/44/84
f 6/45/85 7/47/86 23/48/87 22/46/88
f 7/47/89 8/49/90 24/50/91 23/48/92
f 8/49/93 9/51/94 25/52/95 24/50/96
f 9/51/97 10/53/98 26/54/99 25/52/100
f 10/53/101 11/55/102 27/56/103 26/54/104
f 11/55/105 12/57/106 28/58/107 27/56/108
f 12/57/109 13/59/110 29/60/111 28/58/112
f 13/59/113 14/61/114 30/62/115 29/60/116
f 14/61/117 15/63/118 31/64/119 30/62/120
f 15/63/121 16/65/122 32/66/123 31/64/124
f 16/65/125 1/67/126 17/68/127 32/66/128
f 1/69/129 33/1/130 34/4/131 2/70/132
f 18/71/133 35/3/134 36/2/135 17/72/136
f 2/70/137 34/4/138 37/6/139 3/73/140
f 19/74/141 38/5/142 35/3/143 18/71/144
f 3/73/145 37/6/146 39/8/147 4/75/148
f 20/76/149 40/7/150 38/5/151 19/74/152
f 4/75/153 39/8/154 41/10/155 5/77/156
f 21/78/157 42/9/158 40/7/159 20/76/160
f 5/77/161 41/10/162 43/12/163 6/79/164
f 22/80/165 44/11/166 42/9/167 21/78/168
f 6/79/169 43/12/170 45/14/171 7/81/172
f 23/82/173 46/13/174 44/11/175 22/80/176
f 7/81/177 45/14/178 47/16/179 8/83/180
f 24/84/181 48/15/182 46/13/183 23/82/184
f 8/83/185 47/16/186 49/18/187 9/85/188
f 25/86/189 50/17/190 48/15/191 24/84/192
f 9/85/193 49/18/194 51/20/195 10/87/196
f 26/88/197 52/19/198 50/17/199 25/86/200
f 10/87/201 51/20/202 53/22/203 11/89/204
f 27/90/205 54/21/206 52/19/207 26/88/208
f 11/89/209 53/22/210 55/24/211 12/91/212
f 28/92/213 56/23/214 54/21/215 27/90/216
f 12/91/217 55/24/218 57/26/219 13/93/220
f 29/94/221 58/25/222 56/23/223 28/92/224
f 13/93/225 57/26/226 59/28/227 14/95/228
f 30/96/229 60/27/230 58/25/231 29/94/232
f 14/95/233 59/28/234 61/30/235 15/97/236
f 31/98/237 62/29/238 60/27/239 30/96/240
f 15/97/241 61/30/242 63/32/243 16/99/244
f 32/100/245 64/31/246 62/29/247 31/98/248
f 16/99/249 63/32/250 33/34/251 1/101/252
f 17/102/253 36/33/254 64/31/255 32/100/256
