# This file uses centimeters as units for non-parametric coordinates.

v 6.916142 0.000000 -6.916139
v 0.000000 0.000000 -9.780897
v -6.916139 0.000000 -6.916139
v -9.780897 0.000000 0.000000
v -6.916139 0.000000 6.916141
v 0.000000 0.000000 9.780899
v 6.916142 0.000000 6.916141
v 9.780899 0.000000 0.000000
v 10.057569 57.818138 -10.057569
v 0.000000 57.818138 -14.223547
v -10.057569 57.818138 -10.057569
v -14.223547 57.818138 0.000000
v -10.057569 57.818138 10.057569
v 0.000000 57.818138 14.223550
v 10.057569 57.818138 10.057569
v 14.223550 57.818138 0.000000
v 6.151267 0.083115 -6.151265
v 0.000001 0.083115 -8.699200
v 0.000000 57.901268 -13.141851
v 9.292693 57.901268 -9.292693
v -6.151264 0.083115 -6.151265
v -9.292693 57.901268 -9.292693
v -8.699200 0.083115 0.000000
v -13.141851 57.901268 0.000000
v -6.151264 0.083115 6.151266
v -9.292693 57.901268 9.292693
v 0.000001 0.083115 8.699201
v 0.000000 57.901268 13.141853
v 6.151267 0.083115 6.151266
v 9.292695 57.901268 9.292695
v 8.699202 0.083115 0.000000
v 13.141853 57.901268 0.000000
v -7.721978 28.992188 -7.721980
v -10.920525 28.992188 0.000000
v -7.721978 28.992188 7.721980
v 0.000000 28.992188 10.920528
v 7.721981 28.992188 7.721981
v 10.920528 28.992188 0.000000
v 7.721980 28.992188 -7.721980
v 0.000000 28.992188 -10.920525
v 0.000000 28.909073 12.002225
v -8.486854 28.909073 8.486855
v -12.002223 28.909073 0.000000
v -8.486854 28.909073 -8.486855
v 0.000000 28.909073 -12.002223
v 8.486855 28.909073 -8.486855
v 12.002225 28.909073 0.000000
v 8.486856 28.909073 8.486855
vt 0.885769 0.167367
vt 0.982071 0.167367
vt 0.982071 0.160086
vt 0.885769 0.160086
vt 0.982071 0.152805
vt 0.885769 0.152805
vt 0.982071 0.145524
vt 0.885769 0.145524
vt 0.982071 0.138243
vt 0.885770 0.138243
vt 0.982071 0.145508
vt 0.885769 0.145508
vt 0.982071 0.152772
vt 0.885769 0.152773
vt 0.982071 0.160037
vt 0.885769 0.160038
vt 0.982071 0.167302
vt 0.885769 0.167302
vt 0.892183 0.167367
vt 0.892183 0.160086
vt 0.982071 0.160086
vt 0.982071 0.167367
vt 0.892183 0.152805
vt 0.982071 0.152805
vt 0.892183 0.145524
vt 0.982071 0.145524
vt 0.892183 0.138243
vt 0.982071 0.138243
vt 0.892183 0.145508
vt 0.982071 0.145508
vt 0.892183 0.152773
vt 0.982071 0.152772
vt 0.892183 0.160038
vt 0.982071 0.160037
vt 0.892183 0.167302
vt 0.982071 0.167302
vt 0.892183 0.167367
vt 0.892183 0.160086
vt 0.892383 0.160086
vt 0.885984 0.160086
vt 0.885984 0.167367
vt 0.892383 0.167367
vt 0.892183 0.152805
vt 0.892383 0.152805
vt 0.885984 0.152805
vt 0.892183 0.145524
vt 0.892383 0.145524
vt 0.885984 0.145524
vt 0.892183 0.138243
vt 0.892383 0.138243
vt 0.885984 0.138243
vt 0.892183 0.145508
vt 0.892383 0.145507
vt 0.885984 0.145508
vt 0.892183 0.152773
vt 0.892383 0.152772
vt 0.885984 0.152772
vt 0.892183 0.160038
vt 0.892383 0.160038
vt 0.885984 0.160037
vt 0.892183 0.167302
vt 0.892383 0.167302
vt 0.885984 0.167302
vt 0.892383 0.145507
vt 0.892383 0.138243
vt 0.892383 0.145524
vt 0.892383 0.152805
vt 0.892383 0.160086
vt 0.892383 0.167367
vt 0.892383 0.167302
vt 0.892383 0.160038
vt 0.892383 0.152772
vn -0.705029 0.076613 0.705029
vn -0.705029 0.076613 0.705029
vn 0.000000 0.076612 0.997061
vn 0.000000 0.076612 0.997061
vn 0.000000 0.076612 0.997061
vn 0.000000 0.076612 0.997061
vn 0.705029 0.076613 0.705029
vn 0.705029 0.076613 0.705029
vn 0.705029 0.076613 0.705029
vn 0.705029 0.076613 0.705029
vn 0.997061 0.076612 0.000000
vn 0.997061 0.076612 0.000000
vn 0.997061 0.076612 0.000000
vn 0.997061 0.076612 0.000000
vn 0.705029 0.076613 -0.705028
vn 0.705029 0.076613 -0.705029
vn 0.705029 0.076613 -0.705029
vn 0.705029 0.076613 -0.705028
vn 0.000000 0.076613 -0.997061
vn 0.000000 0.076613 -0.997061
vn 0.000000 0.076613 -0.997061
vn 0.000000 0.076613 -0.997061
vn -0.705029 0.076613 -0.705029
vn -0.705029 0.076613 -0.705029
vn -0.705029 0.076613 -0.705029
vn -0.705029 0.076613 -0.705029
vn -0.997061 0.076612 0.000000
vn -0.997061 0.076613 0.000000
vn -0.997061 0.076613 0.000000
vn -0.997061 0.076612 0.000000
vn -0.705029 0.076613 0.705029
vn -0.705029 0.076613 0.705029
vn 0.705029 -0.076613 -0.705029
vn 0.000000 -0.076613 -0.997061
vn 0.000000 -0.076613 -0.997061
vn 0.705028 -0.076613 -0.705029
vn 0.000000 -0.076613 -0.997061
vn -0.705029 -0.076613 -0.705029
vn -0.705029 -0.076613 -0.705029
vn 0.000000 -0.076613 -0.997061
vn -0.705029 -0.076613 -0.705029
vn -0.997061 -0.076613 0.000000
vn -0.997061 -0.076613 0.000000
vn -0.705029 -0.076613 -0.705029
vn -0.997061 -0.076613 0.000000
vn -0.705029 -0.076613 0.705029
vn -0.705029 -0.076613 0.705029
vn -0.997061 -0.076613 0.000000
vn -0.705029 -0.076613 0.705029
vn 0.000000 -0.076613 0.997061
vn 0.000000 -0.076613 0.997061
vn -0.705029 -0.076613 0.705029
vn 0.000000 -0.076613 0.997061
vn 0.705029 -0.076613 0.705029
vn 0.705029 -0.076613 0.705029
vn 0.000000 -0.076613 0.997061
vn 0.705029 -0.076613 0.705029
vn 0.997061 -0.076612 0.000000
vn 0.997061 -0.076613 0.000000
vn 0.705029 -0.076613 0.705029
vn 0.997061 -0.076612 0.000000
vn 0.705029 -0.076613 -0.705029
vn 0.705028 -0.076613 -0.705029
vn 0.997061 -0.076613 0.000000
vn -0.054172 -0.997061 0.054172
vn -0.054172 -0.997061 0.054172
vn 0.000000 -0.997061 0.076611
vn 0.000000 -0.997061 0.076611
vn 0.000000 0.997060 -0.076628
vn 0.000000 0.997060 -0.076628
vn 0.054182 0.997060 -0.054184
vn 0.054182 0.997060 -0.054184
vn 0.000000 -0.997061 0.076611
vn 0.000000 -0.997061 0.076611
vn 0.054172 -0.997061 0.054172
vn 0.054172 -0.997061 0.054172
vn -0.054182 0.997060 -0.054184
vn -0.054182 0.997060 -0.054184
vn 0.000000 0.997060 -0.076628
vn 0.000000 0.997060 -0.076628
vn 0.054172 -0.997061 0.054172
vn 0.054172 -0.997061 0.054172
vn 0.076611 -0.997061 0.000000
vn 0.076611 -0.997061 0.000000
vn -0.076625 0.997060 -0.000001
vn -0.076625 0.997060 -0.000001
vn -0.054182 0.997060 -0.054184
vn -0.054182 0.997060 -0.054184
vn 0.076611 -0.997061 0.000000
vn 0.076611 -0.997061 0.000000
vn 0.054172 -0.997061 -0.054172
vn 0.054172 -0.997061 -0.054172
vn -0.054182 0.997060 0.054184
vn -0.054182 0.997060 0.054184
vn -0.076625 0.997060 -0.000001
vn -0.076625 0.997060 -0.000001
vn 0.054172 -0.997061 -0.054172
vn 0.054172 -0.997061 -0.054172
vn 0.000000 -0.997061 -0.076611
vn 0.000000 -0.997061 -0.076611
vn 0.000000 0.997060 0.076628
vn 0.000000 0.997060 0.076628
vn -0.054182 0.997060 0.054184
vn -0.054182 0.997060 0.054184
vn 0.000000 -0.997061 -0.076611
vn 0.000000 -0.997061 -0.076611
vn -0.054172 -0.997061 -0.054172
vn -0.054172 -0.997061 -0.054172
vn 0.054182 0.997060 0.054183
vn 0.054182 0.997060 0.054183
vn 0.000000 0.997060 0.076628
vn 0.000000 0.997060 0.076628
vn -0.054172 -0.997061 -0.054172
vn -0.054172 -0.997061 -0.054172
vn -0.076611 -0.997061 0.000000
vn -0.076611 -0.997061 0.000000
vn 0.076625 0.997060 -0.000001
vn 0.076625 0.997060 -0.000001
vn 0.054182 0.997060 0.054183
vn 0.054182 0.997060 0.054183
vn -0.076611 -0.997061 0.000000
vn -0.076611 -0.997061 0.000000
vn -0.054172 -0.997061 0.054172
vn -0.054172 -0.997061 0.054172
vn 0.054182 0.997060 -0.054184
vn 0.054182 0.997060 -0.054184
vn 0.076625 0.997060 -0.000001
vn 0.076625 0.997060 -0.000001
vn 0.705029 0.076613 0.705029
vn 0.705029 0.076613 0.705028
vn 0.997061 0.076613 0.000000
vn 0.997061 0.076612 0.000000
vn 0.705029 0.076613 -0.705028
vn 0.997061 0.076612 0.000000
vn 0.997061 0.076613 0.000000
vn 0.705029 0.076612 -0.705028
vn 0.000000 0.076613 -0.997061
vn 0.705029 0.076613 -0.705028
vn 0.705029 0.076612 -0.705028
vn 0.000000 0.076612 -0.997061
vn -0.705029 0.076613 -0.705029
vn 0.000000 0.076613 -0.997061
vn 0.000000 0.076612 -0.997061
vn -0.705029 0.076612 -0.705029
vn -0.997061 0.076612 0.000000
vn -0.705029 0.076613 -0.705029
vn -0.705029 0.076612 -0.705029
vn -0.997061 0.076612 0.000000
vn -0.705029 0.076613 0.705029
vn -0.997061 0.076612 0.000000
vn -0.997061 0.076612 0.000000
vn -0.705028 0.076612 0.705029
vn 0.000000 0.076612 0.997061
vn -0.705029 0.076613 0.705029
vn -0.705028 0.076612 0.705029
vn 0.000000 0.076613 0.997061
vn 0.705029 0.076613 0.705029
vn 0.000000 0.076612 0.997061
vn 0.000000 0.076613 0.997061
vn 0.705029 0.076613 0.705028
vn -0.705029 -0.076613 0.705029
vn 0.000000 -0.076613 0.997061
vn 0.000000 -0.076613 0.997061
vn -0.705029 -0.076613 0.705028
vn -0.997061 -0.076613 0.000000
vn -0.705029 -0.076613 0.705029
vn -0.705029 -0.076613 0.705028
vn -0.997061 -0.076613 0.000000
vn -0.705029 -0.076613 -0.705029
vn -0.997061 -0.076613 0.000000
vn -0.997061 -0.076613 0.000000
vn -0.705029 -0.076613 -0.705029
vn 0.000000 -0.076613 -0.997061
vn -0.705029 -0.076613 -0.705029
vn -0.705029 -0.076613 -0.705029
vn 0.000000 -0.076612 -0.997061
vn 0.705028 -0.076613 -0.705029
vn 0.000000 -0.076613 -0.997061
vn 0.000000 -0.076612 -0.997061
vn 0.705028 -0.076613 -0.705029
vn 0.997061 -0.076613 0.000000
vn 0.705028 -0.076613 -0.705029
vn 0.705028 -0.076613 -0.705029
vn 0.997061 -0.076613 0.000000
vn 0.705029 -0.076613 0.705029
vn 0.997061 -0.076613 0.000000
vn 0.997061 -0.076613 0.000000
vn 0.705029 -0.076613 0.705029
vn 0.000000 -0.076613 0.997061
vn 0.705029 -0.076613 0.705029
vn 0.705029 -0.076613 0.705029
vn 0.000000 -0.076613 0.997061
f 17/1/1 39/2/2 40/3/3 18/4/4
f 18/4/5 40/3/6 33/5/7 21/6/8
f 21/6/9 33/5/10 34/7/11 23/8/12
f 23/8/13 34/7/14 35/9/15 25/10/16
f 25/10/17 35/9/18 36/11/19 27/12/20
f 27/12/21 36/11/22 37/13/23 29/14/24
f 29/14/25 37/13/26 38/15/27 31/16/28
f 31/16/29 38/15/30 39/17/31 17/18/32
f 1/19/33 2/20/34 45/21/35 46/22/36
f 2/20/37 3/23/38 44/24/39 45/21/40
f 3/23/41 4/25/42 43/26/43 44/24/44
f 4/25/45 5/27/46 42/28/47 43/26/48
f 5/27/49 6/29/50 41/30/51 42/28/52
f 6/29/53 7/31/54 48/32/55 41/30/56
f 7/31/57 8/33/58 47/34/59 48/32/60
f 8/33/61 1/35/62 46/36/63 47/34/64
f 1/37/65 17/1/66 18/4/67 2/38/68
f 10/39/69 19/40/70 20/41/71 9/42/72
f 2/38/73 18/4/74 21/6/75 3/43/76
f 11/44/77 22/45/78 19/40/79 10/39/80
f 3/43/81 21/6/82 23/8/83 4/46/84
f 12/47/85 24/48/86 22/45/87 11/44/88
f 4/46/89 23/8/90 25/10/91 5/49/92
f 13/50/93 26/51/94 24/48/95 12/47/96
f 5/49/97 25/10/98 27/12/99 6/52/100
f 14/53/101 28/54/102 26/51/103 13/50/104
f 6/52/105 27/12/106 29/14/107 7/55/108
f 15/56/109 30/57/110 28/54/111 14/53/112
f 7/55/113 29/14/114 31/16/115 8/58/116
f 16/59/117 32/60/118 30/57/119 15/56/120
f 8/58/121 31/16/122 17/18/123 1/61/124
f 9/62/125 20/63/126 32/60/127 16/59/128
f 33/5/129 22/45/130 24/48/131 34/7/132
f 35/9/133 34/7/134 24/48/135 26/51/136
f 36/11/137 35/9/138 26/51/139 28/54/140
f 37/13/141 36/11/142 28/54/143 30/57/144
f 38/15/145 37/13/146 30/57/147 32/60/148
f 39/17/149 38/15/150 32/60/151 20/63/152
f 40/3/153 39/2/154 20/41/155 19/40/156
f 33/5/157 40/3/158 19/40/159 22/45/160
f 42/28/161 41/30/162 14/64/163 13/65/164
f 43/26/165 42/28/166 13/65/167 12/66/168
f 44/24/169 43/26/170 12/66/171 11/67/172
f 45/21/173 44/24/174 11/67/175 10/68/176
f 46/22/177 45/21/178 10/68/179 9/69/180
f 47/34/181 46/36/182 9/70/183 16/71/184
f 48/32/185 47/34/186 16/71/187 15/72/188
f 41/30/189 48/32/190 15/72/191 14/64/192
