# This file uses meters as units for non-parametric coordinates.

v 78.844826 101.489517 43.795296
v -0.000000 101.489517 43.795296
v -78.844826 101.489517 43.795296
v 78.844826 92.604218 46.199600
v -78.844826 92.604218 46.199600
v -78.844826 101.489517 46.199600
v 0.000000 101.489517 46.199600
v 78.844826 101.489517 46.199600
v -0.000000 92.604218 43.795296
v 78.844826 92.604218 43.795296
v -78.844826 92.604218 43.795296
v -112.125923 92.604218 46.199600
v -112.125923 92.604218 43.795296
v 112.125923 92.604218 43.795296
v 112.125923 92.604218 46.199600
v -78.844826 127.344093 47.000923
v 0.000000 127.344093 47.000923
v 78.844826 127.344093 47.000923
v 79.646156 93.405533 47.000931
v -79.646156 93.405533 47.000931
v -79.646156 102.290848 47.000931
v -0.000000 102.290848 47.000931
v 79.646156 102.290848 47.000931
v -112.125923 128.145416 46.199608
v -111.625603 127.344093 47.000923
v -78.844826 128.145416 46.199608
v 0.000000 128.145416 46.199608
v 111.625603 127.344093 47.000923
v 112.125923 128.145416 46.199608
v 78.844826 128.145416 46.199608
v 111.625603 93.405533 47.000931
v 78.844826 101.489517 46.199608
v -111.625603 93.405533 47.000931
v -78.844826 101.489517 46.199608
v -0.000000 101.489517 46.199608
v -111.625603 101.489517 47.000923
v 111.625603 101.489517 47.000923
v -78.844826 128.145416 43.795296
v -112.125923 128.145416 43.795296
v 0.000000 128.145416 43.795296
v 112.125923 128.145416 43.795296
v 78.844826 128.145416 43.795296
v -112.125923 101.933739 46.199608
v -112.125923 103.266571 43.795296
v 112.125923 101.933739 46.199608
v 112.125923 103.266571 43.795296
v 78.844826 92.604218 41.390995
v -0.000000 92.604218 41.390995
v -78.844826 92.604218 41.390995
v -112.125923 92.604218 41.390995
v 112.125923 92.604218 41.390995
v -78.844826 128.145416 41.390995
v -112.125923 128.145416 41.390995
v 0.000000 128.145416 41.390995
v 112.125923 128.145416 41.390995
v 78.844826 128.145416 41.390995
v -112.125923 103.266571 41.390995
v 112.125923 103.266571 41.390995
v -104.653229 97.219315 41.390995
v -104.653229 97.219315 -33.337540
v 104.653214 97.219315 41.390995
v 104.653214 97.219315 -33.337532
v -106.705658 124.239494 -35.579975
v -106.500443 124.444717 -35.374752
v 106.705643 124.239494 -35.579975
v 106.500427 124.444717 -35.374752
v -104.653229 124.239494 41.390995
v -104.858444 124.444717 41.390995
v -104.653214 124.239494 -33.337540
v -104.858444 124.444717 -33.542755
v -106.500427 124.444717 41.390995
v -106.705658 124.239494 41.390995
v 106.705650 124.239494 41.390995
v 106.500427 124.444717 41.390995
v 104.858444 124.444717 41.390995
v 104.653214 124.239494 41.390995
v 104.653214 124.239494 -33.337532
v 104.858429 124.444717 -33.542755
v -106.705658 95.427467 41.390995
v -106.262482 94.984299 41.390995
v -106.262474 94.984299 -35.136799
v -106.705643 95.427467 -35.579975
v 106.262474 94.984299 41.390995
v 106.705650 95.427467 41.390995
v 106.262474 94.984299 -35.136806
v 106.705650 95.427467 -35.579983
vt 0.387964 0.959770
vt 0.399403 0.959770
vt 0.399403 0.958358
vt 0.387964 0.958358
vt 0.387964 0.959770
vt 0.387964 0.958358
vt 0.387964 0.951821
vt 0.383136 0.951821
vt 0.383136 0.951821
vt 0.387964 0.951821
vt 0.383136 0.952415
vt 0.387964 0.952415
vt 0.387964 0.952415
vt 0.383136 0.952415
vt 0.383136 0.957764
vt 0.387964 0.957764
vt 0.387964 0.957764
vt 0.383136 0.957764
vt 0.387964 0.958358
vt 0.383136 0.958358
vt 0.383136 0.958358
vt 0.387964 0.958358
vt 0.387964 0.958358
vt 0.383136 0.958358
vt 0.383136 0.958358
vt 0.387964 0.958358
vt 0.383144 0.958358
vt 0.387964 0.958358
vt 0.387964 0.958358
vt 0.383136 0.958358
vt 0.383252 0.963842
vt 0.383136 0.963877
vt 0.387964 0.963877
vt 0.387964 0.963842
vt 0.399403 0.963877
vt 0.399403 0.963842
vt 0.383136 0.963877
vt 0.383252 0.963842
vt 0.387964 0.963842
vt 0.387964 0.963877
vt 0.383144 0.958358
vt 0.383136 0.958486
vt 0.387848 0.958486
vt 0.387964 0.958358
vt 0.387848 0.959897
vt 0.387964 0.959770
vt 0.383136 0.958486
vt 0.383252 0.958358
vt 0.387964 0.958358
vt 0.387848 0.958486
vt 0.387964 0.959770
vt 0.387848 0.959897
vt 0.399403 0.959770
vt 0.399403 0.959897
vt 0.383136 0.959770
vt 0.383136 0.959770
vt 0.383366 0.958719
vt 0.387968 0.958719
vt 0.387968 0.963764
vt 0.383366 0.963764
vt 0.383366 0.958719
vt 0.387968 0.958719
vt 0.387968 0.963764
vt 0.383366 0.963764
vt 0.383366 0.958719
vt 0.387968 0.958719
vt 0.387968 0.963764
vt 0.383366 0.963764
vt 0.383366 0.958719
vt 0.387968 0.958719
vt 0.387968 0.963764
vt 0.383366 0.963764
vt 0.383196 0.958453
vt 0.383205 0.959980
vt 0.384410 0.958453
vt 0.384586 0.959980
vt 0.383172 0.959798
vt 0.383282 0.958453
vt 0.384268 0.950124
vt 0.396259 0.950124
vt 0.396259 0.963268
vt 0.384268 0.963268
vt 0.384268 0.950124
vt 0.396259 0.950124
vt 0.396259 0.963268
vt 0.384268 0.963268
vt 0.384268 0.950124
vt 0.396259 0.950124
vt 0.396259 0.963268
vt 0.384268 0.963268
vt 0.384268 0.950124
vt 0.396259 0.950124
vt 0.396259 0.963268
vt 0.384268 0.963268
vt 0.384268 0.950124
vt 0.396259 0.950124
vt 0.396259 0.963268
vt 0.384268 0.963268
vt 0.384268 0.950124
vt 0.396259 0.950124
vt 0.396259 0.963268
vt 0.384268 0.963268
vt 0.384268 0.950124
vt 0.396259 0.950124
vt 0.396259 0.963268
vt 0.384268 0.963268
vt 0.384268 0.950124
vt 0.396259 0.950124
vt 0.396259 0.963268
vt 0.384268 0.963268
vt 0.384268 0.950124
vt 0.396259 0.950124
vt 0.396259 0.963268
vt 0.384268 0.963268
vt 0.384268 0.950124
vt 0.396259 0.950124
vt 0.396259 0.963268
vt 0.384268 0.963268
vt 0.384268 0.950124
vt 0.396259 0.950124
vt 0.396259 0.963268
vt 0.384268 0.963268
vt 0.384268 0.950124
vt 0.396259 0.950124
vt 0.396259 0.963268
vt 0.384268 0.963268
vt 0.383798 0.947095
vt 0.383798 0.964101
vt 0.399042 0.964101
vt 0.399042 0.947095
vt 0.383370 0.946343
vt 0.383412 0.946263
vt 0.399427 0.946263
vt 0.399470 0.946343
vt 0.383370 0.964101
vt 0.383413 0.964101
vt 0.383370 0.963937
vt 0.383445 0.964101
vt 0.399470 0.964101
vt 0.399470 0.963937
vt 0.383755 0.964101
vt 0.383798 0.964101
vt 0.383798 0.947095
vt 0.383755 0.947011
vt 0.398983 0.946823
vt 0.398983 0.946993
vt 0.398983 0.946993
vt 0.398983 0.946823
vt 0.399042 0.964101
vt 0.399085 0.964101
vt 0.399085 0.947011
vt 0.399042 0.947095
vt 0.399427 0.964101
vt 0.398983 0.963518
vt 0.398983 0.963518
vt 0.383986 0.946993
vt 0.383986 0.963518
vt 0.383986 0.946993
vt 0.383986 0.963518
vt 0.383462 0.946179
vt 0.383370 0.946179
vt 0.383370 0.963746
vt 0.383462 0.963920
vt 0.399470 0.963746
vt 0.399378 0.963920
vt 0.399470 0.946179
vt 0.399378 0.946179
vt 0.399470 0.946534
vt 0.383370 0.946534
vt 0.399470 0.946534
vt 0.383370 0.946534
vt 0.383370 0.963937
vt 0.399470 0.963937
vn 0.000000 0.000000 1.000000
vn 0.000000 0.000000 1.000000
vn 0.000000 0.000000 1.000000
vn 0.000000 0.000000 1.000000
vn 0.000000 0.000000 1.000000
vn 0.000000 0.000000 1.000000
vn 0.000000 -1.000000 0.000000
vn 0.000000 -1.000000 -0.000000
vn 0.000000 -1.000000 -0.000000
vn 0.000000 -1.000000 0.000000
vn -1.000000 0.000000 0.000000
vn -1.000000 0.000000 0.000000
vn -1.000000 0.000000 0.000000
vn -1.000000 0.000000 0.000000
vn 1.000000 0.000000 0.000000
vn 1.000000 0.000000 0.000000
vn 1.000000 0.000000 0.000000
vn 1.000000 0.000000 0.000000
vn 0.000000 -1.000000 -0.000000
vn 0.000000 -1.000000 -0.000000
vn 0.000000 -1.000000 0.000000
vn 0.000000 -1.000000 0.000000
vn 0.000000 -1.000000 0.000000
vn 0.000000 -1.000000 0.000000
vn 0.000000 -1.000000 0.000000
vn 0.000000 -1.000000 0.000000
vn 0.000000 -1.000000 0.000000
vn 0.000000 -1.000000 0.000000
vn 0.000000 0.707099 0.707114
vn 0.000000 0.707099 0.707114
vn 0.000000 0.707104 0.707110
vn 0.000000 0.707104 0.707110
vn 0.000000 0.707106 0.707107
vn 0.000000 0.707106 0.707107
vn 0.000000 0.707099 0.707114
vn 0.000000 0.707099 0.707114
vn 0.000000 0.707104 0.707110
vn 0.000000 0.707104 0.707110
vn 0.000000 -0.707116 0.707098
vn 0.000000 -0.707116 0.707098
vn 0.000000 -0.707116 0.707098
vn 0.000000 -0.707116 0.707098
vn -0.707106 -0.000000 0.707108
vn -0.707106 -0.000000 0.707108
vn -0.707106 -0.000000 0.707108
vn -0.707106 -0.000000 0.707108
vn 0.000000 -0.707116 0.707098
vn 0.000000 -0.707116 0.707098
vn 0.000000 -0.707116 0.707098
vn 0.000000 -0.707116 0.707098
vn 0.707105 -0.000000 0.707109
vn 0.707105 -0.000000 0.707109
vn 0.707105 -0.000000 0.707109
vn 0.707105 -0.000000 0.707109
vn 0.000000 -0.707106 0.707108
vn 0.000000 -0.707106 0.707108
vn 0.000000 -0.707105 0.707108
vn 0.000000 -0.707105 0.707108
vn 0.000000 -0.707105 0.707108
vn 0.000000 -0.707106 0.707108
vn -0.000000 0.000000 1.000000
vn -0.000000 0.000000 1.000000
vn -0.000000 0.000000 1.000000
vn -0.000000 0.000000 1.000000
vn 0.000000 0.000000 1.000000
vn 0.000000 0.000000 1.000000
vn 0.000000 0.000000 1.000000
vn 0.000000 0.000000 1.000000
vn -0.000000 0.000000 1.000000
vn 0.000000 0.000000 1.000000
vn 0.000000 0.000000 1.000000
vn -0.000000 0.000000 1.000000
vn 0.000000 0.000000 1.000000
vn 0.000000 0.000000 1.000000
vn 0.000000 1.000000 0.000000
vn 0.000000 1.000000 0.000000
vn 0.000000 1.000000 0.000000
vn 0.000000 1.000000 0.000000
vn 0.000000 1.000000 0.000000
vn 0.000000 1.000000 0.000000
vn 0.000000 1.000000 0.000000
vn 0.000000 1.000000 0.000000
vn 0.000000 1.000000 0.000000
vn 0.000000 1.000000 0.000000
vn 0.000000 1.000000 0.000000
vn 0.000000 1.000000 0.000000
vn 0.000000 1.000000 0.000000
vn 0.000000 1.000000 0.000000
vn 0.000000 1.000000 0.000000
vn 0.000000 1.000000 0.000000
vn -1.000000 0.000000 0.000000
vn -1.000000 0.000000 0.000000
vn -1.000000 0.000000 0.000000
vn -1.000000 0.000000 0.000000
vn 1.000000 0.000000 0.000000
vn 1.000000 0.000000 0.000000
vn 1.000000 0.000000 0.000000
vn 1.000000 0.000000 0.000000
vn 0.848238 0.000000 0.529615
vn 0.848238 0.000000 0.529615
vn 0.848239 -0.000000 0.529614
vn 0.848238 -0.000000 0.529615
vn -0.848238 0.000000 0.529615
vn -0.848238 0.000000 0.529615
vn -0.848239 0.000000 0.529613
vn -0.848239 0.000000 0.529613
vn -0.848238 0.000000 0.529616
vn -0.848238 0.000000 0.529616
vn -1.000000 0.000000 0.000000
vn -1.000000 0.000000 0.000000
vn 0.848241 -0.000000 0.529611
vn 0.848240 -0.000000 0.529611
vn 1.000000 0.000000 0.000000
vn 1.000000 0.000000 0.000000
vn 0.000000 -1.000000 0.000000
vn 0.000000 -1.000000 0.000000
vn 0.000000 -1.000000 0.000000
vn 0.000000 -1.000000 0.000000
vn 0.000000 -1.000000 0.000000
vn 0.000000 -1.000000 0.000000
vn 0.000000 -1.000000 0.000000
vn 0.000000 -1.000000 0.000000
vn 0.000000 -1.000000 0.000000
vn 0.000000 -1.000000 0.000000
vn 0.000000 -1.000000 0.000000
vn 0.000000 -1.000000 0.000000
vn 0.000000 -1.000000 0.000000
vn 0.000000 -1.000000 0.000000
vn 0.000000 -1.000000 0.000000
vn 0.000000 -1.000000 0.000000
vn 0.000000 1.000000 0.000000
vn 0.000000 1.000000 0.000000
vn 0.000000 1.000000 0.000000
vn 0.000000 1.000000 0.000000
vn 0.000000 1.000000 0.000000
vn 0.000000 1.000000 0.000000
vn 0.000000 1.000000 0.000000
vn 0.000000 1.000000 0.000000
vn 0.000000 1.000000 0.000000
vn 0.000000 1.000000 0.000000
vn 0.000000 1.000000 0.000000
vn 0.000000 1.000000 0.000000
vn 0.000000 1.000000 0.000000
vn 0.000000 1.000000 0.000000
vn 0.000000 1.000000 0.000000
vn 0.000000 1.000000 0.000000
vn -1.000000 0.000000 0.000000
vn -1.000000 0.000000 0.000000
vn -1.000000 0.000000 0.000000
vn -1.000000 0.000000 0.000000
vn 1.000000 0.000000 0.000000
vn 1.000000 0.000000 0.000000
vn 1.000000 0.000000 0.000000
vn 1.000000 0.000000 0.000000
vn -1.000000 0.000000 0.000000
vn -1.000000 0.000000 0.000000
vn -1.000000 0.000000 0.000000
vn -1.000000 0.000000 0.000000
vn 1.000000 0.000000 0.000000
vn 1.000000 0.000000 0.000000
vn 1.000000 0.000000 0.000000
vn 1.000000 0.000000 0.000000
vn 0.000000 0.000000 -1.000000
vn 0.000000 0.000000 -1.000000
vn 0.000000 0.000000 -1.000000
vn 0.000000 0.000000 -1.000000
vn 0.000000 0.000000 -1.000000
vn 0.000000 0.000000 -1.000000
vn 0.000000 0.000000 -1.000000
vn 0.000000 0.000000 -1.000000
vn 0.000000 0.000000 -1.000000
vn 0.000000 0.000000 -1.000000
vn 0.000000 0.000000 -1.000000
vn 0.000000 0.000000 -1.000000
vn 0.000000 1.000000 0.000000
vn 0.000000 1.000000 0.000000
vn 0.000000 1.000000 0.000000
vn 0.000000 1.000000 0.000000
vn 0.000000 0.707083 -0.707131
vn 0.000000 0.707083 -0.707131
vn 0.000000 0.707083 -0.707131
vn 0.000000 0.707083 -0.707131
vn -0.707102 0.707112 0.000000
vn -0.707102 0.707112 0.000000
vn -0.707102 0.707112 0.000000
vn -0.707102 0.707112 0.000000
vn 0.707102 0.707112 -0.000000
vn 0.707102 0.707112 -0.000000
vn 0.707102 0.707112 -0.000000
vn 0.707102 0.707112 -0.000000
vn 0.707110 0.707103 0.000000
vn 0.707110 0.707103 0.000000
vn 0.707110 0.707103 0.000000
vn 0.707110 0.707103 0.000000
vn -0.000000 0.707121 0.707093
vn -0.000000 0.707121 0.707093
vn -0.000000 0.707121 0.707093
vn -0.000000 0.707121 0.707093
vn -0.707133 0.707081 0.000000
vn -0.707133 0.707081 0.000000
vn -0.707133 0.707081 0.000000
vn -0.707133 0.707081 0.000000
vn 0.000000 1.000000 0.000004
vn 0.000000 1.000000 0.000000
vn 0.000000 1.000000 0.000000
vn 0.000000 1.000000 0.000004
vn 0.000000 1.000000 0.000004
vn 0.000000 1.000000 0.000000
vn 0.000000 1.000000 0.000000
vn 0.000000 1.000000 0.000004
vn -0.000000 0.000000 1.000000
vn -0.000000 0.000000 1.000000
vn -0.000000 0.000000 1.000000
vn -0.000000 0.000000 1.000000
vn 1.000000 -0.000000 0.000000
vn 1.000000 -0.000000 0.000000
vn 1.000000 -0.000000 0.000000
vn 1.000000 -0.000000 0.000000
vn -1.000000 0.000000 0.000000
vn -1.000000 0.000000 0.000000
vn -1.000000 0.000000 0.000000
vn -1.000000 0.000000 0.000000
vn -0.707109 -0.707104 -0.000000
vn -0.707109 -0.707104 -0.000000
vn -0.707109 -0.707105 -0.000000
vn -0.707109 -0.707105 -0.000000
vn -0.000000 -0.707113 -0.707101
vn -0.000000 -0.707113 -0.707101
vn -0.000000 -0.707113 -0.707101
vn -0.000000 -0.707113 -0.707101
vn 0.707104 -0.707110 0.000000
vn 0.707104 -0.707110 0.000000
vn 0.707104 -0.707110 0.000000
vn 0.707104 -0.707110 0.000000
vn 0.000000 -1.000000 0.000000
vn 0.000000 -1.000000 0.000000
vn 0.000000 -1.000000 0.000000
vn 0.000000 -1.000000 0.000000
vn -0.000000 0.000000 -1.000000
vn -0.000000 0.000000 -1.000000
vn -0.000000 0.000000 -1.000000
vn -0.000000 0.000000 -1.000000
vn 1.000000 0.000000 -0.000000
vn 1.000000 0.000000 -0.000000
vn 1.000000 0.000000 -0.000000
vn 1.000000 0.000000 -0.000000
vn -1.000000 -0.000000 -0.000000
vn -1.000000 -0.000000 -0.000000
vn -1.000000 -0.000000 -0.000000
vn -1.000000 -0.000000 -0.000000
f 1/1/1 2/2/2 9/3/3 10/4/4
f 3/5/5 11/6/6 9/3/3 2/2/2
f 8/7/7 7/8/8 2/9/9 1/10/10
f 4/11/11 8/12/12 1/13/13 10/14/14
f 6/15/15 5/16/16 11/17/17 3/18/18
f 7/19/8 6/20/19 3/21/20 2/22/9
f 5/23/21 12/24/22 13/25/23 11/26/24
f 15/27/25 4/28/26 10/29/27 14/30/28
f 24/31/29 25/32/30 16/33/31 26/34/32
f 26/34/32 16/33/31 17/35/33 27/36/34
f 28/37/35 29/38/36 30/39/37 18/40/38
f 27/36/34 17/35/33 18/40/38 30/39/37
f 15/41/39 31/42/40 19/43/41 4/44/42
f 4/44/43 19/43/44 23/45/45 32/46/46
f 33/47/47 12/48/48 5/49/49 20/50/50
f 20/50/51 5/49/52 34/51/53 21/52/54
f 21/52/55 34/51/56 35/53/57 22/54/58
f 22/54/58 35/53/57 32/46/59 23/45/60
f 33/47/61 20/50/62 21/52/63 36/55/64
f 23/45/65 19/43/66 31/42/67 37/56/68
f 16/33/69 21/52/63 22/54/70 17/35/71
f 36/55/64 21/52/63 16/33/69 25/32/72
f 23/45/65 37/56/68 28/37/73 18/40/74
f 17/35/71 22/54/70 23/45/65 18/40/74
f 24/57/75 26/58/76 38/59/77 39/60/78
f 26/61/79 27/62/80 40/63/81 38/64/82
f 30/65/83 29/66/84 41/67/85 42/68/86
f 27/69/87 30/70/88 42/71/89 40/72/90
f 13/25/91 12/24/92 43/73/93 44/74/94
f 45/75/95 46/76/96 41/67/97 29/66/98
f 29/38/99 28/37/100 37/56/101 45/77/102
f 36/55/103 43/78/104 12/48/105 33/47/106
f 36/55/103 25/32/107 24/57/108 43/78/104
f 44/74/94 43/73/93 24/57/109 39/60/110
f 45/77/102 37/56/101 31/42/111 15/27/112
f 15/27/113 14/30/114 46/76/96 45/75/95
f 10/79/115 9/80/116 48/81/117 47/82/118
f 9/83/119 11/84/120 49/85/121 48/86/122
f 11/87/123 13/88/124 50/89/125 49/90/126
f 14/91/127 10/92/128 47/93/129 51/94/130
f 39/95/131 38/96/132 52/97/133 53/98/134
f 38/99/135 40/100/136 54/101/137 52/102/138
f 42/103/139 41/104/140 55/105/141 56/106/142
f 40/107/143 42/108/144 56/109/145 54/110/146
f 13/111/147 44/112/148 57/113/149 50/114/150
f 46/115/151 14/116/152 51/117/153 58/118/154
f 44/119/155 39/120/156 53/121/157 57/122/158
f 41/123/159 46/124/160 58/125/161 55/126/162
f 55/126/163 58/118/164 56/106/165
f 51/94/166 47/82/167 58/118/164
f 58/118/164 47/82/167 56/106/165
f 56/106/165 47/82/167 54/110/168
f 47/82/167 48/86/169 54/110/168
f 54/110/168 48/86/169 52/102/170
f 48/86/169 49/90/171 52/102/170
f 49/90/171 50/114/172 52/102/170
f 50/114/172 57/122/173 52/102/170
f 57/122/173 53/98/174 52/102/170
f 60/127/175 59/128/176 61/129/177 62/130/178
f 63/131/179 64/132/180 66/133/181 65/134/182
f 64/132/183 63/131/184 72/135/185 71/136/186
f 65/137/187 66/138/188 74/139/189 73/140/190
f 68/141/191 67/142/192 69/143/193 70/144/194
f 70/145/195 69/146/196 77/147/197 78/148/198
f 76/149/199 75/150/200 78/151/201 77/152/202
f 64/132/203 71/136/204 68/141/205 70/144/206
f 78/151/207 75/150/208 74/153/209 66/133/210
f 77/147/211 69/146/212 60/154/213 62/155/214
f 69/146/215 67/156/216 59/157/217 60/154/218
f 76/158/219 77/147/220 62/155/221 61/159/222
f 66/133/210 64/132/203 70/144/206 78/151/207
f 80/160/223 79/161/224 82/162/225 81/163/226
f 81/163/227 82/162/228 86/164/229 85/165/230
f 84/166/231 83/167/232 85/165/233 86/164/234
f 83/167/235 80/160/236 81/163/237 85/165/238
f 86/164/239 82/162/240 63/131/241 65/134/242
f 65/137/243 73/140/244 84/168/245 86/169/246
f 82/170/247 79/171/248 72/172/249 63/173/250
