# This file uses meters as units for non-parametric coordinates.

v 108.760796 88.863419 40.768848
v 108.760796 92.604218 40.768848
v -108.760796 92.604218 40.768848
v -108.760796 88.863419 40.768848
v -108.760796 92.604218 -40.768848
v -108.760796 88.863419 -40.768848
v 108.760796 92.604218 -40.768848
v 108.760796 88.863419 -40.768848
v 0.000000 92.604218 40.768848
v 0.000000 88.863419 40.768848
v 0.000000 92.604218 -40.768848
v 0.000000 88.863419 -40.768848
v 108.760796 49.581421 40.768845
v 108.760796 53.322205 40.768848
v -108.760796 53.322205 40.768848
v -108.760796 49.581421 40.768845
v -108.760796 53.322205 -40.768848
v -108.760796 49.581421 -40.768848
v 108.760796 53.322205 -40.768848
v 108.760796 49.581421 -40.768848
v 0.000000 53.322205 40.768848
v 0.000000 49.581421 40.768845
v 0.000000 53.322205 -40.768848
v 0.000000 49.581421 -40.768848
v -111.324593 14.040215 40.768829
v -112.125916 14.841530 40.768837
v -111.324593 128.145416 40.768848
v -112.125916 127.344093 40.768848
v -111.324593 128.145416 -43.173153
v -112.125916 127.344093 -43.974464
v -111.324593 14.040215 -43.173153
v -112.125916 14.841530 -43.974464
v 112.125916 127.344093 40.768848
v 111.324593 128.145416 40.768848
v 111.324593 128.145416 -43.173153
v 112.125916 127.344093 -43.974464
v 111.324593 14.040215 40.768829
v 112.125916 14.841530 40.768837
v 111.324593 14.040215 -43.173153
v 112.125916 14.841530 -43.974464
v 0.000000 128.145416 40.768848
v 0.000000 128.145416 -43.173153
v 0.000000 127.344093 -43.974464
v 0.000000 14.040215 -43.173153
v 0.000000 14.841530 -43.974464
v 0.000000 14.040215 40.768829
v 112.125916 93.405533 40.768856
v 111.324593 92.604218 40.768848
v -112.125916 88.062088 40.768848
v -111.324593 88.863419 40.768845
v -112.125916 93.405533 40.768856
v -111.324593 92.604218 40.768848
v -112.125916 93.405533 -43.974464
v -111.324593 92.604218 -43.173153
v -112.125916 88.062088 -43.974464
v -111.324593 88.863419 -43.173153
v 0.000000 88.062088 -43.974464
v 0.000000 88.863419 -43.173153
v 0.000000 93.405533 -43.974464
v 0.000000 92.604218 -43.173153
v 112.125916 88.062088 -43.974464
v 111.324593 88.863419 -43.173153
v 112.125916 93.405533 -43.974464
v 111.324593 92.604218 -43.173153
v 112.125916 88.062088 40.768848
v 111.324593 88.863419 40.768845
v 112.125916 54.123512 40.768848
v 111.324593 53.322205 40.768845
v -112.125916 48.780083 40.768837
v -111.324593 49.581421 40.768829
v -112.125916 54.123512 40.768848
v -111.324593 53.322205 40.768845
v -112.125916 54.123512 -43.974464
v -111.324593 53.322205 -43.173153
v -112.125916 48.780083 -43.974464
v -111.324593 49.581421 -43.173153
v 0.000000 48.780083 -43.974464
v 0.000000 49.581421 -43.173153
v 0.000000 54.123512 -43.974464
v 0.000000 53.322205 -43.173153
v 112.125916 48.780083 -43.974464
v 111.324593 49.581421 -43.173153
v 112.125916 54.123512 -43.974464
v 111.324593 53.322205 -43.173153
v 112.125916 48.780083 40.768837
v 111.324593 49.581421 40.768829
v -107.146484 -0.000000 33.848545
v 107.146484 -0.000000 33.848545
v -107.146484 14.040220 33.848545
v 107.146484 14.040220 33.848545
v -107.146484 14.040220 -42.319885
v 107.146484 14.040220 -42.319885
v -107.146484 -0.000000 -42.319885
v 107.146484 -0.000000 -42.319885
v 0.000000 14.040220 33.848545
v 0.000000 14.040220 -42.319885
v 0.000000 -0.000000 -42.319885
v 0.000000 -0.000000 33.848545
v 108.760796 87.325150 40.768856
v 108.760796 94.142487 40.768856
v -108.760796 94.142487 40.768856
v -108.760796 87.325150 40.768856
v 0.000000 94.142487 40.768852
v 0.000000 87.325150 40.768852
v 108.760796 48.043152 40.768852
v 108.760796 54.860474 40.768856
v -108.760796 54.860474 40.768856
v -108.760796 48.043152 40.768852
v 0.000000 54.860474 40.768852
v 0.000000 48.043152 40.768848
v -109.868408 16.297731 40.768848
v 0.000000 17.116753 40.768845
v -109.868401 125.887894 40.768833
v 0.000000 125.068878 40.768833
v 109.868401 125.887894 40.768833
v 109.868408 16.297731 40.768848
v 109.868408 94.861732 40.768837
v -109.868401 86.605904 40.768845
v -109.868408 94.861732 40.768837
v 109.868401 86.605904 40.768845
v 109.868408 55.579723 40.768845
v -109.868393 47.323906 40.768848
v -109.868408 55.579723 40.768845
v 109.868393 47.323906 40.768848
v 108.760796 87.325150 -38.250607
v 108.760796 94.142487 -38.250607
v -108.760796 94.142487 -38.250607
v -108.760796 87.325150 -38.250607
v 0.000000 94.142487 -38.250610
v 0.000000 87.325150 -38.250610
v 108.760796 48.043152 -38.250610
v 108.760796 54.860474 -38.250607
v -108.760796 54.860474 -38.250607
v -108.760796 48.043152 -38.250610
v 0.000000 54.860474 -38.250610
v 0.000000 48.043152 -38.250614
v -109.868408 16.297731 -38.250614
v 0.000000 17.116753 -38.250618
v 0.000000 125.068878 -38.250629
v -109.868401 125.887894 -38.250629
v 109.868401 125.887894 -38.250629
v 109.868408 16.297731 -38.250614
v 109.868393 47.323906 -38.250614
v 109.868408 94.861732 -38.250626
v 109.868401 86.605904 -38.250618
v 109.868408 55.579723 -38.250618
v -109.868408 94.861732 -38.250626
v -109.868401 86.605904 -38.250618
v -109.868408 55.579723 -38.250618
v -109.868393 47.323906 -38.250614
vt 0.414386 0.832764
vt 0.414386 0.833358
vt 0.414386 0.833358
vt 0.414386 0.832764
vt 0.430653 0.832764
vt 0.430653 0.833358
vt 0.414386 0.833358
vt 0.414386 0.832764
vt 0.414386 0.827415
vt 0.414386 0.826821
vt 0.414386 0.826821
vt 0.414386 0.827415
vt 0.430653 0.832764
vt 0.430653 0.833358
vt 0.414386 0.826821
vt 0.414386 0.827415
vt 0.414386 0.827415
vt 0.414386 0.826821
vt 0.430653 0.826821
vt 0.430653 0.827415
vt 0.414386 0.827415
vt 0.414386 0.826821
vt 0.414386 0.833358
vt 0.414386 0.832764
vt 0.414386 0.832764
vt 0.414386 0.833358
vt 0.430653 0.826821
vt 0.430653 0.827415
vt 0.430653 0.833358
vt 0.430653 0.832764
vt 0.430653 0.827415
vt 0.430653 0.826821
vt 0.430653 0.833358
vt 0.430653 0.832764
vt 0.430653 0.827415
vt 0.430653 0.826821
vt 0.414502 0.821337
vt 0.414386 0.821302
vt 0.414386 0.838877
vt 0.414502 0.838842
vt 0.414386 0.838877
vt 0.414502 0.838842
vt 0.414502 0.821337
vt 0.414386 0.821302
vt 0.430653 0.821337
vt 0.430653 0.821302
vt 0.430653 0.838877
vt 0.430653 0.838842
vt 0.414502 0.838842
vt 0.414386 0.838877
vt 0.414386 0.821302
vt 0.414502 0.821337
vt 0.414386 0.821302
vt 0.414502 0.821337
vt 0.414502 0.838842
vt 0.414386 0.838877
vt 0.414386 0.833486
vt 0.414394 0.833358
vt 0.430646 0.833358
vt 0.430653 0.833486
vt 0.430653 0.832644
vt 0.430646 0.832764
vt 0.414393 0.832764
vt 0.414386 0.832644
vt 0.430646 0.833358
vt 0.430653 0.833486
vt 0.414386 0.833486
vt 0.414394 0.833358
vt 0.414502 0.826821
vt 0.414386 0.826693
vt 0.414386 0.827536
vt 0.414502 0.827415
vt 0.430653 0.826693
vt 0.430653 0.826821
vt 0.430653 0.827536
vt 0.430653 0.827415
vt 0.414386 0.826693
vt 0.414502 0.826821
vt 0.430653 0.832644
vt 0.430646 0.832764
vt 0.414393 0.832764
vt 0.414386 0.832644
vt 0.414502 0.827415
vt 0.414386 0.827536
vt 0.414386 0.827536
vt 0.414534 0.827415
vt 0.430505 0.827415
vt 0.430653 0.827536
vt 0.430653 0.826693
vt 0.430505 0.826821
vt 0.414534 0.826821
vt 0.414386 0.826693
vt 0.430505 0.827415
vt 0.430653 0.827536
vt 0.414386 0.827536
vt 0.414534 0.827415
vt 0.414502 0.832764
vt 0.414386 0.832644
vt 0.414386 0.833486
vt 0.414502 0.833358
vt 0.430653 0.832644
vt 0.430653 0.832764
vt 0.430653 0.833486
vt 0.430653 0.833358
vt 0.414386 0.832644
vt 0.414502 0.832764
vt 0.430653 0.826693
vt 0.430505 0.826821
vt 0.414534 0.826821
vt 0.414386 0.826693
vt 0.414502 0.833358
vt 0.414386 0.833486
vt 0.430653 0.821302
vt 0.414386 0.821302
vt 0.430653 0.821302
vt 0.430653 0.821337
vt 0.430653 0.838842
vt 0.430653 0.838877
vt 0.414386 0.838877
vt 0.430653 0.838877
vt 0.414386 0.826821
vt 0.414386 0.827415
vt 0.414386 0.826821
vt 0.414386 0.827415
vt 0.419214 0.827415
vt 0.419214 0.827415
vt 0.419214 0.826821
vt 0.419214 0.826821
vt 0.414386 0.827415
vt 0.414386 0.827415
vt 0.414386 0.826821
vt 0.414386 0.826821
vt 0.430648 0.832764
vt 0.419220 0.832764
vt 0.419214 0.832764
vt 0.430653 0.832764
vt 0.419219 0.833358
vt 0.430648 0.833358
vt 0.430653 0.833358
vt 0.419214 0.833358
vt 0.430653 0.826821
vt 0.430653 0.826821
vt 0.430653 0.827415
vt 0.430653 0.827415
vt 0.430653 0.826821
vt 0.430653 0.826821
vt 0.430653 0.827415
vt 0.430653 0.827415
vt 0.419219 0.832764
vt 0.430648 0.832764
vt 0.430653 0.832764
vt 0.419214 0.832764
vt 0.430648 0.833358
vt 0.419220 0.833358
vt 0.419214 0.833358
vt 0.430653 0.833358
vt 0.419214 0.834770
vt 0.419214 0.834770
vt 0.419214 0.834770
vt 0.419214 0.834770
vt 0.419214 0.831427
vt 0.419214 0.831427
vt 0.419214 0.831427
vt 0.419214 0.831427
vt 0.414386 0.821174
vt 0.430653 0.821174
vt 0.430653 0.839005
vt 0.414386 0.839005
vt 0.414386 0.821174
vt 0.430653 0.821174
vt 0.430653 0.839005
vt 0.414386 0.839005
vt 0.430653 0.821174
vt 0.414386 0.821174
vt 0.414386 0.821174
vt 0.430653 0.821174
vt 0.430653 0.839005
vt 0.414386 0.839005
vt 0.414386 0.821174
vt 0.430653 0.821174
vt 0.430653 0.839005
vt 0.414386 0.839005
vt 0.414386 0.821174
vt 0.414386 0.839005
vt 0.414386 0.821174
vt 0.414386 0.821174
vt 0.414386 0.839005
vt 0.415406 0.822431
vt 0.415406 0.837793
vt 0.429421 0.822431
vt 0.429421 0.837793
vt 0.415406 0.822431
vt 0.415406 0.837793
vt 0.429421 0.822431
vt 0.429421 0.837793
vt 0.415406 0.822431
vt 0.415406 0.837793
vt 0.429421 0.822431
vt 0.429421 0.837793
vt 0.429421 0.822431
vt 0.429421 0.837793
vt 0.415406 0.822431
vt 0.415406 0.837793
vt 0.415406 0.822431
vt 0.415406 0.837793
vt 0.429421 0.822431
vt 0.429421 0.837793
vt 0.415406 0.822431
vt 0.415406 0.837793
vt 0.429421 0.822431
vt 0.429421 0.837793
vt 0.415406 0.822431
vt 0.415406 0.837793
vt 0.429421 0.822431
vt 0.429421 0.837793
vt 0.429421 0.822431
vt 0.429421 0.837793
vt 0.415406 0.822431
vt 0.415406 0.837793
vt 0.415406 0.822431
vt 0.429421 0.822431
vt 0.422413 0.837793
vt 0.415406 0.822431
vt 0.415406 0.837793
vt 0.429421 0.822431
vt 0.429421 0.837793
vt 0.415406 0.822431
vt 0.429421 0.822431
vt 0.422413 0.837793
vt 0.429421 0.822431
vt 0.429421 0.837793
vt 0.415406 0.822431
vt 0.415406 0.837793
vt 0.415406 0.822431
vt 0.429421 0.822431
vt 0.422413 0.837793
vt 0.415406 0.822431
vt 0.415406 0.837793
vt 0.415406 0.822431
vt 0.429421 0.822431
vt 0.422413 0.837793
vt 0.429421 0.822431
vt 0.429421 0.837793
vt 0.429421 0.822431
vt 0.429421 0.837793
vt 0.415406 0.822431
vt 0.415406 0.837793
vt 0.415406 0.822431
vt 0.429421 0.822431
vt 0.422413 0.837793
vt 0.415406 0.822431
vt 0.429421 0.822431
vt 0.422413 0.837793
vt 0.415406 0.822431
vt 0.429421 0.822431
vt 0.422413 0.837793
vt 0.415406 0.822431
vt 0.429421 0.822431
vt 0.422413 0.837793
vt 0.415406 0.822431
vt 0.429421 0.822431
vt 0.422413 0.837793
vt 0.415406 0.822431
vt 0.429421 0.822431
vt 0.422413 0.837793
vt 0.415406 0.822431
vt 0.429421 0.822431
vt 0.422413 0.837793
vt 0.415406 0.822431
vt 0.429421 0.822431
vt 0.422413 0.837793
vt 0.429421 0.822431
vt 0.429421 0.837793
vt 0.415406 0.822431
vt 0.415406 0.837793
vt 0.429421 0.822431
vt 0.429421 0.837793
vt 0.415406 0.822431
vt 0.415406 0.837793
vt 0.429421 0.822431
vt 0.429421 0.837793
vt 0.415406 0.822431
vt 0.415406 0.837793
vt 0.415406 0.822431
vt 0.415406 0.837793
vt 0.429421 0.822431
vt 0.429421 0.837793
vt 0.415406 0.822431
vt 0.415406 0.837793
vt 0.429421 0.822431
vt 0.429421 0.837793
vt 0.415406 0.822431
vt 0.415406 0.837793
vt 0.429421 0.822431
vt 0.429421 0.837793
vt 0.415406 0.822431
vt 0.429421 0.822431
vt 0.429421 0.837793
vt 0.415406 0.837793
vt 0.415406 0.822431
vt 0.429421 0.822431
vt 0.429421 0.837793
vt 0.415406 0.837793
vt 0.415406 0.822431
vt 0.429421 0.822431
vt 0.429421 0.837793
vt 0.415406 0.837793
vt 0.415406 0.822431
vt 0.429421 0.822431
vt 0.429421 0.837793
vt 0.415406 0.837793
vt 0.415406 0.822431
vt 0.429421 0.822431
vt 0.429421 0.837793
vt 0.415406 0.837793
vt 0.415406 0.822431
vt 0.429421 0.822431
vt 0.429421 0.837793
vt 0.415406 0.837793
vt 0.415406 0.822431
vt 0.429421 0.822431
vt 0.429421 0.837793
vt 0.415406 0.837793
vt 0.415406 0.822431
vt 0.429421 0.822431
vt 0.429421 0.837793
vt 0.415406 0.837793
vt 0.414993 0.837785
vt 0.430365 0.821848
vt 0.415424 0.823349
vt 0.415424 0.837110
vt 0.415424 0.823349
vt 0.430365 0.838994
vt 0.414993 0.837785
vt 0.414993 0.823422
vt 0.427978 0.823349
vt 0.415048 0.838994
vt 0.428098 0.837785
vt 0.428098 0.823422
vt 0.415424 0.837110
vt 0.427978 0.837110
vt 0.414892 0.838614
vt 0.414892 0.822228
vt 0.415424 0.823349
vt 0.415048 0.821848
vt 0.428098 0.837785
vt 0.428098 0.823422
vt 0.428098 0.837785
vt 0.415344 0.822661
vt 0.415424 0.823349
vt 0.415191 0.823041
vt 0.414993 0.837785
vt 0.415191 0.839426
vt 0.427978 0.823349
vt 0.427978 0.837110
vt 0.415424 0.837110
vt 0.414993 0.823422
vt 0.430365 0.838994
vt 0.430365 0.822661
vt 0.415424 0.823349
vt 0.427978 0.823349
vt 0.427978 0.837110
vt 0.430365 0.822661
vt 0.427978 0.823349
vt 0.415424 0.823349
vt 0.415424 0.837110
vt 0.430365 0.838994
vt 0.415424 0.823349
vt 0.427978 0.837110
vt 0.427978 0.837110
vt 0.415048 0.838994
vt 0.427978 0.837110
vt 0.415424 0.823349
vt 0.415424 0.837110
vt 0.414892 0.838614
vt 0.414892 0.822228
vt 0.427978 0.823349
vt 0.427978 0.837110
vt 0.414892 0.839426
vt 0.427978 0.823349
vt 0.428098 0.823422
vt 0.415424 0.837110
vt 0.414892 0.823041
vt 0.414993 0.837785
vt 0.428098 0.837785
vt 0.428098 0.823422
vt 0.415048 0.822661
vt 0.428098 0.823422
vt 0.427978 0.823349
vt 0.427978 0.837110
vt 0.415344 0.838994
vt 0.428098 0.837785
vt 0.414993 0.837785
vt 0.414993 0.823422
vt 0.415344 0.821848
vt 0.427978 0.823349
vt 0.415191 0.822228
vt 0.415424 0.837110
vt 0.415191 0.838614
vt 0.414993 0.823422
vt 0.415344 0.838994
vt 0.414993 0.823422
vt 0.415191 0.822228
vt 0.415424 0.837110
vt 0.415191 0.838614
vn 0.000000 0.000000 1.000000
vn 0.000000 0.000000 1.000000
vn 0.000000 0.000000 1.000000
vn 0.000000 0.000000 1.000000
vn 0.000000 0.000000 1.000000
vn 0.000000 0.000000 1.000000
vn -1.000000 0.000000 0.000000
vn -1.000000 0.000000 0.000000
vn -1.000000 0.000000 0.000000
vn -1.000000 0.000000 0.000000
vn 0.000000 0.000000 -1.000000
vn 0.000000 0.000000 -1.000000
vn 0.000000 0.000000 -1.000000
vn 0.000000 0.000000 -1.000000
vn 0.000000 0.000000 -1.000000
vn 0.000000 0.000000 -1.000000
vn 1.000000 0.000000 0.000000
vn 1.000000 0.000000 0.000000
vn 1.000000 0.000000 0.000000
vn 1.000000 0.000000 0.000000
vn 0.000000 -0.000001 1.000000
vn 0.000000 -0.000001 1.000000
vn 0.000000 -0.000001 1.000000
vn 0.000000 -0.000001 1.000000
vn 0.000000 -0.000001 1.000000
vn 0.000000 -0.000001 1.000000
vn -1.000000 -0.000003 0.000000
vn -1.000000 -0.000003 0.000000
vn -1.000000 -0.000003 0.000000
vn -1.000000 -0.000003 0.000000
vn 0.000000 0.000000 -1.000000
vn 0.000000 0.000000 -1.000000
vn 0.000000 0.000000 -1.000000
vn 0.000000 0.000000 -1.000000
vn 0.000000 0.000000 -1.000000
vn 0.000000 0.000000 -1.000000
vn 1.000000 -0.000003 0.000000
vn 1.000000 -0.000003 0.000000
vn 1.000000 -0.000003 0.000000
vn 1.000000 -0.000003 0.000000
vn -0.707107 -0.707106 0.000000
vn -0.707107 -0.707106 0.000000
vn -0.707107 -0.707106 0.000000
vn -0.707107 -0.707106 0.000000
vn -0.707106 0.707108 0.000000
vn -0.707106 0.707108 0.000000
vn -0.707106 0.707108 0.000000
vn -0.707106 0.707108 0.000000
vn 0.000000 0.707101 -0.707113
vn 0.000000 0.707101 -0.707113
vn 0.000000 0.707100 -0.707113
vn 0.000000 0.707100 -0.707113
vn 0.000000 -0.707105 -0.707109
vn 0.000000 -0.707105 -0.707109
vn 0.000000 -0.707105 -0.707109
vn 0.000000 -0.707105 -0.707109
vn 0.707106 0.707108 0.000000
vn 0.707106 0.707108 0.000000
vn 0.707106 0.707108 0.000000
vn 0.707106 0.707108 0.000000
vn 0.000000 0.707101 -0.707113
vn 0.000000 0.707101 -0.707113
vn 0.707107 -0.707106 0.000000
vn 0.707107 -0.707106 0.000000
vn 0.707107 -0.707106 0.000000
vn 0.707107 -0.707106 0.000000
vn 0.000000 -0.707105 -0.707109
vn 0.000000 -0.707105 -0.707109
vn 0.707107 -0.707106 0.000000
vn 0.707107 -0.707106 0.000000
vn 0.707107 -0.707106 0.000000
vn 0.707107 -0.707106 0.000000
vn -0.707109 0.707105 0.000000
vn -0.707109 0.707105 0.000000
vn -0.707109 0.707105 0.000000
vn -0.707109 0.707105 0.000000
vn -0.707107 -0.707106 0.000000
vn -0.707107 -0.707106 0.000000
vn -0.707107 -0.707106 0.000000
vn -0.707107 -0.707106 0.000000
vn 0.000000 -0.707108 -0.707105
vn 0.000000 -0.707108 -0.707105
vn 0.000000 -0.707108 -0.707105
vn 0.000000 -0.707108 -0.707105
vn 0.000000 0.707097 -0.707117
vn 0.000000 0.707097 -0.707117
vn 0.000000 0.707097 -0.707117
vn 0.000000 0.707097 -0.707117
vn 0.000000 0.707097 -0.707117
vn 0.000000 0.707097 -0.707117
vn 0.000000 -0.707108 -0.707105
vn 0.000000 -0.707108 -0.707105
vn 0.707109 0.707105 0.000000
vn 0.707109 0.707105 0.000000
vn 0.707109 0.707105 0.000000
vn 0.707109 0.707105 0.000000
vn 0.707099 -0.707115 0.000000
vn 0.707099 -0.707115 0.000000
vn 0.707099 -0.707115 0.000000
vn 0.707099 -0.707115 0.000000
vn -0.707117 0.707096 0.000000
vn -0.707117 0.707096 0.000000
vn -0.707117 0.707096 0.000000
vn -0.707117 0.707096 0.000000
vn -0.707099 -0.707115 0.000000
vn -0.707099 -0.707115 0.000000
vn -0.707099 -0.707115 0.000000
vn -0.707099 -0.707115 0.000000
vn 0.000000 -0.707108 -0.707105
vn 0.000000 -0.707108 -0.707105
vn 0.000000 -0.707108 -0.707105
vn 0.000000 -0.707108 -0.707105
vn 0.000000 0.707095 -0.707119
vn 0.000000 0.707095 -0.707119
vn 0.000000 0.707095 -0.707119
vn 0.000000 0.707095 -0.707119
vn 0.000000 0.707095 -0.707119
vn 0.000000 0.707095 -0.707119
vn 0.000000 -0.707108 -0.707105
vn 0.000000 -0.707108 -0.707105
vn 0.707117 0.707096 0.000000
vn 0.707117 0.707096 0.000000
vn 0.707117 0.707096 0.000000
vn 0.707117 0.707096 0.000000
vn 0.000000 1.000000 0.000000
vn 0.000000 1.000000 0.000000
vn 0.000000 1.000000 0.000000
vn 0.000000 1.000000 0.000000
vn 0.000000 -1.000000 0.000000
vn 0.000000 -1.000000 0.000000
vn 0.000000 -1.000000 0.000000
vn 0.000000 -1.000000 0.000000
vn 0.000000 1.000000 0.000000
vn 0.000000 1.000000 0.000000
vn 0.000000 -1.000000 0.000000
vn 0.000000 -1.000000 0.000000
vn 0.000000 0.000000 -1.000000
vn 0.000000 0.000000 -1.000000
vn 0.000000 0.000000 -1.000000
vn 0.000000 0.000000 -1.000000
vn 1.000000 0.000000 0.000000
vn 1.000000 0.000000 0.000000
vn 1.000000 0.000000 0.000000
vn 1.000000 0.000000 0.000000
vn -1.000000 0.000000 0.000000
vn -1.000000 0.000000 0.000000
vn -1.000000 0.000000 0.000000
vn -1.000000 0.000000 0.000000
vn -1.000000 -0.000000 0.000000
vn -1.000000 -0.000000 0.000000
vn -1.000000 -0.000000 0.000000
vn -1.000000 -0.000000 0.000000
vn 0.000000 0.000000 -1.000000
vn 0.000000 0.000000 -1.000000
vn 0.000000 0.000000 -1.000000
vn 0.000000 0.000000 -1.000000
vn 1.000000 -0.000000 0.000000
vn 1.000000 -0.000000 0.000000
vn 1.000000 -0.000000 0.000000
vn 1.000000 -0.000000 0.000000
vn -1.000000 0.000000 0.000000
vn -1.000000 0.000000 0.000000
vn -1.000000 0.000000 0.000000
vn -1.000000 0.000000 0.000000
vn 0.000000 0.000000 -1.000000
vn 0.000000 0.000000 -1.000000
vn 0.000000 0.000000 -1.000000
vn 0.000000 0.000000 -1.000000
vn 0.000000 0.000000 -1.000000
vn 0.000000 0.000000 -1.000000
vn 1.000000 0.000000 0.000000
vn 1.000000 0.000000 0.000000
vn 1.000000 0.000000 0.000000
vn 1.000000 0.000000 0.000000
vn 0.000000 0.000000 -1.000000
vn 0.000000 0.000000 -1.000000
vn 0.000000 0.000000 -1.000000
vn 0.000000 0.000000 -1.000000
vn 0.000000 -1.000000 0.000000
vn 0.000000 -1.000000 -0.000002
vn 0.000000 -1.000000 -0.000002
vn 0.000000 -1.000000 0.000000
vn 0.000000 1.000000 -0.000002
vn 0.000000 1.000000 0.000000
vn 0.000000 1.000000 0.000000
vn 0.000000 1.000000 -0.000002
vn 0.000000 -1.000000 -0.000004
vn 0.000000 -1.000000 -0.000004
vn 0.000000 1.000000 -0.000004
vn 0.000000 1.000000 -0.000004
vn 0.000000 -1.000000 -0.000002
vn 0.000000 -1.000000 -0.000002
vn 0.000000 1.000000 -0.000002
vn 0.000000 1.000000 -0.000002
vn 0.000000 -1.000000 0.000000
vn 0.000000 -1.000000 0.000000
vn 0.000000 1.000000 0.000000
vn 0.000000 1.000000 0.000000
vn 0.000000 -1.000000 0.000000
vn 0.000000 -1.000000 0.000000
vn 0.000000 -1.000000 0.000000
vn 0.000000 -1.000000 0.000000
vn 0.000000 1.000000 0.000000
vn 0.000000 1.000000 0.000000
vn 0.000000 1.000000 0.000000
vn 0.000000 1.000000 0.000000
vn 0.000000 -1.000000 0.000000
vn 0.000000 -1.000000 0.000000
vn 0.000000 1.000000 0.000000
vn 0.000000 1.000000 0.000000
vn 0.000000 -1.000000 0.000000
vn 0.000000 -1.000000 0.000000
vn 0.000000 1.000000 0.000000
vn 0.000000 1.000000 0.000000
vn 0.000000 -1.000000 0.000000
vn 0.000000 -1.000000 0.000000
vn 0.000000 1.000000 0.000000
vn 0.000000 1.000000 0.000000
vn 0.000000 0.000000 1.000000
vn 0.000000 0.000000 1.000000
vn 0.000000 0.000000 1.000000
vn 0.000000 0.000000 1.000000
vn 0.000000 0.000000 -1.000000
vn 0.000000 0.000000 -1.000000
vn 0.000000 0.000000 -1.000000
vn 0.000000 0.000000 -1.000000
vn 0.000000 -1.000000 0.000000
vn 0.000000 -1.000000 0.000000
vn 0.000000 -1.000000 0.000000
vn 0.000000 -1.000000 0.000000
vn 1.000000 0.000000 0.000000
vn 1.000000 0.000000 0.000000
vn 1.000000 0.000000 0.000000
vn 1.000000 0.000000 0.000000
vn -1.000000 0.000000 0.000000
vn -1.000000 0.000000 0.000000
vn -1.000000 0.000000 0.000000
vn -1.000000 0.000000 0.000000
vn 0.000000 0.000000 -1.000000
vn 0.000000 0.000000 -1.000000
vn 0.000000 -1.000000 0.000000
vn 0.000000 -1.000000 0.000000
vn 0.000000 0.000000 1.000000
vn 0.000000 0.000000 1.000000
vn 0.000000 0.000004 1.000000
vn 0.000000 0.000004 1.000000
vn 0.000000 0.000004 1.000000
vn 0.000000 0.000004 1.000000
vn 0.000000 -0.000004 1.000000
vn 0.000000 -0.000004 1.000000
vn 0.000000 -0.000004 1.000000
vn 0.000000 -0.000004 1.000000
vn 0.000000 -0.000004 1.000000
vn 0.000000 -0.000004 1.000000
vn 0.000000 0.000004 1.000000
vn 0.000000 0.000004 1.000000
vn -0.000000 0.000004 1.000000
vn -0.000000 0.000004 1.000000
vn 0.000000 0.000004 1.000000
vn 0.000000 0.000004 1.000000
vn 0.000000 -0.000004 1.000000
vn 0.000000 -0.000004 1.000000
vn 0.000000 -0.000004 1.000000
vn 0.000000 -0.000004 1.000000
vn 0.000000 -0.000004 1.000000
vn 0.000000 -0.000004 1.000000
vn 0.000000 0.000004 1.000000
vn 0.000000 0.000004 1.000000
vn -0.000004 -0.000000 1.000000
vn 0.000000 -0.000006 1.000000
vn -0.000001 -0.000005 1.000000
vn -0.000000 -0.000006 1.000000
vn -0.000000 -0.000006 1.000000
vn 0.000000 -0.000006 1.000000
vn 0.000006 0.000000 1.000000
vn 0.000001 -0.000005 1.000000
vn 0.000000 -0.000006 1.000000
vn 0.000000 -0.000006 1.000000
vn -0.000006 0.000000 1.000000
vn -0.000000 -0.000006 1.000000
vn -0.000001 -0.000005 1.000000
vn -0.000000 -0.000006 1.000000
vn 0.000004 -0.000000 1.000000
vn 0.000001 -0.000005 1.000000
vn -0.000000 0.000002 1.000000
vn -0.000006 0.000000 1.000000
vn -0.000006 0.000000 1.000000
vn -0.000003 0.000001 1.000000
vn 0.000002 0.000000 1.000000
vn 0.000001 0.000000 1.000000
vn 0.000006 0.000000 1.000000
vn -0.000000 0.000002 1.000000
vn 0.000006 0.000000 1.000000
vn -0.000001 0.000000 1.000000
vn 0.000003 0.000001 1.000000
vn -0.000001 0.000000 1.000000
vn 0.000003 -0.000001 1.000000
vn -0.000001 -0.000000 1.000000
vn -0.000001 -0.000000 1.000000
vn -0.000003 0.000006 1.000000
vn -0.000004 0.000000 1.000000
vn -0.000005 0.000000 1.000000
vn 0.000002 -0.000000 1.000000
vn -0.000004 -0.000001 1.000000
vn 0.000001 -0.000000 1.000000
vn 0.000004 0.000000 1.000000
vn 0.000002 0.000006 1.000000
vn 0.000004 0.000000 1.000000
vn 0.000004 0.000000 1.000000
vn 0.000004 0.000000 1.000000
vn 0.000002 0.000003 1.000000
vn 0.000002 0.000003 1.000000
vn -0.000002 0.000003 1.000000
vn -0.000002 0.000003 1.000000
vn -0.000004 0.000000 1.000000
vn -0.000004 0.000000 1.000000
vn 0.000006 0.000005 1.000000
vn 0.000006 0.000005 1.000000
vn 0.000005 -0.000000 1.000000
vn 0.000005 -0.000000 1.000000
vn -0.000006 -0.000000 1.000000
vn -0.000006 -0.000000 1.000000
vn -0.000007 0.000005 1.000000
vn -0.000007 0.000005 1.000000
vn 0.000000 -1.000000 0.000000
vn 0.000000 -1.000000 0.000000
vn 0.000000 -1.000000 0.000000
vn 0.000000 -1.000000 0.000000
vn 0.000000 1.000000 0.000000
vn 0.000000 1.000000 0.000000
vn 0.000000 1.000000 0.000000
vn 0.000000 1.000000 0.000000
vn 0.000000 1.000000 0.000000
vn 0.000000 1.000000 0.000000
vn 0.000000 1.000000 0.000000
vn 0.000000 1.000000 0.000000
vn 0.000000 -1.000000 0.000000
vn 0.000000 -1.000000 0.000000
vn 0.000000 -1.000000 0.000000
vn 0.000000 -1.000000 0.000000
vn 0.000000 -1.000000 0.000000
vn 0.000000 -1.000000 0.000000
vn 0.000000 -1.000000 0.000000
vn 0.000000 -1.000000 0.000000
vn 0.000000 1.000000 0.000000
vn 0.000000 1.000000 0.000000
vn 0.000000 1.000000 0.000000
vn 0.000000 1.000000 0.000000
vn 0.000000 1.000000 0.000000
vn 0.000000 1.000000 0.000000
vn 0.000000 1.000000 0.000000
vn 0.000000 1.000000 0.000000
vn 0.000000 -1.000000 0.000000
vn 0.000000 -1.000000 0.000000
vn 0.000000 -1.000000 0.000000
vn 0.000000 -1.000000 0.000000
vn -0.007454 0.999972 0.000000
vn -0.007454 0.999972 0.000000
vn -0.007454 0.999972 0.000000
vn -0.007454 0.999972 0.000000
vn -0.007454 -0.999972 0.000000
vn -0.007454 -0.999972 0.000000
vn -0.007454 -0.999972 0.000000
vn -0.007454 -0.999972 0.000000
vn 0.007454 -0.999972 0.000000
vn 0.007454 -0.999972 0.000000
vn 0.007454 -0.999972 0.000000
vn 0.007454 -0.999972 0.000000
vn 0.007454 0.999972 0.000000
vn 0.007454 0.999972 0.000000
vn 0.007454 0.999972 0.000000
vn 0.007454 0.999972 0.000000
vn -1.000000 -0.000000 0.000000
vn -1.000000 -0.000000 0.000000
vn -1.000000 -0.000000 0.000000
vn -1.000000 -0.000000 0.000000
vn -1.000000 0.000000 0.000000
vn -1.000000 0.000000 0.000000
vn -1.000000 0.000000 0.000000
vn -1.000000 0.000000 0.000000
vn -1.000000 0.000000 0.000000
vn -1.000000 0.000000 0.000000
vn -1.000000 0.000000 0.000000
vn -1.000000 0.000000 0.000000
vn 1.000000 0.000000 0.000000
vn 1.000000 0.000000 0.000000
vn 1.000000 0.000000 0.000000
vn 1.000000 0.000000 0.000000
vn 1.000000 0.000000 0.000000
vn 1.000000 0.000000 0.000000
vn 1.000000 0.000000 0.000000
vn 1.000000 0.000000 0.000000
vn 1.000000 -0.000000 0.000000
vn 1.000000 -0.000000 0.000000
vn 1.000000 -0.000000 0.000000
vn 1.000000 -0.000000 0.000000
vn -0.544617 -0.838685 0.000000
vn -0.544617 -0.838685 0.000000
vn -0.544617 -0.838685 0.000000
vn -0.544617 -0.838685 0.000000
vn -0.544617 0.838685 0.000000
vn -0.544617 0.838685 0.000000
vn -0.544617 0.838685 0.000000
vn -0.544617 0.838685 0.000000
vn 0.544617 0.838685 0.000000
vn 0.544617 0.838685 0.000000
vn 0.544617 0.838685 0.000000
vn 0.544617 0.838685 0.000000
vn 0.544617 -0.838685 0.000000
vn 0.544617 -0.838685 0.000000
vn 0.544617 -0.838685 0.000000
vn 0.544617 -0.838685 0.000000
vn -0.544621 -0.838682 0.000000
vn -0.544621 -0.838682 0.000000
vn -0.544621 -0.838682 0.000000
vn -0.544621 -0.838682 0.000000
vn -0.544619 0.838684 0.000000
vn -0.544619 0.838684 0.000000
vn -0.544619 0.838684 0.000000
vn -0.544619 0.838684 0.000000
vn 0.544619 0.838684 0.000000
vn 0.544619 0.838684 0.000000
vn 0.544619 0.838684 0.000000
vn 0.544619 0.838684 0.000000
vn 0.544621 -0.838682 0.000000
vn 0.544621 -0.838682 0.000000
vn 0.544621 -0.838682 0.000000
vn 0.544621 -0.838682 0.000000
vn -0.000000 0.000000 1.000000
vn 0.000000 0.000000 1.000000
vn 0.000000 0.000000 1.000000
vn 0.000000 0.000000 1.000000
vn -0.000007 0.000000 1.000000
vn -0.000007 0.000000 1.000000
vn -0.000000 0.000000 1.000000
vn -0.000000 0.000001 1.000000
vn 0.000000 0.000001 1.000000
vn 0.000001 0.000005 1.000000
vn 0.000000 0.000001 1.000000
vn 0.000000 -0.000000 1.000000
vn -0.000000 -0.000001 1.000000
vn 0.000000 -0.000000 1.000000
vn 0.000000 -0.000000 1.000000
vn 0.000000 -0.000000 1.000000
vn -0.000001 0.000005 1.000000
vn 0.000000 0.000000 1.000000
vn -0.000000 0.000001 1.000000
vn -0.000000 0.000000 1.000000
vn -0.000000 0.000000 1.000000
vn 0.000007 0.000000 1.000000
vn 0.000007 0.000000 1.000000
vn 0.000000 -0.000001 1.000000
vn -0.000000 -0.000000 1.000000
vn 0.000000 -0.000000 1.000000
f 1/1/1 2/2/2 9/29/3 10/30/4
f 3/3/5 4/4/6 10/30/4 9/29/3
f 4/5/7 3/6/8 5/7/9 6/8/10
f 6/9/11 5/10/12 11/36/13 12/35/14
f 7/11/15 8/12/16 12/35/14 11/36/13
f 8/13/17 7/14/18 2/2/19 1/1/20
f 13/15/21 14/16/22 21/31/23 22/32/24
f 15/17/25 16/18/26 22/32/24 21/31/23
f 16/19/27 15/20/28 17/21/29 18/22/30
f 18/23/31 17/24/32 23/34/33 24/33/34
f 19/25/35 20/26/36 24/33/34 23/34/33
f 20/27/37 19/28/38 14/16/39 13/15/40
f 25/37/41 26/38/42 32/39/43 31/40/44
f 28/41/45 27/42/46 29/43/47 30/44/48
f 30/44/49 29/43/50 42/45/51 43/46/52
f 31/40/53 32/39/54 45/47/55 44/48/56
f 34/49/57 33/50/58 36/51/59 35/52/60
f 35/52/61 36/51/62 43/46/52 42/45/51
f 38/53/63 37/54/64 39/55/65 40/56/66
f 40/56/67 39/55/68 44/48/56 45/47/55
f 47/57/69 48/58/70 64/59/71 63/60/72
f 49/61/73 50/62/74 56/63/75 55/64/76
f 52/65/77 51/66/78 53/67/79 54/68/80
f 54/69/81 53/70/82 59/73/83 60/74/84
f 55/71/85 56/72/86 58/76/87 57/75/88
f 57/75/88 58/76/87 62/83/89 61/84/90
f 60/74/84 59/73/83 63/77/91 64/78/92
f 61/79/93 62/80/94 66/81/95 65/82/96
f 67/85/97 68/86/98 84/87/99 83/88/100
f 69/89/101 70/90/102 76/91/103 75/92/104
f 72/93/105 71/94/106 73/95/107 74/96/108
f 74/97/109 73/98/110 79/101/111 80/102/112
f 75/99/113 76/100/114 78/104/115 77/103/116
f 77/103/116 78/104/115 82/111/117 81/112/118
f 80/102/112 79/101/111 83/105/119 84/106/120
f 81/107/121 82/108/122 86/109/123 85/110/124
f 42/45/125 29/43/126 27/42/127 41/117/128
f 25/37/129 31/40/130 44/48/131 46/116/132
f 34/49/133 35/52/134 42/45/125 41/117/128
f 44/48/131 39/55/135 37/54/136 46/116/132
f 45/47/137 32/39/138 75/99/139 77/103/140
f 38/53/141 40/113/142 81/107/143 85/110/144
f 32/114/145 26/115/146 69/89/147 75/92/148
f 53/67/149 51/66/150 28/118/151 30/119/152
f 59/73/153 53/70/154 30/44/155 43/46/156
f 47/57/157 63/60/158 36/120/159 33/50/160
f 55/64/161 73/95/162 71/94/163 49/61/164
f 79/101/165 73/98/166 55/71/167 57/75/168
f 57/75/168 61/84/169 83/105/170 79/101/165
f 67/85/171 83/88/172 61/79/173 65/82/174
f 40/56/175 45/47/137 77/103/140 81/112/176
f 63/77/177 59/73/153 43/46/156 36/51/178
f 52/65/179 54/68/180 5/7/181 3/6/182
f 56/63/183 50/62/184 4/5/185 6/8/186
f 11/130/187 5/10/181 54/121/180 60/129/188
f 58/131/189 56/122/183 6/9/186 12/132/190
f 60/125/188 64/123/191 7/11/192 11/126/187
f 12/128/190 8/12/193 62/124/194 58/127/189
f 64/59/191 48/58/195 2/2/196 7/14/192
f 66/81/197 62/80/194 8/13/193 1/1/198
f 72/133/199 74/134/200 17/135/201 15/136/202
f 76/137/203 70/138/204 16/139/205 18/140/206
f 23/162/207 17/142/201 74/141/200 80/161/208
f 78/163/209 76/143/203 18/144/206 24/164/210
f 80/157/208 84/145/211 19/146/212 23/158/207
f 24/160/210 20/148/213 82/147/214 78/159/209
f 84/149/211 68/150/215 14/151/216 19/152/212
f 86/153/217 82/154/214 20/155/213 13/156/218
f 87/165/219 98/166/220 95/167/221 89/168/222
f 91/169/223 96/170/224 97/171/225 93/172/226
f 93/172/227 97/171/228 98/173/229 87/174/230
f 88/175/231 94/176/232 92/177/233 90/178/234
f 93/179/235 87/180/236 89/181/237 91/182/238
f 97/171/225 96/170/224 92/183/239 94/184/240
f 98/173/229 97/171/228 94/184/241 88/185/242
f 95/167/221 98/166/220 88/186/243 90/187/244
f 99/189/245 1/188/246 10/198/247 104/199/248
f 101/193/249 3/192/250 9/200/251 103/201/252
f 103/197/252 9/196/251 2/190/253 100/191/254
f 104/203/248 10/202/247 4/194/255 102/195/256
f 105/205/257 13/204/258 22/214/259 110/215/260
f 107/209/261 15/208/262 21/216/263 109/217/264
f 109/213/264 21/212/263 14/206/265 106/207/266
f 110/219/260 22/218/259 16/210/267 108/211/268
f 26/220/269 25/221/270 111/222/271
f 112/226/272 111/224/271 25/223/270 46/225/273
f 27/227/274 28/228/275 113/229/276
f 113/231/276 114/233/277 41/232/278 27/230/274
f 33/234/279 34/235/280 115/236/281
f 114/245/277 115/238/281 34/237/280 41/244/278
f 37/239/282 38/240/283 116/241/284
f 116/243/284 112/247/272 46/246/273 37/242/282
f 48/248/285 47/249/286 117/250/287
f 50/251/288 49/252/289 118/253/290
f 51/254/291 52/255/292 119/256/293
f 65/257/294 66/258/295 120/259/296
f 68/260/297 67/261/298 121/262/299
f 70/263/300 69/264/301 122/265/302
f 71/266/303 72/267/304 123/268/305
f 85/269/306 86/270/307 124/271/308
f 124/295/308 116/275/284 38/274/283 85/294/306
f 115/287/281 117/279/287 47/278/286 33/286/279
f 120/291/296 121/283/299 67/282/298 65/290/294
f 119/277/293 113/285/276 28/284/275 51/276/291
f 123/281/305 118/289/290 49/288/289 71/280/303
f 111/273/271 122/293/302 69/292/301 26/272/269
f 66/296/295 1/297/309 99/298/310 120/299/296
f 2/300/311 48/301/285 117/302/287 100/303/312
f 52/304/292 3/305/313 101/306/314 119/307/293
f 4/308/315 50/309/288 118/310/290 102/311/316
f 86/312/307 13/313/317 105/314/318 124/315/308
f 14/316/319 68/317/297 121/318/299 106/319/320
f 72/320/304 15/321/321 107/322/322 123/323/305
f 16/324/323 70/325/300 122/326/302 108/327/324
f 125/402/325 99/328/326 104/338/327 130/339/328
f 127/366/329 101/332/330 103/336/331 129/341/332
f 126/331/333 129/341/334 103/336/335 100/330/336
f 128/335/337 130/339/338 104/338/339 102/334/340
f 131/404/341 105/344/342 110/354/343 136/355/344
f 133/381/345 107/348/346 109/352/347 135/357/348
f 132/347/349 135/357/350 109/352/351 106/346/352
f 134/340/353 136/355/354 110/354/355 108/350/356
f 111/360/357 112/361/358 138/362/359 137/398/360
f 114/364/361 113/365/362 140/356/363 139/370/364
f 115/368/365 114/364/366 139/370/367 141/382/368
f 112/361/369 116/373/370 142/374/371 138/362/372
f 116/373/373 124/377/374 143/378/375 142/374/376
f 117/380/377 115/368/378 141/382/379 144/372/380
f 121/384/381 120/385/382 145/386/383 146/400/384
f 113/365/385 119/389/386 147/390/387 140/356/388
f 118/392/389 123/393/390 149/394/391 148/388/392
f 122/396/393 111/360/394 137/398/395 150/369/396
f 120/385/397 99/328/398 125/402/399 145/386/400
f 100/330/401 117/380/402 144/372/403 126/331/404
f 119/389/405 101/332/406 127/366/407 147/390/408
f 102/334/409 118/392/410 148/388/411 128/335/412
f 124/377/413 105/344/414 131/404/415 143/378/416
f 106/346/417 121/384/418 146/400/419 132/347/420
f 123/393/421 107/348/422 133/381/423 149/394/424
f 108/350/425 122/396/426 150/369/427 134/340/428
f 135/329/429 130/333/430 133/345/431
f 130/333/430 128/337/432 133/345/431
f 128/337/432 148/342/433 133/345/431
f 148/342/433 149/343/434 133/345/431
f 141/353/435 139/358/436 144/351/437
f 144/351/437 139/358/436 126/349/438
f 126/349/438 139/358/436 129/359/439
f 136/367/440 134/371/441 138/363/442
f 137/376/443 138/363/442 150/375/444
f 138/363/442 134/371/441 150/375/444
f 129/359/439 139/358/436 127/387/445
f 140/379/446 147/383/447 139/358/436
f 139/358/436 147/383/447 127/387/445
f 130/333/430 135/329/429 125/391/448
f 135/329/429 132/395/449 125/391/448
f 125/391/448 132/395/449 145/399/450
f 132/395/449 146/397/451 145/399/450
f 136/367/440 138/363/442 131/401/452
f 142/403/453 143/405/454 138/363/442
f 131/401/452 138/363/442 143/405/454
