# This file uses meters as units for non-parametric coordinates.

v 78.844826 101.489517 44.824560
v -0.000000 101.489517 44.824560
v 78.844826 92.604218 44.824560
v -78.844826 101.489517 44.824560
v -78.844826 92.604218 44.824560
v -74.173706 92.604218 44.824560
v -74.173706 101.489517 44.824560
v 74.173706 101.489517 44.824560
v 74.173706 92.604218 44.824560
v -78.844826 98.204086 44.824560
v 78.844826 98.204086 44.824560
v -74.173706 98.204086 44.824560
v -0.000000 98.204086 44.824560
v 74.173706 98.204086 44.824560
v 78.844826 101.489517 46.571547
v 78.262573 100.907265 47.153799
v 74.173706 101.489517 46.571547
v 74.173706 100.907265 47.153799
v 78.262573 93.186470 47.153799
v 78.844826 92.604218 46.571547
v 74.173706 92.604218 46.571547
v 74.755959 93.186470 47.153799
v 78.844826 98.204086 46.571547
v 78.262573 98.204086 47.153799
v -78.262573 93.186470 47.153799
v -78.844826 92.604218 46.571547
v -78.262573 98.204086 47.153799
v -78.844826 98.204086 46.571547
v -0.000000 101.489517 46.571547
v -0.000000 100.907265 47.153799
v -74.173706 101.489517 46.571547
v -74.173706 100.907265 47.153799
v -74.755959 93.186470 47.153799
v -74.173706 92.604218 46.571547
v -78.262573 100.907265 47.153799
v -78.844826 101.489517 46.571547
v -74.755959 98.786339 47.153799
v -74.173706 98.204086 46.571547
v -0.000000 98.786339 47.153799
v -0.000000 98.204086 46.571547
v 74.755959 98.786339 47.153799
v 74.173706 98.204086 46.571547
v 0.000000 92.604218 44.824560
v 78.844826 101.489517 43.795294
v 74.173706 101.489517 43.795294
v 78.844826 92.604218 43.795294
v 74.173706 92.604218 43.795294
v 78.844826 98.204086 43.795294
v -78.844826 92.604218 43.795294
v -78.844826 98.204086 43.795294
v -0.000000 101.489517 43.795294
v -74.173706 101.489517 43.795294
v -74.173706 92.604218 43.795294
v -78.844826 101.489517 43.795294
v 0.000000 92.604218 43.795294
vt 0.447091 0.958451
vt 0.447599 0.958451
vt 0.447684 0.959248
vt 0.447091 0.958451
vt 0.447091 0.959678
vt 0.447684 0.958358
vt 0.447684 0.959248
vt 0.458445 0.959248
vt 0.447091 0.959248
vt 0.447599 0.958451
vt 0.447006 0.959770
vt 0.447006 0.959770
vt 0.447684 0.958358
vt 0.447684 0.958358
vt 0.447006 0.958358
vt 0.447006 0.958358
vt 0.447006 0.959248
vt 0.447006 0.959248
vt 0.447006 0.958358
vt 0.447684 0.958358
vt 0.447006 0.958358
vt 0.447684 0.959770
vt 0.447684 0.959770
vt 0.458445 0.959770
vt 0.458445 0.959770
vt 0.447684 0.959770
vt 0.447684 0.959770
vt 0.447684 0.959678
vt 0.458445 0.959341
vt 0.447091 0.959248
vt 0.447599 0.959341
vt 0.447006 0.959770
vt 0.447006 0.959770
vt 0.447006 0.959248
vt 0.447006 0.959248
vt 0.447091 0.959678
vt 0.447684 0.959678
vt 0.447599 0.959341
vt 0.458445 0.959678
vt 0.446630 0.958467
vt 0.449909 0.958467
vt 0.449909 0.961163
vt 0.446630 0.961163
vt 0.446630 0.958467
vt 0.449909 0.958467
vt 0.449909 0.961163
vt 0.446630 0.961163
vt 0.446630 0.958467
vt 0.449909 0.958467
vt 0.449909 0.961163
vt 0.446630 0.961163
vt 0.446630 0.958467
vt 0.449909 0.958467
vt 0.449909 0.961163
vt 0.446630 0.961163
vt 0.456600 0.959666
vt 0.456600 0.960130
vt 0.450996 0.960130
vt 0.450996 0.959666
vt 0.456600 0.959666
vt 0.456600 0.960594
vt 0.445393 0.960594
vt 0.445393 0.959666
vt 0.447684 0.956762
vt 0.451036 0.956762
vt 0.451036 0.960436
vt 0.447684 0.960436
vt 0.447684 0.956762
vt 0.451036 0.956762
vt 0.451036 0.960436
vt 0.447684 0.960436
vt 0.447684 0.956762
vt 0.451036 0.956762
vt 0.451036 0.960436
vt 0.447684 0.960436
vt 0.447684 0.956762
vt 0.451036 0.956762
vt 0.451036 0.960436
vt 0.447684 0.960436
vt 0.447684 0.956762
vt 0.451036 0.956762
vt 0.451036 0.960436
vt 0.447684 0.960436
vt 0.447684 0.956762
vt 0.451036 0.956762
vt 0.451036 0.960436
vt 0.447684 0.960436
vt 0.447684 0.956762
vt 0.451036 0.956762
vt 0.451036 0.960436
vt 0.447684 0.960436
vt 0.447684 0.956762
vt 0.451036 0.956762
vt 0.451036 0.960436
vt 0.447684 0.960436
vt 0.447684 0.956762
vt 0.451036 0.956762
vt 0.451036 0.960436
vt 0.447684 0.960436
vt 0.447684 0.956762
vt 0.451036 0.956762
vt 0.451036 0.960436
vt 0.447684 0.960436
vt 0.447684 0.956762
vt 0.451036 0.956762
vt 0.451036 0.960436
vt 0.447684 0.960436
vt 0.447684 0.956762
vt 0.451036 0.956762
vt 0.451036 0.960436
vt 0.447684 0.960436
vn 0.707106 0.000000 0.707108
vn 0.707106 0.000000 0.707108
vn 0.707107 0.000000 0.707107
vn 0.707107 0.000000 0.707107
vn 0.000000 0.707107 0.707107
vn 0.000000 0.707107 0.707107
vn 0.000000 0.707109 0.707104
vn 0.000000 0.707109 0.707104
vn 0.000000 0.707109 0.707104
vn 0.000000 0.707109 0.707104
vn 0.707107 0.000000 0.707107
vn 0.707107 0.000000 0.707107
vn 0.000000 -0.707109 0.707105
vn 0.000000 -0.707109 0.707105
vn 0.000000 -0.707109 0.707105
vn 0.000000 -0.707109 0.707105
vn -0.707107 0.000000 0.707106
vn -0.707107 0.000000 0.707106
vn -0.707107 0.000000 0.707106
vn -0.707107 0.000000 0.707106
vn 0.000000 -0.707109 0.707105
vn 0.000000 -0.707109 0.707105
vn 0.000000 -0.707109 0.707105
vn 0.000000 -0.707109 0.707105
vn -0.707108 0.000000 0.707105
vn -0.707109 0.000000 0.707105
vn -0.707108 0.000000 0.707106
vn -0.707108 0.000000 0.707106
vn -0.707106 0.000000 0.707108
vn -0.707106 0.000000 0.707108
vn 0.000000 0.707109 0.707104
vn 0.000000 0.707109 0.707104
vn 0.000000 0.707107 0.707107
vn 0.000000 0.707107 0.707107
vn 0.707107 0.000000 0.707106
vn 0.707107 0.000000 0.707106
vn 0.707107 0.000000 0.707106
vn 0.707107 0.000000 0.707106
vn 0.000000 -0.707106 0.707107
vn 0.000000 -0.707106 0.707107
vn 0.000000 -0.707106 0.707107
vn 0.000000 -0.707106 0.707107
vn 0.000000 -0.707106 0.707108
vn 0.000000 -0.707106 0.707107
vn 0.000000 0.000000 1.000000
vn 0.000000 0.000000 1.000000
vn 0.000000 0.000000 1.000000
vn 0.000000 0.000000 1.000000
vn -0.000000 0.000000 1.000000
vn -0.000000 0.000000 1.000000
vn -0.000000 0.000000 1.000000
vn -0.000000 0.000000 1.000000
vn 0.000000 1.000000 0.000000
vn 0.000000 1.000000 0.000000
vn 0.000000 1.000000 0.000000
vn 0.000000 1.000000 0.000000
vn 0.000000 -1.000000 0.000000
vn 0.000000 -1.000000 0.000000
vn 0.000000 -1.000000 0.000000
vn 0.000000 -1.000000 0.000000
vn 1.000000 0.000000 0.000000
vn 1.000000 0.000000 0.000000
vn 1.000000 0.000000 0.000000
vn 1.000000 0.000000 0.000000
vn -1.000000 0.000000 0.000000
vn -1.000000 0.000000 0.000000
vn -1.000000 0.000000 0.000000
vn -1.000000 0.000000 0.000000
vn 0.000000 -1.000000 0.000000
vn 0.000000 -1.000000 0.000000
vn 0.000000 -1.000000 0.000000
vn 0.000000 -1.000000 0.000000
vn 0.000000 1.000000 0.000000
vn 0.000000 1.000000 0.000000
vn 0.000000 1.000000 0.000000
vn 0.000000 1.000000 0.000000
vn 0.000000 1.000000 0.000000
vn 0.000000 1.000000 0.000000
vn 0.000000 0.000000 1.000000
vn 0.000000 0.000000 1.000000
vn 0.000000 0.000000 1.000000
vn 0.000000 0.000000 1.000000
vn -1.000000 0.000000 0.000000
vn -1.000000 0.000000 0.000000
vn 1.000000 0.000000 0.000000
vn 1.000000 0.000000 0.000000
vn 0.000000 0.000000 1.000000
vn 0.000000 0.000000 1.000000
vn 1.000000 0.000000 0.000000
vn 1.000000 0.000000 0.000000
vn 1.000000 0.000000 0.000000
vn 1.000000 0.000000 0.000000
vn 0.000000 -1.000000 0.000000
vn 0.000000 -1.000000 0.000000
vn 0.000000 -1.000000 0.000000
vn 0.000000 -1.000000 0.000000
vn -1.000000 0.000000 0.000000
vn -1.000000 0.000000 0.000000
vn -1.000000 0.000000 0.000000
vn -1.000000 0.000000 0.000000
vn 0.000000 -1.000000 0.000000
vn 0.000000 -1.000000 0.000000
vn 0.000000 0.000000 1.000000
vn 0.000000 0.000000 1.000000
vn 0.000000 0.000000 1.000000
vn 0.000000 0.000000 1.000000
vn 0.000000 0.000000 1.000000
vn 0.000000 0.000000 1.000000
vn 0.000000 1.000000 0.000000
vn 0.000000 1.000000 0.000000
vn 0.000000 1.000000 0.000000
vn 0.000000 1.000000 0.000000
vn 0.000000 -1.000000 0.000000
vn 0.000000 -1.000000 0.000000
vn 0.000000 -1.000000 0.000000
vn 0.000000 -1.000000 0.000000
vn 1.000000 0.000000 0.000000
vn 1.000000 0.000000 0.000000
vn 1.000000 0.000000 0.000000
vn 1.000000 0.000000 0.000000
vn -1.000000 0.000000 0.000000
vn -1.000000 0.000000 0.000000
vn -1.000000 0.000000 0.000000
vn -1.000000 0.000000 0.000000
vn 0.000000 1.000000 0.000000
vn 0.000000 1.000000 0.000000
vn 0.000000 1.000000 0.000000
vn 0.000000 1.000000 0.000000
vn 0.000000 -1.000000 0.000000
vn 0.000000 -1.000000 0.000000
vn 0.000000 -1.000000 0.000000
vn 0.000000 -1.000000 0.000000
vn 0.000000 1.000000 0.000000
vn 0.000000 1.000000 0.000000
vn 0.000000 1.000000 0.000000
vn 0.000000 1.000000 0.000000
vn 0.000000 1.000000 0.000000
vn 0.000000 1.000000 0.000000
vn 0.000000 1.000000 0.000000
vn 0.000000 1.000000 0.000000
vn -1.000000 0.000000 0.000000
vn -1.000000 0.000000 0.000000
vn -1.000000 0.000000 0.000000
vn -1.000000 0.000000 0.000000
vn 1.000000 0.000000 0.000000
vn 1.000000 0.000000 0.000000
vn 1.000000 0.000000 0.000000
vn 1.000000 0.000000 0.000000
vn 0.000000 -1.000000 0.000000
vn 0.000000 -1.000000 0.000000
vn 0.000000 -1.000000 0.000000
vn 0.000000 -1.000000 0.000000
vn 0.000000 -1.000000 0.000000
vn 0.000000 -1.000000 0.000000
vn 0.000000 -1.000000 0.000000
vn 0.000000 -1.000000 0.000000
f 15/12/1 16/36/2 24/9/3 23/34/4
f 16/36/5 15/12/6 17/27/7 18/37/8
f 18/37/8 17/27/7 29/25/9 30/39/10
f 19/1/11 20/16/12 23/34/4 24/9/3
f 20/16/13 19/1/14 22/2/15 21/14/16
f 21/14/17 22/2/18 41/38/19 42/3/20
f 25/4/21 26/21/22 34/6/23 33/10/24
f 26/21/25 25/4/26 27/30/27 28/18/28
f 28/18/28 27/30/27 35/5/29 36/33/30
f 30/39/10 29/25/9 31/23/31 32/28/32
f 32/28/32 31/23/31 36/33/33 35/5/34
f 33/10/35 34/6/36 38/7/37 37/31/38
f 37/31/39 38/7/40 40/8/41 39/29/42
f 39/29/42 40/8/41 42/3/43 41/38/44
f 24/9/45 41/38/46 22/2/47 19/1/48
f 27/30/49 25/4/50 33/10/51 37/31/52
f 1/11/53 8/26/54 17/27/55 15/12/56
f 9/13/57 3/15/58 20/16/59 21/14/60
f 3/15/61 11/35/62 23/34/63 20/16/64
f 10/17/65 5/19/66 26/21/67 28/18/68
f 5/19/69 6/20/70 34/6/71 26/21/72
f 7/22/73 4/32/74 36/33/75 31/23/76
f 2/24/77 7/22/73 31/23/76 29/25/78
f 8/26/54 2/24/77 29/25/78 17/27/55
f 32/28/79 37/31/52 39/29/80 30/39/81
f 35/5/82 27/30/49 37/31/52 32/28/79
f 4/32/83 10/17/65 28/18/68 36/33/84
f 23/34/63 11/35/62 1/11/85 15/12/86
f 16/36/87 18/37/88 41/38/46 24/9/45
f 39/29/80 41/38/46 18/37/88 30/39/81
f 38/40/89 34/41/90 6/42/91 12/43/92
f 40/44/93 38/45/94 12/46/95 13/47/96
f 21/48/97 42/49/98 14/50/99 9/51/100
f 42/52/101 40/53/93 13/54/96 14/55/102
f 9/56/103 14/57/104 13/58/105 43/59/106
f 43/60/106 13/61/105 12/62/107 6/63/108
f 8/64/109 1/65/110 44/66/111 45/67/112
f 3/68/113 9/69/114 47/70/115 46/71/116
f 1/72/117 11/73/118 48/74/119 44/75/120
f 5/76/121 10/77/122 50/78/123 49/79/124
f 7/80/125 2/81/126 51/82/127 52/83/128
f 6/84/129 5/85/130 49/86/131 53/87/132
f 4/88/133 7/89/134 52/90/135 54/91/136
f 2/92/137 8/93/138 45/94/139 51/95/140
f 10/96/141 4/97/142 54/98/143 50/99/144
f 11/100/145 3/101/146 46/102/147 48/103/148
f 9/104/149 43/105/150 55/106/151 47/107/152
f 43/108/153 6/109/154 53/110/155 55/111/156
