# This file uses meters as units for non-parametric coordinates.

v -0.000000 -0.000015 35.284187
v 38.197956 -0.000015 33.427765
v 38.610092 -0.000015 -0.000000
v 38.197956 -0.000015 -33.427765
v -0.000000 -0.000015 -35.284187
v -38.197956 -0.000015 -33.427765
v -38.610092 -0.000015 -0.000000
v -38.197956 -0.000015 33.427765
v -16.041801 -0.000015 -33.766426
v -16.041801 -0.000015 33.766426
v 16.041801 -0.000015 -33.766426
v 16.041801 -0.000015 33.766426
v -37.621162 -0.000015 -14.038488
v 37.621162 -0.000015 -14.038488
v -37.621162 -0.000015 14.038488
v 37.621162 -0.000015 14.038488
v -36.561317 -7.916107 33.204254
v 36.561317 -7.916107 33.204254
v -36.561317 -7.916107 -33.204254
v 36.561317 -7.916107 -33.204254
v 0.000000 -7.916107 35.058296
v -0.000754 -7.900391 -34.626850
v -35.065704 -8.540237 -0.000000
v 35.163631 -8.532959 0.000000
v 39.311104 -0.623154 35.751591
v -0.000000 -0.623154 37.737068
v -39.311104 -0.623154 35.751591
v -39.907063 -0.682022 -0.000000
v -39.311104 -0.623154 -35.751591
v -0.000000 -0.623154 -37.737068
v 39.311104 -0.623154 -35.751591
v 39.907063 -0.682022 0.000000
v -20.885521 -13.165955 19.100122
v -0.047193 -12.428146 23.937729
v -0.007955 -17.338531 -0.010607
v -24.262753 -13.516830 0.058986
v 20.873600 -13.166229 19.101568
v 24.308744 -13.464951 0.056464
v 21.476980 -12.624359 -19.624557
v -0.049818 -11.972015 -24.217768
v -21.487585 -12.623306 -19.619999
v -15.170695 -7.917801 32.964390
v -11.205333 -12.873917 22.507076
v -14.170744 -16.081009 0.039146
v -11.734816 -12.223145 -22.933493
v -15.354471 -7.916107 -33.545998
v -16.509287 -0.623154 -36.113796
v -16.509287 -0.623154 36.113796
v 15.189596 -7.921524 33.034603
v 11.027335 -13.021484 22.400230
v 14.178424 -16.038681 0.030690
v 11.474198 -12.475525 -22.745508
v 15.354471 -7.916107 -33.545998
v 16.509287 -0.623154 -36.113796
v 16.509287 -0.623154 36.113796
v -35.177097 -8.516022 -13.944621
v -38.808937 -0.676208 -15.014414
v 38.808937 -0.676208 -15.014414
v 35.080177 -8.520096 -13.914664
v 23.631128 -13.777405 -10.207722
v 11.511181 -15.656952 -10.899347
v -0.035811 -15.660568 -13.872918
v -11.600912 -15.523148 -10.984939
v -23.650209 -13.778595 -10.209738
v -38.808937 -0.676208 15.014414
v 38.808937 -0.676208 15.014414
v 35.177097 -8.516022 13.944621
v 23.628029 -13.782028 10.310145
v 11.361803 -15.967392 10.801141
v -0.028903 -16.067291 13.739504
v -11.374204 -15.925507 10.828003
v -23.637661 -13.781418 10.308081
v -35.177097 -8.516022 13.944621
v -36.561317 7.916107 33.204254
v 36.561317 7.916107 33.204254
v -36.561317 7.916107 -33.204254
v 36.561317 7.916107 -33.204254
v 0.000000 7.916107 35.058296
v -0.000754 7.900391 -34.626850
v -35.065704 8.540237 -0.000000
v 35.163631 8.532974 0.000000
v 39.311104 0.623138 35.751591
v -0.000000 0.623138 37.737068
v -39.311104 0.623138 35.751591
v -39.907063 0.682022 -0.000000
v -39.311104 0.623138 -35.751591
v -0.000000 0.623138 -37.737068
v 39.311104 0.623138 -35.751591
v 39.907063 0.682022 0.000000
v -20.885521 13.165970 19.100122
v -0.047193 12.428146 23.937729
v -0.007955 17.338531 -0.010607
v -24.262753 13.516846 0.058986
v 20.873600 13.166229 19.101568
v 24.308744 13.464951 0.056464
v 21.476980 12.624344 -19.624557
v -0.049818 11.972015 -24.217768
v -21.487585 12.623306 -19.619999
v -15.170695 7.917801 32.964390
v -11.205333 12.873917 22.507076
v -14.170744 16.081024 0.039146
v -11.734816 12.223129 -22.933493
v -15.354471 7.916107 -33.545998
v -16.509287 0.623138 -36.113796
v -16.509287 0.623138 36.113796
v 15.189596 7.921524 33.034603
v 11.027335 13.021484 22.400230
v 14.178424 16.038681 0.030690
v 11.474198 12.475525 -22.745508
v 15.354471 7.916107 -33.545998
v 16.509287 0.623138 -36.113796
v 16.509287 0.623138 36.113796
v -35.177097 8.516022 -13.944621
v -38.808937 0.676224 -15.014414
v 38.808937 0.676224 -15.014414
v 35.080177 8.520096 -13.914664
v 23.631128 13.777405 -10.207722
v 11.511181 15.656967 -10.899347
v -0.035811 15.660553 -13.872918
v -11.600912 15.523148 -10.984939
v -23.650209 13.778610 -10.209738
v -38.808937 0.676224 15.014414
v 38.808937 0.676224 15.014414
v 35.177097 8.516022 13.944621
v 23.628029 13.782013 10.310145
v 11.361803 15.967392 10.801141
v -0.028903 16.067307 13.739504
v -11.374204 15.925507 10.828003
v -23.637661 13.781418 10.308081
v -35.177097 8.516022 13.944621
vt 0.293124 0.828780
vt 0.292602 0.830449
vt 0.294929 0.830350
vt 0.294961 0.828134
vt 0.297078 0.827863
vt 0.297082 0.829798
vt 0.299243 0.830355
vt 0.299180 0.828154
vt 0.297086 0.832407
vt 0.297080 0.835037
vt 0.299271 0.834473
vt 0.299778 0.832399
vt 0.292484 0.832393
vt 0.292600 0.834342
vt 0.294886 0.834489
vt 0.294398 0.832397
vt 0.304960 0.825245
vt 0.304859 0.829398
vt 0.304226 0.829741
vt 0.304335 0.826062
vt 0.300131 0.825998
vt 0.297087 0.825710
vt 0.297087 0.824847
vt 0.300393 0.825173
vt 0.289840 0.826062
vt 0.289215 0.825245
vt 0.293781 0.825173
vt 0.294043 0.825998
vt 0.289949 0.829741
vt 0.289316 0.829398
vt 0.289761 0.832405
vt 0.289949 0.835068
vt 0.289316 0.835411
vt 0.289096 0.832405
vt 0.289840 0.838747
vt 0.294043 0.838812
vt 0.293781 0.839637
vt 0.289215 0.839564
vt 0.297087 0.839100
vt 0.300131 0.838812
vt 0.300393 0.839637
vt 0.297087 0.839962
vt 0.304226 0.835068
vt 0.304413 0.832405
vt 0.305079 0.832405
vt 0.304859 0.835411
vt 0.290150 0.826104
vt 0.294209 0.826150
vt 0.290413 0.829759
vt 0.290150 0.838705
vt 0.294174 0.838770
vt 0.304025 0.826104
vt 0.303762 0.829759
vt 0.300001 0.838770
vt 0.297087 0.838975
vt 0.297087 0.825752
vt 0.299969 0.826137
vt 0.290413 0.835050
vt 0.290434 0.832405
vt 0.303759 0.832405
vt 0.303743 0.835045
vt 0.301048 0.828780
vt 0.301571 0.830448
vt 0.301700 0.832394
vt 0.301571 0.834341
vt 0.299264 0.836720
vt 0.297078 0.837000
vt 0.294861 0.836756
vt 0.293010 0.836127
vt 0.304025 0.838705
vt 0.301162 0.836128
vt 0.304960 0.839564
vt 0.304335 0.838747
vt 0.293124 0.828780
vt 0.294961 0.828134
vt 0.294929 0.830350
vt 0.292602 0.830449
vt 0.297078 0.827863
vt 0.299180 0.828154
vt 0.299243 0.830355
vt 0.297082 0.829798
vt 0.297086 0.832407
vt 0.299778 0.832399
vt 0.299271 0.834473
vt 0.297080 0.835037
vt 0.292484 0.832393
vt 0.294398 0.832397
vt 0.294886 0.834489
vt 0.292600 0.834342
vt 0.304546 0.825621
vt 0.304451 0.829556
vt 0.300220 0.825552
vt 0.297087 0.825244
vt 0.293955 0.825552
vt 0.289628 0.825621
vt 0.289724 0.829556
vt 0.289515 0.832405
vt 0.289724 0.835253
vt 0.289628 0.839188
vt 0.293955 0.839257
vt 0.297087 0.839565
vt 0.300220 0.839257
vt 0.304451 0.835253
vt 0.304659 0.832405
vt 0.294209 0.826150
vt 0.290150 0.826104
vt 0.290413 0.829759
vt 0.290150 0.838705
vt 0.294174 0.838770
vt 0.303762 0.829759
vt 0.304025 0.826104
vt 0.297087 0.838975
vt 0.300001 0.838770
vt 0.297087 0.825752
vt 0.299969 0.826137
vt 0.290434 0.832405
vt 0.290413 0.835050
vt 0.303759 0.832405
vt 0.303743 0.835045
vt 0.301571 0.830448
vt 0.301048 0.828780
vt 0.301571 0.834341
vt 0.301700 0.832394
vt 0.297078 0.837000
vt 0.299264 0.836720
vt 0.293010 0.836127
vt 0.294861 0.836756
vt 0.304025 0.838705
vt 0.301162 0.836128
vt 0.304546 0.839188
vn -0.162562 -0.962987 0.215013
vn -0.297489 -0.953139 0.055006
vn -0.097577 -0.986279 0.133167
vn -0.046778 -0.941437 0.333928
vn -0.002687 -0.934750 0.355295
vn -0.002016 -0.982653 0.185442
vn 0.097872 -0.986788 0.129112
vn 0.046283 -0.941647 0.333404
vn -0.001124 -0.999876 -0.015695
vn -0.004654 -0.979038 -0.203623
vn 0.092442 -0.984307 -0.150312
vn 0.133904 -0.990943 -0.010083
vn -0.326671 -0.945134 -0.002903
vn -0.283325 -0.956704 -0.066669
vn -0.092691 -0.983337 -0.156389
vn -0.132888 -0.991060 -0.011868
vn 0.089131 0.972116 0.216903
vn 0.497386 0.867528 -0.001620
vn 0.482788 0.875577 0.016755
vn 0.207562 0.965391 0.157918
vn 0.013446 0.967373 0.253001
vn 0.000000 0.968477 0.249102
vn -0.000000 0.968477 0.249102
vn 0.011745 0.967228 0.253637
vn -0.207562 0.965391 0.157918
vn -0.089131 0.972116 0.216903
vn -0.011745 0.967228 0.253637
vn -0.013446 0.967372 0.253001
vn -0.482788 0.875577 0.016755
vn -0.497386 0.867528 -0.001620
vn -0.469460 0.882954 0.000000
vn -0.482788 0.875577 -0.016755
vn -0.497386 0.867528 0.001620
vn -0.469460 0.882954 0.000000
vn -0.207562 0.965391 -0.157918
vn -0.013446 0.967373 -0.253001
vn -0.011745 0.967228 -0.253637
vn -0.089131 0.972116 -0.216903
vn 0.000000 0.968477 -0.249102
vn 0.013446 0.967373 -0.253001
vn 0.011745 0.967228 -0.253637
vn 0.000000 0.968477 -0.249102
vn 0.482788 0.875577 -0.016755
vn 0.469460 0.882954 -0.000000
vn 0.469460 0.882954 0.000000
vn 0.497386 0.867528 0.001620
vn -0.606910 -0.500495 0.617385
vn -0.468794 -0.735389 0.489321
vn -0.043207 -0.754832 0.654493
vn -0.042348 -0.369781 0.928153
vn -0.636041 -0.771347 0.021815
vn -0.907260 -0.420457 -0.009778
vn -0.476539 -0.731060 -0.488325
vn -0.620576 -0.480254 -0.619872
vn -0.039472 -0.347349 -0.936905
vn -0.037007 -0.754783 -0.654930
vn 0.608499 -0.498030 0.617815
vn 0.469466 -0.735124 0.489075
vn 0.635582 -0.771705 0.022529
vn 0.908062 -0.418747 -0.008631
vn 0.000005 -0.368513 -0.929623
vn 0.039472 -0.347352 -0.936904
vn 0.038159 -0.754954 -0.654667
vn -0.001469 -0.730256 -0.683172
vn -0.001594 -0.718217 0.695818
vn 0.043850 -0.754696 0.654608
vn 0.042616 -0.365957 0.929655
vn -0.001034 -0.377492 0.926012
vn -0.907260 -0.420457 0.009778
vn -0.633238 -0.773532 -0.025635
vn -0.664371 -0.747403 0.000031
vn -0.879124 -0.476593 0.000000
vn 0.665110 -0.746745 -0.001199
vn 0.631998 -0.774523 -0.026342
vn 0.906057 -0.423066 0.008750
vn 0.880080 -0.474823 -0.001447
vn 0.164322 -0.962585 0.215472
vn 0.297591 -0.953184 0.053667
vn 0.327193 -0.944953 -0.002813
vn 0.285483 -0.956165 -0.065182
vn 0.041460 -0.947333 -0.317555
vn -0.004413 -0.940553 -0.339620
vn -0.041735 -0.947782 -0.316175
vn -0.154049 -0.966175 -0.206822
vn 0.476881 -0.731771 -0.486924
vn 0.158062 -0.965221 -0.208240
vn 0.620369 -0.483339 -0.617678
vn 0.207562 0.965391 -0.157918
vn 0.089131 0.972116 -0.216903
vn -0.162562 0.962987 0.215013
vn -0.046777 0.941437 0.333928
vn -0.097577 0.986279 0.133167
vn -0.297490 0.953139 0.055006
vn -0.002687 0.934750 0.355295
vn 0.046283 0.941647 0.333404
vn 0.097873 0.986788 0.129112
vn -0.002016 0.982653 0.185442
vn -0.001124 0.999876 -0.015695
vn 0.133905 0.990943 -0.010082
vn 0.092442 0.984307 -0.150312
vn -0.004654 0.979038 -0.203623
vn -0.326671 0.945134 -0.002903
vn -0.132888 0.991060 -0.011868
vn -0.092690 0.983336 -0.156390
vn -0.283325 0.956704 -0.066669
vn 0.089136 -0.972114 0.216908
vn 0.207571 -0.965389 0.157921
vn 0.482808 -0.875566 0.016755
vn 0.497404 -0.867517 -0.001620
vn 0.013446 -0.967371 0.253007
vn 0.011745 -0.967227 0.253642
vn 0.000000 -0.968476 0.249108
vn 0.000000 -0.968476 0.249108
vn -0.207571 -0.965389 0.157921
vn -0.013446 -0.967371 0.253007
vn -0.011745 -0.967227 0.253642
vn -0.089136 -0.972114 0.216908
vn -0.497404 -0.867517 -0.001620
vn -0.482808 -0.875566 0.016755
vn -0.469480 -0.882943 -0.000000
vn -0.469480 -0.882943 -0.000000
vn -0.497404 -0.867517 0.001620
vn -0.482808 -0.875566 -0.016755
vn -0.207571 -0.965389 -0.157921
vn -0.089136 -0.972114 -0.216908
vn -0.011745 -0.967227 -0.253642
vn -0.013446 -0.967371 -0.253007
vn 0.000000 -0.968476 -0.249108
vn 0.000000 -0.968476 -0.249108
vn 0.011745 -0.967227 -0.253642
vn 0.013446 -0.967371 -0.253007
vn 0.482808 -0.875566 -0.016755
vn 0.497404 -0.867517 0.001620
vn 0.469480 -0.882943 0.000000
vn 0.469480 -0.882943 0.000000
vn -0.606909 0.500495 0.617387
vn -0.042348 0.369780 0.928154
vn -0.043207 0.754832 0.654494
vn -0.468794 0.735389 0.489322
vn -0.636041 0.771347 0.021815
vn -0.907260 0.420457 -0.009777
vn -0.476539 0.731060 -0.488325
vn -0.037007 0.754783 -0.654930
vn -0.039472 0.347348 -0.936905
vn -0.620575 0.480253 -0.619873
vn 0.608498 0.498029 0.617816
vn 0.908062 0.418747 -0.008631
vn 0.635581 0.771705 0.022529
vn 0.469466 0.735124 0.489075
vn 0.000005 0.368513 -0.929623
vn -0.001469 0.730256 -0.683172
vn 0.038159 0.754953 -0.654667
vn 0.039472 0.347351 -0.936904
vn -0.001594 0.718216 0.695818
vn -0.001034 0.377492 0.926013
vn 0.042616 0.365957 0.929656
vn 0.043850 0.754695 0.654608
vn -0.907260 0.420457 0.009777
vn -0.879124 0.476593 0.000000
vn -0.664371 0.747403 0.000031
vn -0.633238 0.773532 -0.025635
vn 0.665110 0.746745 -0.001199
vn 0.880080 0.474823 -0.001447
vn 0.906057 0.423066 0.008750
vn 0.631997 0.774523 -0.026342
vn 0.297591 0.953184 0.053667
vn 0.164322 0.962585 0.215471
vn 0.285483 0.956165 -0.065183
vn 0.327193 0.944954 -0.002813
vn -0.004413 0.940553 -0.339619
vn 0.041460 0.947333 -0.317555
vn -0.154048 0.966175 -0.206823
vn -0.041735 0.947783 -0.316175
vn 0.476881 0.731771 -0.486924
vn 0.158062 0.965221 -0.208241
vn 0.620368 0.483338 -0.617679
vn 0.089136 -0.972114 -0.216908
vn 0.207571 -0.965389 -0.157921
f 33/1/1 72/2/2 71/3/3 43/4/4
f 34/5/5 70/6/6 69/7/7 50/8/8
f 35/9/9 62/10/10 61/11/11 51/12/12
f 36/13/13 64/14/14 63/15/15 44/16/16
f 25/17/17 66/18/18 16/19/19 2/20/20
f 12/21/21 1/22/22 26/23/23 55/24/24
f 8/25/25 27/26/26 48/27/27 10/28/28
f 8/25/25 15/29/29 65/30/30 27/26/26
f 7/31/31 13/32/32 57/33/33 28/34/34
f 6/35/35 9/36/36 47/37/37 29/38/38
f 5/39/39 11/40/40 54/41/41 30/42/42
f 14/43/43 3/44/44 32/45/45 58/46/46
f 27/26/47 17/47/48 42/48/49 48/27/50
f 73/49/51 17/47/48 27/26/47 65/30/52
f 19/50/53 29/38/54 47/37/55 46/51/56
f 25/17/57 18/52/58 67/53/59 66/18/60
f 30/42/61 54/41/62 53/54/63 22/55/64
f 21/56/65 49/57/66 55/24/67 26/23/68
f 57/33/69 56/58/70 23/59/71 28/34/72
f 24/60/73 59/61/74 58/46/75 32/45/76
f 17/47/48 33/1/1 43/4/4 42/48/49
f 73/49/51 72/2/2 33/1/1 17/47/48
f 21/56/65 34/5/5 50/8/8 49/57/66
f 18/52/58 37/62/77 68/63/78 67/53/59
f 24/60/73 38/64/79 60/65/80 59/61/74
f 53/54/63 52/66/81 40/67/82 22/55/64
f 46/51/56 45/68/83 41/69/84 19/50/53
f 64/14/14 36/13/13 23/59/71 56/58/70
f 42/48/49 43/4/4 34/5/5 21/56/65
f 71/3/3 70/6/6 34/5/5 43/4/4
f 63/15/15 62/10/10 35/9/9 44/16/16
f 22/55/64 40/67/82 45/68/83 46/51/56
f 47/37/55 30/42/61 22/55/64 46/51/56
f 9/36/36 5/39/39 30/42/42 47/37/37
f 48/27/27 26/23/23 1/22/22 10/28/28
f 42/48/49 21/56/65 26/23/68 48/27/50
f 49/57/66 50/8/8 37/62/77 18/52/58
f 69/7/7 68/63/78 37/62/77 50/8/8
f 61/11/11 60/65/80 38/64/79 51/12/12
f 20/70/85 39/71/86 52/66/81 53/54/63
f 54/41/62 31/72/87 20/70/85 53/54/63
f 11/40/40 4/73/88 31/72/89 54/41/41
f 2/20/20 12/21/21 55/24/24 25/17/17
f 49/57/66 18/52/58 25/17/57 55/24/67
f 29/38/54 19/50/53 56/58/70 57/33/69
f 13/32/32 6/35/35 29/38/38 57/33/33
f 4/73/88 14/43/43 58/46/46 31/72/89
f 59/61/74 20/70/85 31/72/87 58/46/75
f 60/65/80 39/71/86 20/70/85 59/61/74
f 52/66/81 39/71/86 60/65/80 61/11/11
f 62/10/10 40/67/82 52/66/81 61/11/11
f 45/68/83 40/67/82 62/10/10 63/15/15
f 64/14/14 41/69/84 45/68/83 63/15/15
f 19/50/53 41/69/84 64/14/14 56/58/70
f 15/29/29 7/31/31 28/34/34 65/30/30
f 66/18/18 32/45/45 3/44/44 16/19/19
f 67/53/59 24/60/73 32/45/76 66/18/60
f 68/63/78 38/64/79 24/60/73 67/53/59
f 51/12/12 38/64/79 68/63/78 69/7/7
f 70/6/6 35/9/9 51/12/12 69/7/7
f 44/16/16 35/9/9 70/6/6 71/3/3
f 72/2/2 36/13/13 44/16/16 71/3/3
f 23/59/71 36/13/13 72/2/2 73/49/51
f 28/34/72 23/59/71 73/49/51 65/30/52
f 90/74/90 100/75/91 128/76/92 129/77/93
f 91/78/94 107/79/95 126/80/96 127/81/97
f 92/82/98 108/83/99 118/84/100 119/85/101
f 93/86/102 101/87/103 120/88/104 121/89/105
f 82/90/106 2/20/107 16/19/108 123/91/109
f 12/21/110 112/92/111 83/93/112 1/22/113
f 8/25/114 10/28/115 105/94/116 84/95/117
f 8/25/114 84/95/117 122/96/118 15/29/119
f 7/31/120 85/97/121 114/98/122 13/32/123
f 6/35/124 86/99/125 104/100/126 9/36/127
f 5/39/128 87/101/129 111/102/130 11/40/131
f 14/43/132 115/103/133 89/104/134 3/44/135
f 84/95/136 105/94/137 99/105/138 74/106/139
f 130/107/140 122/96/141 84/95/136 74/106/139
f 76/108/142 103/109/143 104/100/144 86/99/145
f 82/90/146 123/91/147 124/110/148 75/111/149
f 87/101/150 79/112/151 110/113/152 111/102/153
f 78/114/154 83/93/155 112/92/156 106/115/157
f 114/98/158 85/97/159 80/116/160 113/117/161
f 81/118/162 89/104/163 115/103/164 116/119/165
f 74/106/139 99/105/138 100/75/91 90/74/90
f 130/107/140 74/106/139 90/74/90 129/77/93
f 78/114/154 106/115/157 107/79/95 91/78/94
f 75/111/149 124/110/148 125/120/166 94/121/167
f 81/118/162 116/119/165 117/122/168 95/123/169
f 110/113/152 79/112/151 97/124/170 109/125/171
f 103/109/143 76/108/142 98/126/172 102/127/173
f 121/89/105 113/117/161 80/116/160 93/86/102
f 99/105/138 78/114/154 91/78/94 100/75/91
f 128/76/92 100/75/91 91/78/94 127/81/97
f 120/88/104 101/87/103 92/82/98 119/85/101
f 79/112/151 103/109/143 102/127/173 97/124/170
f 104/100/144 103/109/143 79/112/151 87/101/150
f 9/36/127 104/100/126 87/101/129 5/39/128
f 105/94/116 10/28/115 1/22/113 83/93/112
f 99/105/138 105/94/137 83/93/155 78/114/154
f 106/115/157 75/111/149 94/121/167 107/79/95
f 126/80/96 107/79/95 94/121/167 125/120/166
f 118/84/100 108/83/99 95/123/169 117/122/168
f 77/128/174 110/113/152 109/125/171 96/129/175
f 111/102/153 110/113/152 77/128/174 88/130/176
f 11/40/131 111/102/130 88/130/177 4/73/178
f 2/20/107 82/90/106 112/92/111 12/21/110
f 106/115/157 112/92/156 82/90/146 75/111/149
f 86/99/145 114/98/158 113/117/161 76/108/142
f 13/32/123 114/98/122 86/99/125 6/35/124
f 4/73/178 88/130/177 115/103/133 14/43/132
f 116/119/165 115/103/164 88/130/176 77/128/174
f 117/122/168 116/119/165 77/128/174 96/129/175
f 109/125/171 118/84/100 117/122/168 96/129/175
f 119/85/101 118/84/100 109/125/171 97/124/170
f 102/127/173 120/88/104 119/85/101 97/124/170
f 121/89/105 120/88/104 102/127/173 98/126/172
f 76/108/142 113/117/161 121/89/105 98/126/172
f 15/29/119 122/96/118 85/97/121 7/31/120
f 123/91/109 16/19/108 3/44/135 89/104/134
f 124/110/148 123/91/147 89/104/163 81/118/162
f 125/120/166 124/110/148 81/118/162 95/123/169
f 108/83/99 126/80/96 125/120/166 95/123/169
f 127/81/97 126/80/96 108/83/99 92/82/98
f 101/87/103 128/76/92 127/81/97 92/82/98
f 129/77/93 128/76/92 101/87/103 93/86/102
f 80/116/160 130/107/140 129/77/93 93/86/102
f 85/97/159 122/96/141 130/107/140 80/116/160
