# This file uses centimeters as units for non-parametric coordinates.

v -21.176086 36.095428 -11.028481
v 20.698780 36.095428 11.900188
v -21.176086 37.089264 -11.028481
v 20.698780 37.089264 11.900188
v -20.698780 37.089264 -11.900188
v 21.176086 37.089264 11.028481
v -20.698780 36.095428 -11.900188
v 21.176086 36.095428 11.028481
v -20.698723 36.095428 11.900285
v 21.176033 36.095428 -11.028579
v -20.698723 37.089264 11.900285
v 21.176033 37.089264 -11.028579
v -21.176033 37.089264 11.028579
v 20.698723 37.089264 -11.900285
v -21.176033 36.095428 11.028579
v 20.698723 36.095428 -11.900285
vt 0.520702 0.210099
vt 0.592330 0.210099
vt 0.592330 0.214650
vt 0.520702 0.214650
vt 0.592330 0.219202
vt 0.520702 0.219202
vt 0.592330 0.223753
vt 0.520702 0.223753
vt 0.592330 0.228305
vt 0.520702 0.228305
vt 0.520702 0.210099
vt 0.592330 0.210099
vt 0.592330 0.214650
vt 0.520702 0.214650
vt 0.592330 0.219202
vt 0.520702 0.219202
vt 0.592330 0.223753
vt 0.520702 0.223753
vt 0.592330 0.228305
vt 0.520702 0.228305
vn -0.480269 0.000000 0.877121
vn -0.480269 0.000000 0.877121
vn -0.480269 0.000000 0.877121
vn -0.480269 0.000000 0.877121
vn 0.000000 1.000000 -0.000001
vn 0.000000 1.000000 -0.000001
vn 0.000000 1.000000 -0.000001
vn 0.000000 1.000000 -0.000001
vn 0.480269 0.000000 -0.877121
vn 0.480269 0.000000 -0.877121
vn 0.480269 0.000000 -0.877121
vn 0.480269 0.000000 -0.877121
vn 0.000000 -1.000000 0.000001
vn 0.000000 -1.000000 0.000001
vn 0.000000 -1.000000 0.000001
vn 0.000000 -1.000000 0.000001
vn 0.480274 0.000000 0.877119
vn 0.480274 0.000000 0.877119
vn 0.480274 0.000000 0.877119
vn 0.480274 0.000000 0.877119
vn 0.000000 1.000000 0.000001
vn 0.000000 1.000000 0.000001
vn 0.000000 1.000000 0.000001
vn 0.000000 1.000000 0.000001
vn -0.480274 0.000000 -0.877119
vn -0.480274 0.000000 -0.877119
vn -0.480274 0.000000 -0.877119
vn -0.480274 0.000000 -0.877119
vn 0.000000 -1.000000 -0.000001
vn 0.000000 -1.000000 -0.000001
vn 0.000000 -1.000000 -0.000001
vn 0.000000 -1.000000 -0.000001
f 1/1/1 2/2/2 4/3/3 3/4/4
f 3/4/5 4/3/6 6/5/7 5/6/8
f 5/6/9 6/5/10 8/7/11 7/8/12
f 7/8/13 8/7/14 2/9/15 1/10/16
f 9/11/17 10/12/18 12/13/19 11/14/20
f 11/14/21 12/13/22 14/15/23 13/16/24
f 13/16/25 14/15/26 16/17/27 15/18/28
f 15/18/29 16/17/30 10/19/31 9/20/32
