# This file uses centimeters as units for non-parametric coordinates.

v 0.319685 24.903595 9.711234
v 0.319685 24.903595 -9.711234
v 0.319685 25.542961 9.711234
v 0.319685 25.542961 -9.711234
v -0.319685 25.542961 9.711234
v -0.319685 25.542961 -9.711234
v -0.319685 24.903595 9.711234
v -0.319685 24.903595 -9.711234
v -21.123587 24.903595 0.319685
v 21.123587 24.903595 0.319685
v -21.123587 25.542961 0.319685
v 21.123587 25.542961 0.319685
v -21.123587 25.542961 -0.319685
v 21.123587 25.542961 -0.319685
v -21.123587 24.903595 -0.319685
v 21.123587 24.903595 -0.319685
vt 0.519479 0.080815
vt 0.591107 0.080815
vt 0.591107 0.087953
vt 0.519479 0.087953
vt 0.591107 0.095091
vt 0.519479 0.095091
vt 0.591107 0.102229
vt 0.519479 0.102229
vt 0.591107 0.109368
vt 0.519479 0.109368
vt 0.519479 0.080815
vt 0.591107 0.080815
vt 0.591107 0.087953
vt 0.519479 0.087953
vt 0.591107 0.095091
vt 0.519479 0.095091
vt 0.591107 0.102229
vt 0.519479 0.102229
vt 0.591107 0.109368
vt 0.519479 0.109368
vn 1.000000 0.000000 0.000000
vn 1.000000 0.000000 0.000000
vn 1.000000 0.000000 0.000000
vn 1.000000 0.000000 0.000000
vn 0.000000 1.000000 0.000000
vn 0.000000 1.000000 0.000000
vn 0.000000 1.000000 0.000000
vn 0.000000 1.000000 0.000000
vn -1.000000 0.000000 0.000000
vn -1.000000 0.000000 0.000000
vn -1.000000 0.000000 0.000000
vn -1.000000 0.000000 0.000000
vn 0.000000 -1.000000 0.000000
vn 0.000000 -1.000000 0.000000
vn 0.000000 -1.000000 0.000000
vn 0.000000 -1.000000 0.000000
vn 0.000000 0.000000 1.000000
vn 0.000000 0.000000 1.000000
vn 0.000000 0.000000 1.000000
vn 0.000000 0.000000 1.000000
vn 0.000000 1.000000 0.000000
vn 0.000000 1.000000 0.000000
vn 0.000000 1.000000 0.000000
vn 0.000000 1.000000 0.000000
vn 0.000000 0.000000 -1.000000
vn 0.000000 0.000000 -1.000000
vn 0.000000 0.000000 -1.000000
vn 0.000000 0.000000 -1.000000
vn 0.000000 -1.000000 0.000000
vn 0.000000 -1.000000 0.000000
vn 0.000000 -1.000000 0.000000
vn 0.000000 -1.000000 0.000000
f 1/1/1 2/2/2 4/3/3 3/4/4
f 3/4/5 4/3/6 6/5/7 5/6/8
f 5/6/9 6/5/10 8/7/11 7/8/12
f 7/8/13 8/7/14 2/9/15 1/10/16
f 9/11/17 10/12/18 12/13/19 11/14/20
f 11/14/21 12/13/22 14/15/23 13/16/24
f 13/16/25 14/15/26 16/17/27 15/18/28
f 15/18/29 16/17/30 10/19/31 9/20/32
