# This file uses centimeters as units for non-parametric coordinates.

v -18.574604 30.800888 0.475127
v 18.574604 30.800888 0.475127
v -18.574604 31.751144 0.475127
v 18.574604 31.751144 0.475127
v -18.574604 31.751144 -0.475127
v 18.574604 31.751144 -0.475127
v -18.574604 30.800888 -0.475127
v 18.574604 30.800888 -0.475127
v 0.475127 30.800888 18.574604
v 0.475127 30.800888 -18.574604
v 0.475127 31.751144 18.574604
v 0.475127 31.751144 -18.574604
v -0.475127 31.751144 18.574604
v -0.475127 31.751144 -18.574604
v -0.475127 30.800888 18.574604
v -0.475127 30.800888 -18.574604
vt 0.515552 0.018597
vt 0.599685 0.018597
vt 0.599685 0.025842
vt 0.515552 0.025842
vt 0.599685 0.033086
vt 0.515552 0.033086
vt 0.599685 0.040331
vt 0.515552 0.040331
vt 0.599685 0.047575
vt 0.515552 0.047575
vt 0.515552 0.018597
vt 0.599685 0.018597
vt 0.599685 0.025842
vt 0.515552 0.025842
vt 0.599685 0.033086
vt 0.515552 0.033086
vt 0.599685 0.040331
vt 0.515552 0.040331
vt 0.599685 0.047575
vt 0.515552 0.047575
vn 0.000000 0.000000 1.000000
vn 0.000000 0.000000 1.000000
vn 0.000000 0.000000 1.000000
vn 0.000000 0.000000 1.000000
vn 0.000000 1.000000 0.000000
vn 0.000000 1.000000 0.000000
vn 0.000000 1.000000 0.000000
vn 0.000000 1.000000 0.000000
vn 0.000000 0.000000 -1.000000
vn 0.000000 0.000000 -1.000000
vn 0.000000 0.000000 -1.000000
vn 0.000000 0.000000 -1.000000
vn 0.000000 -1.000000 0.000000
vn 0.000000 -1.000000 0.000000
vn 0.000000 -1.000000 0.000000
vn 0.000000 -1.000000 0.000000
vn 1.000000 0.000000 0.000000
vn 1.000000 0.000000 0.000000
vn 1.000000 0.000000 0.000000
vn 1.000000 0.000000 0.000000
vn 0.000000 1.000000 0.000000
vn 0.000000 1.000000 0.000000
vn 0.000000 1.000000 0.000000
vn 0.000000 1.000000 0.000000
vn -1.000000 0.000000 0.000000
vn -1.000000 0.000000 0.000000
vn -1.000000 0.000000 0.000000
vn -1.000000 0.000000 0.000000
vn 0.000000 -1.000000 0.000000
vn 0.000000 -1.000000 0.000000
vn 0.000000 -1.000000 0.000000
vn 0.000000 -1.000000 0.000000
f 1/1/1 2/2/2 4/3/3 3/4/4
f 3/4/5 4/3/6 6/5/7 5/6/8
f 5/6/9 6/5/10 8/7/11 7/8/12
f 7/8/13 8/7/14 2/9/15 1/10/16
f 9/11/17 10/12/18 12/13/19 11/14/20
f 11/14/21 12/13/22 14/15/23 13/16/24
f 13/16/25 14/15/26 16/17/27 15/18/28
f 15/18/29 16/17/30 10/19/31 9/20/32
