# This file uses meters as units for non-parametric coordinates.

v -15.365820 0.000000 5.907318
v -15.365820 1.320751 6.723585
v 15.365820 0.000000 5.907318
v 15.365820 1.320751 6.723585
v -15.365820 13.447173 -0.660375
v -15.365820 13.447173 0.660375
v 15.365820 13.447173 -0.660375
v 15.365820 13.447173 0.660375
v -15.365820 0.000000 -5.907318
v -15.365820 1.320751 -6.723585
v 15.365820 0.000000 -5.907318
v 15.365820 1.320751 -6.723585
vt 0.983979 0.613141
vt 0.890420 0.613141
vt 0.890420 0.519582
vt 0.983979 0.519582
vt 0.983979 0.613141
vt 0.890420 0.613141
vt 0.890420 0.519582
vt 0.983979 0.519582
vt 0.983979 0.613141
vt 0.890420 0.613141
vt 0.890420 0.519582
vt 0.983979 0.519582
vt 0.975354 0.518061
vt 0.980916 0.527438
vt 0.939602 0.613106
vt 0.930603 0.613064
vt 0.889290 0.527013
vt 0.894852 0.517688
vt 0.894852 0.517688
vt 0.889290 0.527013
vt 0.930603 0.613064
vt 0.939603 0.613106
vt 0.980916 0.527438
vt 0.975354 0.518061
vn 0.000000 0.447214 0.894427
vn 0.000000 0.447214 0.894427
vn 0.000000 0.447214 0.894427
vn 0.000000 0.447214 0.894427
vn 0.000000 0.447214 -0.894427
vn 0.000000 0.447214 -0.894427
vn 0.000000 0.447214 -0.894427
vn 0.000000 0.447214 -0.894427
vn 0.000000 -1.000000 0.000000
vn 0.000000 -1.000000 0.000000
vn 0.000000 -1.000000 0.000000
vn 0.000000 -1.000000 0.000000
vn 1.000000 0.000000 0.000000
vn 1.000000 -0.000000 0.000000
vn 1.000000 0.000000 0.000000
vn 1.000000 -0.000000 0.000000
vn 1.000000 -0.000000 0.000000
vn 1.000000 0.000000 0.000000
vn -1.000000 0.000000 0.000000
vn -1.000000 -0.000000 0.000000
vn -1.000000 0.000000 0.000000
vn -1.000000 -0.000000 0.000000
vn -1.000000 -0.000000 0.000000
vn -1.000000 0.000000 0.000000
vn 0.000000 -0.525730 0.850651
vn 0.000000 -0.525730 0.850651
vn 0.000000 -0.525730 0.850651
vn 0.000000 -0.525730 0.850651
vn 0.000000 1.000000 0.000000
vn 0.000000 1.000000 0.000000
vn 0.000000 1.000000 0.000000
vn 0.000000 1.000000 0.000000
vn 0.000000 -0.525730 -0.850651
vn 0.000000 -0.525730 -0.850651
vn 0.000000 -0.525730 -0.850651
vn 0.000000 -0.525730 -0.850651
f 2/1/1 4/2/2 8/3/3 6/4/4
f 5/5/5 7/6/6 12/7/7 10/8/8
f 9/9/9 11/10/10 3/11/11 1/12/12
f 7/15/13 8/16/14 12/14/15
f 12/14/15 8/16/14 11/13/16
f 8/16/14 4/17/17 11/13/16
f 11/13/16 4/17/17 3/18/18
f 6/21/19 5/22/20 2/20/21
f 2/20/21 5/22/20 1/19/22
f 5/22/20 10/23/23 1/19/22
f 1/19/22 10/23/23 9/24/24
f 2/1/25 1/12/26 3/11/27 4/2/28
f 5/5/29 6/4/30 8/3/31 7/6/32
f 9/9/33 10/8/34 12/7/35 11/10/36
