# This file uses centimeters as units for non-parametric coordinates.

v 8.892422 -41.407715 -8.892422
v 0.000000 -41.407715 -12.575783
v -8.892422 -41.407715 -8.892422
v -12.575783 -41.407715 0.000000
v -8.892422 -41.407715 8.892422
v 0.000000 -41.407715 12.575783
v 8.892426 -41.407715 8.892426
v 12.575783 -41.407715 0.000000
v 8.892422 -32.941498 -8.892422
v 0.000000 -32.941498 -12.575783
v -8.892422 -32.941498 -8.892422
v -12.575783 -32.941498 0.000000
v -8.892422 -32.941498 8.892422
v 0.000000 -32.941498 12.575783
v 8.892426 -32.941498 8.892426
v 12.575783 -32.941498 0.000000
v 0.000000 -41.407715 0.000000
vt 0.634636 0.140280
vt 0.655470 0.140280
vt 0.655470 0.169489
vt 0.634636 0.169489
vt 0.676303 0.140280
vt 0.676303 0.169489
vt 0.697136 0.140280
vt 0.697136 0.169489
vt 0.717970 0.140280
vt 0.717970 0.169489
vt 0.697136 0.140280
vt 0.697136 0.169489
vt 0.676303 0.140280
vt 0.676303 0.169489
vt 0.655470 0.140280
vt 0.655470 0.169489
vt 0.634636 0.140280
vt 0.634636 0.169489
vt 0.672026 0.139361
vt 0.683868 0.144266
vt 0.672026 0.155438
vt 0.660184 0.144266
vt 0.655279 0.156108
vt 0.660184 0.167950
vt 0.672026 0.172855
vt 0.683868 0.167950
vt 0.688773 0.156108
vn 0.707107 0.000000 -0.707107
vn 0.000000 0.000000 -1.000000
vn 0.000000 0.000000 -1.000000
vn 0.707107 0.000000 -0.707107
vn 0.000000 0.000000 -1.000000
vn -0.707107 0.000000 -0.707107
vn -0.707107 0.000000 -0.707107
vn 0.000000 0.000000 -1.000000
vn -0.707107 0.000000 -0.707107
vn -1.000000 0.000000 0.000000
vn -1.000000 0.000000 0.000000
vn -0.707107 0.000000 -0.707107
vn -1.000000 0.000000 0.000000
vn -0.707107 0.000000 0.707107
vn -0.707107 0.000000 0.707107
vn -1.000000 0.000000 0.000000
vn -0.707107 0.000000 0.707107
vn 0.000000 0.000000 1.000000
vn 0.000000 0.000000 1.000000
vn -0.707107 0.000000 0.707107
vn 0.000000 0.000000 1.000000
vn 0.000000 0.000000 1.000000
vn 0.707107 0.000000 0.707107
vn 0.707107 0.000000 0.707107
vn 0.707107 0.000000 0.707107
vn 1.000000 0.000000 0.000000
vn 1.000000 0.000000 0.000000
vn 0.707107 0.000000 0.707107
vn 1.000000 0.000000 0.000000
vn 0.707107 0.000000 -0.707107
vn 0.707107 0.000000 -0.707107
vn 1.000000 0.000000 0.000000
vn 0.000000 -1.000000 0.000000
vn 0.000000 -1.000000 0.000000
vn 0.000000 -1.000000 0.000000
vn 0.000000 -1.000000 0.000000
vn 0.000000 -1.000000 0.000000
vn 0.000000 -1.000000 0.000000
vn 0.000000 -1.000000 0.000000
vn 0.000000 -1.000000 0.000000
vn 0.000000 -1.000000 0.000000
vn 0.000000 -1.000000 0.000000
vn 0.000000 -1.000000 0.000000
vn 0.000000 -1.000000 0.000000
vn 0.000000 -1.000000 0.000000
vn 0.000000 -1.000000 0.000000
vn 0.000000 -1.000000 0.000000
vn 0.000000 -1.000000 0.000000
vn 0.000000 -1.000000 0.000000
vn 0.000000 -1.000000 0.000000
vn 0.000000 -1.000000 0.000000
vn 0.000000 -1.000000 0.000000
vn 0.000000 -1.000000 0.000000
vn 0.000000 -1.000000 0.000000
vn 0.000000 -1.000000 0.000000
vn 0.000000 -1.000000 0.000000
f 1/1/1 2/2/2 10/3/3 9/4/4
f 2/2/5 3/5/6 11/6/7 10/3/8
f 3/5/9 4/7/10 12/8/11 11/6/12
f 4/7/13 5/9/14 13/10/15 12/8/16
f 5/9/17 6/11/18 14/12/19 13/10/20
f 14/12/21 6/11/22 7/13/23 15/14/24
f 7/13/25 8/15/26 16/16/27 15/14/28
f 8/15/29 1/17/30 9/18/31 16/16/32
f 2/19/33 1/20/34 17/21/35
f 3/22/36 2/19/37 17/21/38
f 4/23/39 3/22/40 17/21/41
f 5/24/42 4/23/43 17/21/44
f 6/25/45 5/24/46 17/21/47
f 7/26/48 6/25/49 17/21/50
f 8/27/51 7/26/52 17/21/53
f 1/20/54 8/27/55 17/21/56
