# This file uses meters as units for non-parametric coordinates.

v 3.542228 38.208371 0.000000
v 3.272593 38.208371 -1.355550
v 3.272593 39.248319 -1.355550
v 3.542228 39.248319 0.000000
v 3.272593 38.208371 1.355551
v 3.272593 39.248319 1.355551
v 2.504733 38.208371 2.504734
v 2.504733 39.248319 2.504734
v 1.355551 38.208371 3.272594
v 1.355551 39.248319 3.272594
v -0.000001 38.208371 3.542228
v -0.000001 39.248319 3.542228
v -1.355553 38.208371 3.272594
v -1.355553 39.248319 3.272594
v -2.504734 38.208371 2.504733
v -2.504734 39.248319 2.504733
v -3.272593 38.208371 1.355551
v -3.272593 39.248319 1.355551
v -3.542228 38.208371 -0.000001
v -3.542228 39.248319 -0.000001
v -3.272593 38.208371 -1.355553
v -3.272593 39.248319 -1.355553
v -2.504732 38.208371 -2.504734
v -2.504732 39.248319 -2.504734
v -1.355550 38.208371 -3.272593
v -1.355550 39.248319 -3.272593
v 0.000002 38.208371 -3.542228
v 0.000002 39.248319 -3.542228
v 1.355554 38.208371 -3.272592
v 1.355554 39.248319 -3.272592
v 2.504735 38.208371 -2.504732
v 2.504735 39.248319 -2.504732
v 3.344827 38.333196 -1.385470
v 3.620413 38.333196 0.000000
v 3.344827 39.123494 -1.385470
v 3.620413 39.123494 0.000000
v 3.344827 38.333196 1.385471
v 3.344827 39.123494 1.385471
v 2.560018 38.333196 2.560019
v 2.560018 39.123494 2.560019
v 1.385471 38.333196 3.344827
v 1.385471 39.123494 3.344827
v -0.000000 38.333196 3.620413
v -0.000000 39.123494 3.620413
v -1.385473 38.333196 3.344827
v -1.385473 39.123494 3.344827
v -2.560019 38.333196 2.560018
v -2.560019 39.123494 2.560018
v -3.344827 38.333196 1.385471
v -3.344827 39.123494 1.385471
v -3.620413 38.333196 -0.000001
v -3.620413 39.123494 -0.000001
v -3.344827 38.333196 -1.385473
v -3.344827 39.123494 -1.385473
v -2.560017 38.333196 -2.560019
v -2.560017 39.123494 -2.560019
v -1.385470 38.333196 -3.344826
v -1.385470 39.123494 -3.344826
v 0.000002 38.333196 -3.620412
v 0.000002 39.123494 -3.620412
v 1.385474 38.333196 -3.344826
v 1.385474 39.123494 -3.344826
v 2.560019 38.333196 -2.560017
v 2.560019 39.123494 -2.560017
vt 0.857381 0.737455
vt 0.864051 0.737455
vt 0.864051 0.740322
vt 0.857381 0.740322
vt 0.850712 0.737455
vt 0.850712 0.740322
vt 0.844043 0.737455
vt 0.844043 0.740322
vt 0.837374 0.737455
vt 0.837374 0.740322
vt 0.830704 0.737455
vt 0.830704 0.740322
vt 0.824035 0.737455
vt 0.824035 0.740322
vt 0.817366 0.737455
vt 0.817366 0.740322
vt 0.810697 0.737455
vt 0.810697 0.740322
vt 0.804027 0.737455
vt 0.804027 0.740322
vt 0.797358 0.737455
vt 0.797358 0.740322
vt 0.790689 0.737455
vt 0.790689 0.740322
vt 0.784020 0.737455
vt 0.784020 0.740322
vt 0.777350 0.737455
vt 0.777350 0.740322
vt 0.770681 0.737455
vt 0.770681 0.740322
vt 0.764012 0.737455
vt 0.764012 0.740322
vt 0.757343 0.737455
vt 0.757343 0.740322
vt 0.857381 0.737455
vt 0.864051 0.737455
vt 0.864051 0.740322
vt 0.857381 0.740322
vt 0.850712 0.737455
vt 0.850712 0.740322
vt 0.844043 0.737455
vt 0.844043 0.740322
vt 0.837374 0.737455
vt 0.837374 0.740322
vt 0.830704 0.737455
vt 0.830704 0.740322
vt 0.824035 0.737455
vt 0.824035 0.740322
vt 0.817366 0.737455
vt 0.817366 0.740322
vt 0.810697 0.737455
vt 0.810697 0.740322
vt 0.804027 0.737455
vt 0.804027 0.740322
vt 0.797358 0.737455
vt 0.797358 0.740322
vt 0.790689 0.737455
vt 0.790689 0.740322
vt 0.784020 0.737455
vt 0.784020 0.740322
vt 0.777350 0.737455
vt 0.777350 0.740322
vt 0.770681 0.737455
vt 0.770681 0.740322
vt 0.764012 0.737455
vt 0.764012 0.740322
vt 0.757343 0.737455
vt 0.757343 0.740322
vt 0.857381 0.737455
vt 0.864051 0.737455
vt 0.864051 0.740322
vt 0.857381 0.740322
vt 0.850712 0.737455
vt 0.850712 0.740322
vt 0.844043 0.737455
vt 0.844043 0.740322
vt 0.837374 0.737455
vt 0.837374 0.740322
vt 0.830704 0.737455
vt 0.830704 0.740322
vt 0.824035 0.737455
vt 0.824035 0.740322
vt 0.817366 0.737455
vt 0.817366 0.740322
vt 0.810697 0.737455
vt 0.810697 0.740322
vt 0.804027 0.737455
vt 0.804027 0.740322
vt 0.797358 0.737455
vt 0.797358 0.740322
vt 0.790689 0.737455
vt 0.790689 0.740322
vt 0.784020 0.737455
vt 0.784020 0.740322
vt 0.777350 0.737455
vt 0.777350 0.740322
vt 0.770681 0.737455
vt 0.770681 0.740322
vt 0.764012 0.737455
vt 0.764012 0.740322
vt 0.757343 0.737455
vt 0.757343 0.740322
vn 1.000000 0.000000 0.000000
vn 0.923880 0.000000 -0.382682
vn 0.923880 0.000000 -0.382682
vn 1.000000 0.000000 0.000000
vn 0.923880 0.000000 0.382682
vn 0.923880 0.000000 0.382682
vn 0.707105 0.000000 0.707109
vn 0.707105 0.000000 0.707109
vn 0.382683 0.000000 0.923880
vn 0.382683 0.000000 0.923880
vn -0.000000 0.000000 1.000000
vn -0.000000 0.000000 1.000000
vn -0.382684 0.000000 0.923879
vn -0.382684 0.000000 0.923879
vn -0.707108 0.000000 0.707105
vn -0.707108 0.000000 0.707105
vn -0.923880 0.000000 0.382682
vn -0.923880 0.000000 0.382682
vn -1.000000 -0.000000 0.000000
vn -1.000000 -0.000000 0.000000
vn -0.923879 -0.000000 -0.382685
vn -0.923879 -0.000000 -0.382685
vn -0.707102 0.000000 -0.707111
vn -0.707102 0.000000 -0.707111
vn -0.382681 0.000000 -0.923881
vn -0.382681 0.000000 -0.923881
vn 0.000000 0.000000 -1.000000
vn 0.000000 0.000000 -1.000000
vn 0.382684 0.000000 -0.923879
vn 0.382684 0.000000 -0.923879
vn 0.707108 0.000000 -0.707105
vn 0.707108 0.000000 -0.707105
vn -1.000000 0.000000 0.000000
vn -1.000000 0.000000 0.000000
vn -0.923880 0.000000 0.382682
vn -0.923880 0.000000 0.382682
vn -0.923880 0.000000 -0.382682
vn -0.923880 0.000000 -0.382682
vn -0.707106 0.000000 -0.707108
vn -0.707106 0.000000 -0.707108
vn -0.382683 -0.000000 -0.923880
vn -0.382683 -0.000000 -0.923880
vn 0.000000 -0.000000 -1.000000
vn 0.000000 -0.000000 -1.000000
vn 0.382683 0.000000 -0.923880
vn 0.382683 0.000000 -0.923880
vn 0.707107 0.000000 -0.707106
vn 0.707107 0.000000 -0.707106
vn 0.923879 0.000000 -0.382684
vn 0.923879 0.000000 -0.382684
vn 1.000000 -0.000000 0.000000
vn 1.000000 -0.000000 0.000000
vn 0.923879 -0.000000 0.382684
vn 0.923879 -0.000000 0.382684
vn 0.707104 0.000000 0.707110
vn 0.707104 0.000000 0.707110
vn 0.382680 0.000000 0.923881
vn 0.382680 0.000000 0.923881
vn -0.000000 0.000000 1.000000
vn -0.000000 0.000000 1.000000
vn -0.382683 0.000000 0.923880
vn -0.382683 0.000000 0.923880
vn -0.707108 0.000000 0.707105
vn -0.707108 0.000000 0.707105
vn 0.847481 -0.530826 0.000002
vn 0.782970 -0.530825 -0.324319
vn 0.782970 -0.530825 -0.324319
vn 0.847481 -0.530826 0.000002
vn 0.782974 0.530828 -0.324306
vn 0.847481 0.530825 -0.000000
vn 0.847481 0.530826 0.000000
vn 0.782974 0.530828 -0.324306
vn 0.782969 -0.530824 0.324324
vn 0.782969 -0.530824 0.324324
vn 0.782972 0.530826 0.324312
vn 0.782972 0.530826 0.324312
vn 0.599257 -0.530823 0.599264
vn 0.599257 -0.530824 0.599264
vn 0.599261 0.530827 0.599257
vn 0.599261 0.530827 0.599257
vn 0.324316 -0.530824 0.782972
vn 0.324316 -0.530824 0.782972
vn 0.324324 0.530834 0.782961
vn 0.324324 0.530834 0.782962
vn -0.000001 -0.530839 0.847473
vn -0.000000 -0.530839 0.847472
vn -0.000002 0.530815 0.847488
vn -0.000002 0.530815 0.847488
vn -0.324328 -0.530849 0.782950
vn -0.324328 -0.530849 0.782950
vn -0.324295 0.530801 0.782996
vn -0.324295 0.530801 0.782996
vn -0.599259 -0.530825 0.599260
vn -0.599259 -0.530825 0.599260
vn -0.599261 0.530823 0.599260
vn -0.599261 0.530823 0.599261
vn -0.782965 -0.530822 0.324335
vn -0.782965 -0.530822 0.324336
vn -0.782974 0.530827 0.324306
vn -0.782974 0.530827 0.324306
vn -0.847481 -0.530825 -0.000002
vn -0.847481 -0.530825 -0.000002
vn -0.847481 0.530826 -0.000000
vn -0.847481 0.530826 -0.000000
vn -0.782968 -0.530824 -0.324324
vn -0.782968 -0.530824 -0.324324
vn -0.782972 0.530827 -0.324312
vn -0.782972 0.530827 -0.324312
vn -0.599257 -0.530824 -0.599264
vn -0.599257 -0.530824 -0.599264
vn -0.599260 0.530827 -0.599257
vn -0.599260 0.530827 -0.599258
vn -0.324325 -0.530837 -0.782960
vn -0.324325 -0.530837 -0.782960
vn -0.324314 0.530819 -0.782976
vn -0.324314 0.530819 -0.782976
vn 0.000002 -0.530836 -0.847474
vn 0.000002 -0.530836 -0.847475
vn 0.000001 0.530812 -0.847490
vn 0.000001 0.530812 -0.847490
vn 0.324319 -0.530833 -0.782965
vn 0.324319 -0.530833 -0.782965
vn 0.324304 0.530813 -0.782984
vn 0.324304 0.530813 -0.782984
vn 0.599266 -0.530830 -0.599249
vn 0.599266 -0.530830 -0.599249
vn 0.599261 0.530823 -0.599260
vn 0.599261 0.530823 -0.599260
f 34/69/1 33/70/2 35/71/3 36/72/4
f 37/73/5 34/69/1 36/72/4 38/74/6
f 39/75/7 37/73/5 38/74/6 40/76/8
f 41/77/9 39/75/7 40/76/8 42/78/10
f 43/79/11 41/77/9 42/78/10 44/80/12
f 45/81/13 43/79/11 44/80/12 46/82/14
f 47/83/15 45/81/13 46/82/14 48/84/16
f 49/85/17 47/83/15 48/84/16 50/86/18
f 51/87/19 49/85/17 50/86/18 52/88/20
f 53/89/21 51/87/19 52/88/20 54/90/22
f 55/91/23 53/89/21 54/90/22 56/92/24
f 57/93/25 55/91/23 56/92/24 58/94/26
f 59/95/27 57/93/25 58/94/26 60/96/28
f 61/97/29 59/95/27 60/96/28 62/98/30
f 63/99/31 61/97/29 62/98/30 64/100/32
f 33/101/2 63/99/31 64/100/32 35/102/3
f 1/35/33 4/38/34 3/37/35 2/36/36
f 5/39/37 6/40/38 4/38/34 1/35/33
f 7/41/39 8/42/40 6/40/38 5/39/37
f 9/43/41 10/44/42 8/42/40 7/41/39
f 11/45/43 12/46/44 10/44/42 9/43/41
f 13/47/45 14/48/46 12/46/44 11/45/43
f 15/49/47 16/50/48 14/48/46 13/47/45
f 17/51/49 18/52/50 16/50/48 15/49/47
f 19/53/51 20/54/52 18/52/50 17/51/49
f 21/55/53 22/56/54 20/54/52 19/53/51
f 23/57/55 24/58/56 22/56/54 21/55/53
f 25/59/57 26/60/58 24/58/56 23/57/55
f 27/61/59 28/62/60 26/60/58 25/59/57
f 29/63/61 30/64/62 28/62/60 27/61/59
f 31/65/63 32/66/64 30/64/62 29/63/61
f 2/67/36 3/68/35 32/66/64 31/65/63
f 1/1/65 2/2/66 33/70/67 34/69/68
f 3/3/69 4/4/70 36/72/71 35/71/72
f 5/5/73 1/1/65 34/69/68 37/73/74
f 4/4/70 6/6/75 38/74/76 36/72/71
f 7/7/77 5/5/73 37/73/74 39/75/78
f 6/6/75 8/8/79 40/76/80 38/74/76
f 9/9/81 7/7/77 39/75/78 41/77/82
f 8/8/79 10/10/83 42/78/84 40/76/80
f 11/11/85 9/9/81 41/77/82 43/79/86
f 10/10/83 12/12/87 44/80/88 42/78/84
f 13/13/89 11/11/85 43/79/86 45/81/90
f 12/12/87 14/14/91 46/82/92 44/80/88
f 15/15/93 13/13/89 45/81/90 47/83/94
f 14/14/91 16/16/95 48/84/96 46/82/92
f 17/17/97 15/15/93 47/83/94 49/85/98
f 16/16/95 18/18/99 50/86/100 48/84/96
f 19/19/101 17/17/97 49/85/98 51/87/102
f 18/18/99 20/20/103 52/88/104 50/86/100
f 21/21/105 19/19/101 51/87/102 53/89/106
f 20/20/103 22/22/107 54/90/108 52/88/104
f 23/23/109 21/21/105 53/89/106 55/91/110
f 22/22/107 24/24/111 56/92/112 54/90/108
f 25/25/113 23/23/109 55/91/110 57/93/114
f 24/24/111 26/26/115 58/94/116 56/92/112
f 27/27/117 25/25/113 57/93/114 59/95/118
f 26/26/115 28/28/119 60/96/120 58/94/116
f 29/29/121 27/27/117 59/95/118 61/97/122
f 28/28/119 30/30/123 62/98/124 60/96/120
f 31/31/125 29/29/121 61/97/122 63/99/126
f 30/30/123 32/32/127 64/100/128 62/98/124
f 2/33/66 31/31/125 63/99/126 33/101/67
f 32/32/127 3/34/69 35/102/72 64/100/128
