# This file uses meters as units for non-parametric coordinates.

v -1.228270 22.674565 2.965305
v -2.269546 22.674565 2.269544
v -2.965306 22.674565 1.228268
v -3.209622 22.674565 -0.000001
v -2.965306 22.674565 -1.228270
v -2.269544 22.674565 -2.269546
v -1.228268 22.674565 -2.965305
v 0.000001 22.674565 -3.209621
v 1.228270 22.674565 -2.965304
v 2.269546 22.674565 -2.269544
v 2.965305 22.674565 -1.228267
v 3.209621 22.674565 0.000000
v 2.965305 22.674565 1.228269
v 2.269544 22.674565 2.269546
v 1.228268 22.674565 2.965306
v -0.000001 22.674565 3.209622
v -1.519051 32.682286 3.667310
v -2.806838 32.682286 2.806838
v -3.667311 32.682286 1.519048
v -3.969468 32.682286 -0.000001
v -3.667310 32.682286 -1.519051
v -2.806838 32.682286 -2.806839
v -1.519048 32.682286 -3.667310
v 0.000002 32.682286 -3.969467
v 1.519051 32.682286 -3.667309
v 2.806839 32.682286 -2.806836
v 3.667310 32.682286 -1.519047
v 3.969467 32.682286 0.000000
v 3.667309 32.682286 1.519050
v 2.806837 32.682286 2.806838
v 1.519048 32.682286 3.667310
v -0.000001 32.682286 3.969468
v -2.259964 41.424726 5.456032
v -4.175868 41.424726 4.175865
v -5.456033 41.424726 2.259961
v -5.905567 41.424726 -0.000003
v -5.456031 41.424726 -2.259965
v -4.175864 41.424726 -4.175869
v -2.259960 41.424726 -5.456034
v 0.000003 41.424726 -5.905568
v 2.259966 41.424726 -5.456031
v 4.175869 41.424726 -4.175864
v 5.456034 41.424726 -2.259960
v 5.905568 41.424726 -0.000000
v 5.456032 41.424726 2.259962
v 4.175867 41.424726 4.175867
v 2.259962 41.424726 5.456032
v -0.000001 41.424726 5.905567
v 5.100416 44.606938 -2.112657
v 3.903690 44.606938 -3.903685
v 2.112663 44.606938 -5.100412
v 0.000003 44.606938 -5.520648
v -2.112659 44.606938 -5.100414
v -3.903687 44.606938 -3.903688
v -5.100414 44.606938 -2.112661
v -5.520648 44.606938 -0.000000
v -5.100415 44.606938 2.112660
v -3.903689 44.606938 3.903687
v -2.112662 44.606938 5.100415
v -0.000001 44.606938 5.520649
v 2.112660 44.606938 5.100415
v 3.903687 44.606938 3.903689
v 5.100414 44.606938 2.112661
v 5.520648 44.606938 0.000001
v -1.031011 22.674565 2.489080
v -1.905059 22.674565 1.905058
v -2.489080 22.674565 1.031009
v -2.694160 22.674565 -0.000001
v -2.489080 22.674565 -1.031011
v -1.905058 22.674565 -1.905058
v -1.031009 22.674565 -2.489079
v 0.000001 22.674565 -2.694159
v 1.031011 22.674565 -2.489079
v 1.905058 22.674565 -1.905057
v 2.489079 22.674565 -1.031008
v 2.694159 22.674565 0.000000
v 2.489079 22.674565 1.031010
v 1.905057 22.674565 1.905058
v 1.031009 22.674565 2.489080
v -0.000001 22.674565 2.694160
v -1.323176 32.746312 3.194426
v -2.444909 32.746327 2.444908
v -3.194427 32.746327 1.323173
v -3.457623 32.746327 -0.000001
v -3.194426 32.746327 -1.323176
v -2.444908 32.746327 -2.444909
v -1.323174 32.746327 -3.194426
v 0.000001 32.746327 -3.457621
v 1.323176 32.746327 -3.194425
v 2.444909 32.746327 -2.444907
v 3.194426 32.746327 -1.323172
v 3.457622 32.746327 -0.000000
v 3.194425 32.746327 1.323175
v 2.444907 32.746327 2.444908
v 1.323173 32.746327 3.194426
v -0.000001 32.746327 3.457622
v 5.456033 44.606954 -2.259960
v 4.175869 44.606954 -4.175864
v 2.259965 44.606954 -5.456031
v 0.000003 44.606954 -5.905567
v -2.259961 44.606954 -5.456034
v -4.175865 44.606954 -4.175869
v -5.456032 44.606954 -2.259965
v -5.905568 44.606954 -0.000002
v -5.456033 44.606954 2.259961
v -4.175868 44.606954 4.175866
v -2.259964 44.606954 5.456032
v -0.000001 44.606954 5.905568
v 2.259962 44.606954 5.456033
v 4.175866 44.606954 4.175867
v 5.456032 44.606954 2.259963
v 5.905568 44.606954 -0.000000
v -0.000000 0.608502 0.000000
v -1.519051 12.666837 3.667310
v -2.806838 12.666837 2.806838
v -3.667311 12.666837 1.519048
v -3.969468 12.666837 -0.000001
v -3.667310 12.666837 -1.519051
v -2.806838 12.666837 -2.806839
v -1.519048 12.666837 -3.667310
v 0.000002 12.666837 -3.969467
v 1.519051 12.666837 -3.667309
v 2.806839 12.666837 -2.806836
v 3.667310 12.666837 -1.519047
v 3.969467 12.666837 0.000000
v 3.667309 12.666837 1.519050
v 2.806837 12.666837 2.806838
v 1.519048 12.666837 3.667310
v -0.000001 12.666837 3.969468
v -2.259964 3.924420 5.456032
v -4.175868 3.924420 4.175865
v -5.456033 3.924420 2.259961
v -5.905567 3.924420 -0.000003
v -5.456031 3.924420 -2.259965
v -4.175864 3.924420 -4.175869
v -2.259960 3.924420 -5.456034
v 0.000003 3.924420 -5.905568
v 2.259966 3.924420 -5.456031
v 4.175869 3.924420 -4.175864
v 5.456034 3.924420 -2.259960
v 5.905568 3.924420 -0.000000
v 5.456032 3.924420 2.259962
v 4.175867 3.924420 4.175867
v 2.259962 3.924420 5.456032
v -0.000001 3.924420 5.905567
v 5.100416 0.951902 -2.112658
v 3.903690 0.951902 -3.903686
v 3.812432 1.456082 -3.812428
v 4.981182 1.456082 -2.063269
v 2.112663 0.951902 -5.100413
v 2.063275 1.456082 -4.981179
v 0.000002 0.951902 -5.520648
v 0.000003 1.456082 -5.391590
v -2.112659 0.951902 -5.100415
v -2.063270 1.456082 -4.981181
v -3.903687 0.951902 -3.903689
v -3.812428 1.456082 -3.812433
v -5.100414 0.951902 -2.112662
v -4.981179 1.456082 -2.063275
v -5.520648 0.951902 -0.000001
v -5.391590 1.456082 -0.000002
v -5.100415 0.951902 2.112659
v -4.981181 1.456082 2.063271
v -3.903689 0.951902 3.903687
v -3.812431 1.456082 3.812429
v -2.112662 0.951902 5.100414
v -2.063273 1.456082 4.981179
v -0.000001 0.951902 5.520648
v -0.000000 1.456082 5.391590
v 2.112660 0.951902 5.100414
v 2.063272 1.456082 4.981180
v 3.903687 0.951902 3.903688
v 3.812431 1.456082 3.812431
v 5.100414 0.951902 2.112660
v 4.981179 1.456082 2.063272
v 5.520648 0.951902 -0.000000
v 5.391590 1.456082 -0.000001
v -0.000000 1.124333 -0.000000
v -1.323176 12.602803 3.194426
v -2.444909 12.602803 2.444908
v -3.194427 12.602803 1.323173
v -3.457623 12.602803 -0.000001
v -3.194426 12.602803 -1.323176
v -2.444908 12.602803 -2.444909
v -1.323174 12.602803 -3.194426
v 0.000001 12.602803 -3.457621
v 1.323176 12.602803 -3.194425
v 2.444909 12.602803 -2.444907
v 3.194426 12.602803 -1.323172
v 3.457622 12.602803 -0.000000
v 3.194425 12.602803 1.323175
v 2.444907 12.602803 2.444908
v 1.323173 12.602803 3.194426
v -0.000001 12.602803 3.457622
v 5.456033 0.742192 -2.259960
v 5.330101 0.608502 -2.207797
v 4.175869 0.742192 -4.175864
v 4.079484 0.608502 -4.079480
v 2.259965 0.742192 -5.456031
v 2.207803 0.608502 -5.330100
v 0.000003 0.742192 -5.905567
v 0.000002 0.608502 -5.769259
v -2.259961 0.742192 -5.456034
v -2.207798 0.608502 -5.330102
v -4.175865 0.742192 -4.175869
v -4.079481 0.608502 -4.079484
v -5.456032 0.742192 -2.259965
v -5.330101 0.608502 -2.207802
v -5.905568 0.742192 -0.000002
v -5.769259 0.608502 -0.000002
v -5.456033 0.742192 2.259961
v -5.330102 0.608502 2.207798
v -4.175868 0.742192 4.175866
v -4.079484 0.608502 4.079482
v -2.259964 0.742192 5.456032
v -2.207802 0.608502 5.330101
v -0.000001 0.742192 5.905568
v -0.000001 0.608502 5.769260
v 2.259962 0.742192 5.456033
v 2.207799 0.608502 5.330101
v 4.175866 0.742192 4.175867
v 4.079482 0.608502 4.079483
v 5.456032 0.742192 2.259963
v 5.330101 0.608502 2.207800
v 5.905568 0.742192 -0.000000
v 5.769260 0.608502 -0.000000
vt 0.882343 0.510761
vt 0.889012 0.510761
vt 0.889012 0.547448
vt 0.882343 0.547448
vt 0.895681 0.510761
vt 0.895681 0.547448
vt 0.902350 0.510761
vt 0.902350 0.547448
vt 0.909020 0.510761
vt 0.909020 0.547448
vt 0.915689 0.510761
vt 0.915689 0.547448
vt 0.922358 0.510761
vt 0.922358 0.547448
vt 0.929027 0.510761
vt 0.929027 0.547448
vt 0.935697 0.510761
vt 0.935697 0.547448
vt 0.942366 0.510761
vt 0.942366 0.547448
vt 0.949035 0.510761
vt 0.949035 0.547448
vt 0.955704 0.510761
vt 0.955704 0.547448
vt 0.962374 0.510761
vt 0.962374 0.547448
vt 0.969043 0.510761
vt 0.969043 0.547448
vt 0.975712 0.510761
vt 0.975712 0.547448
vt 0.982381 0.510761
vt 0.982381 0.547448
vt 0.989051 0.510761
vt 0.989051 0.547448
vt 0.949035 0.577896
vt 0.942366 0.577896
vt 0.935697 0.577896
vt 0.929027 0.577896
vt 0.922358 0.577896
vt 0.915689 0.577896
vt 0.909020 0.577896
vt 0.902350 0.577896
vt 0.895681 0.577896
vt 0.889012 0.577896
vt 0.882343 0.577896
vt 0.989051 0.577896
vt 0.982381 0.577896
vt 0.975712 0.577896
vt 0.969043 0.577896
vt 0.962374 0.577896
vt 0.955704 0.577896
vt 0.942366 0.547448
vt 0.942366 0.577896
vt 0.949035 0.577896
vt 0.949035 0.547448
vt 0.935697 0.547448
vt 0.935697 0.577896
vt 0.929027 0.547448
vt 0.929027 0.577896
vt 0.922358 0.547448
vt 0.922358 0.577896
vt 0.915689 0.547448
vt 0.915689 0.577896
vt 0.909020 0.547448
vt 0.909020 0.577896
vt 0.902350 0.547448
vt 0.902350 0.577896
vt 0.895681 0.547448
vt 0.895681 0.577896
vt 0.889012 0.547448
vt 0.889012 0.577896
vt 0.882343 0.547448
vt 0.882343 0.577896
vt 0.982381 0.547448
vt 0.982381 0.577896
vt 0.989051 0.577896
vt 0.989051 0.547448
vt 0.975712 0.547448
vt 0.975712 0.577896
vt 0.969043 0.547448
vt 0.969043 0.577896
vt 0.962374 0.547448
vt 0.962374 0.577896
vt 0.955704 0.547448
vt 0.955704 0.577896
vt 0.942366 0.512226
vt 0.949035 0.512226
vt 0.935697 0.512226
vt 0.929027 0.512226
vt 0.922358 0.512226
vt 0.915689 0.512226
vt 0.909020 0.512226
vt 0.902350 0.512226
vt 0.895681 0.512226
vt 0.889012 0.512226
vt 0.882343 0.512226
vt 0.982381 0.512226
vt 0.989051 0.512226
vt 0.975712 0.512226
vt 0.969043 0.512226
vt 0.962374 0.512226
vt 0.955704 0.512226
vt 0.882343 0.510980
vt 0.889012 0.510980
vt 0.895681 0.510980
vt 0.902350 0.510980
vt 0.909020 0.510980
vt 0.915689 0.510980
vt 0.922358 0.510980
vt 0.929027 0.510980
vt 0.935697 0.510980
vt 0.942366 0.510980
vt 0.949035 0.510980
vt 0.955704 0.510980
vt 0.962374 0.510980
vt 0.969043 0.510980
vt 0.975712 0.510980
vt 0.982381 0.510980
vt 0.989051 0.510980
vt 0.882343 0.510761
vt 0.882343 0.512226
vt 0.889012 0.512226
vt 0.889012 0.510761
vt 0.895681 0.512226
vt 0.895681 0.510761
vt 0.902350 0.512226
vt 0.902350 0.510761
vt 0.909020 0.512226
vt 0.909020 0.510761
vt 0.915689 0.512226
vt 0.915689 0.510761
vt 0.922358 0.512226
vt 0.922358 0.510761
vt 0.929027 0.512226
vt 0.929027 0.510761
vt 0.935697 0.512226
vt 0.935697 0.510761
vt 0.942366 0.512226
vt 0.942366 0.510761
vt 0.949035 0.512226
vt 0.949035 0.510761
vt 0.955704 0.512226
vt 0.955704 0.510761
vt 0.962374 0.512226
vt 0.962374 0.510761
vt 0.969043 0.512226
vt 0.969043 0.510761
vt 0.975712 0.512226
vt 0.975712 0.510761
vt 0.982381 0.512226
vt 0.982381 0.510761
vt 0.989051 0.512226
vt 0.989051 0.510761
vt 0.965857 0.531558
vt 0.932440 0.563085
vt 0.976102 0.546889
vt 0.950525 0.521313
vt 0.932440 0.517715
vt 0.914354 0.521313
vt 0.899022 0.531557
vt 0.888778 0.546890
vt 0.885180 0.564975
vt 0.888778 0.583060
vt 0.899022 0.598392
vt 0.914354 0.608637
vt 0.932440 0.612234
vt 0.950525 0.608637
vt 0.965857 0.598393
vt 0.976102 0.583060
vt 0.979699 0.564975
vt 0.942366 0.547448
vt 0.942366 0.577896
vt 0.949035 0.577896
vt 0.949035 0.547448
vt 0.935697 0.547448
vt 0.935697 0.577896
vt 0.929027 0.547448
vt 0.929027 0.577896
vt 0.922358 0.547448
vt 0.922358 0.577896
vt 0.915689 0.547448
vt 0.915689 0.577896
vt 0.909020 0.547448
vt 0.909020 0.577896
vt 0.902350 0.547448
vt 0.902350 0.577896
vt 0.895681 0.547448
vt 0.895681 0.577896
vt 0.889012 0.547448
vt 0.889012 0.577896
vt 0.882343 0.547448
vt 0.882343 0.577896
vt 0.982381 0.547448
vt 0.982381 0.577896
vt 0.989051 0.577896
vt 0.989051 0.547448
vt 0.975712 0.547448
vt 0.975712 0.577896
vt 0.969043 0.547448
vt 0.969043 0.577896
vt 0.962374 0.547448
vt 0.962374 0.577896
vt 0.955704 0.547448
vt 0.955704 0.577896
vt 0.942366 0.547448
vt 0.949035 0.547448
vt 0.949035 0.577896
vt 0.942366 0.577896
vt 0.935697 0.547448
vt 0.935697 0.577896
vt 0.929027 0.547448
vt 0.929027 0.577896
vt 0.922358 0.547448
vt 0.922358 0.577896
vt 0.915689 0.547448
vt 0.915689 0.577896
vt 0.909020 0.547448
vt 0.909020 0.577896
vt 0.902350 0.547448
vt 0.902350 0.577896
vt 0.895681 0.547448
vt 0.895681 0.577896
vt 0.889012 0.547448
vt 0.889012 0.577896
vt 0.882343 0.547448
vt 0.882343 0.577896
vt 0.982381 0.547448
vt 0.989051 0.547448
vt 0.989051 0.577896
vt 0.982381 0.577896
vt 0.975712 0.547448
vt 0.975712 0.577896
vt 0.969043 0.547448
vt 0.969043 0.577896
vt 0.962374 0.547448
vt 0.962374 0.577896
vt 0.955704 0.547448
vt 0.955704 0.577896
vt 0.942366 0.512226
vt 0.949035 0.512226
vt 0.935697 0.512226
vt 0.929027 0.512226
vt 0.922358 0.512226
vt 0.915689 0.512226
vt 0.909020 0.512226
vt 0.902350 0.512226
vt 0.895681 0.512226
vt 0.889012 0.512226
vt 0.882343 0.512226
vt 0.982381 0.512226
vt 0.989051 0.512226
vt 0.975712 0.512226
vt 0.969043 0.512226
vt 0.962374 0.512226
vt 0.955704 0.512226
vt 0.882343 0.510980
vt 0.882419 0.510761
vt 0.888935 0.510761
vt 0.889012 0.510980
vt 0.988974 0.510761
vt 0.989051 0.510980
vt 0.982381 0.510980
vt 0.982458 0.510761
vt 0.889089 0.510761
vt 0.895604 0.510761
vt 0.895681 0.510980
vt 0.895758 0.510761
vt 0.902274 0.510761
vt 0.902350 0.510980
vt 0.902427 0.510761
vt 0.908943 0.510761
vt 0.909020 0.510980
vt 0.909097 0.510761
vt 0.915612 0.510761
vt 0.915689 0.510980
vt 0.915766 0.510761
vt 0.922281 0.510761
vt 0.922358 0.510980
vt 0.922435 0.510761
vt 0.928950 0.510761
vt 0.929027 0.510980
vt 0.929104 0.510761
vt 0.935620 0.510761
vt 0.935697 0.510980
vt 0.935774 0.510761
vt 0.942289 0.510761
vt 0.942366 0.510980
vt 0.942443 0.510761
vt 0.948958 0.510761
vt 0.949035 0.510980
vt 0.949112 0.510761
vt 0.955628 0.510761
vt 0.955704 0.510980
vt 0.955781 0.510761
vt 0.962297 0.510761
vt 0.962374 0.510980
vt 0.962451 0.510761
vt 0.968966 0.510761
vt 0.969043 0.510980
vt 0.969120 0.510761
vt 0.975635 0.510761
vt 0.975712 0.510980
vt 0.975789 0.510761
vt 0.982304 0.510761
vt 0.965086 0.532285
vt 0.975094 0.547263
vt 0.932440 0.563085
vt 0.950108 0.522277
vt 0.932440 0.518763
vt 0.914772 0.522277
vt 0.899793 0.532285
vt 0.889785 0.547263
vt 0.886271 0.564931
vt 0.889785 0.582599
vt 0.899794 0.597578
vt 0.914772 0.607586
vt 0.932440 0.611100
vt 0.950108 0.607585
vt 0.965086 0.597577
vt 0.975094 0.582599
vt 0.978609 0.564931
vn -0.910213 0.171366 0.377022
vn -0.696647 0.171366 0.696646
vn -0.700418 0.137224 0.700417
vn -0.915140 0.137224 0.379063
vn -0.377023 0.171366 0.910213
vn -0.379064 0.137224 0.915140
vn -0.000000 0.171366 0.985207
vn -0.000000 0.137224 0.990540
vn 0.377022 0.171366 0.910213
vn 0.379063 0.137224 0.915140
vn 0.696646 0.171366 0.696648
vn 0.700417 0.137224 0.700418
vn 0.910213 0.171366 0.377023
vn 0.915139 0.137224 0.379064
vn 0.985207 0.171366 0.000000
vn 0.990540 0.137224 0.000000
vn 0.910213 0.171366 -0.377022
vn 0.915140 0.137224 -0.379063
vn 0.696647 0.171366 -0.696647
vn 0.700418 0.137225 -0.700417
vn 0.377022 0.171366 -0.910213
vn 0.379063 0.137224 -0.915140
vn -0.000000 0.171366 -0.985207
vn -0.000000 0.137225 -0.990540
vn -0.377022 0.171366 -0.910213
vn -0.379063 0.137224 -0.915140
vn -0.696647 0.171366 -0.696647
vn -0.700418 0.137224 -0.700418
vn -0.910213 0.171366 -0.377023
vn -0.915140 0.137224 -0.379063
vn -0.985207 0.171366 -0.000000
vn -0.990540 0.137224 -0.000000
vn 0.381589 0.075585 -0.921237
vn 0.705085 0.075585 -0.705083
vn 0.921237 0.075585 -0.381589
vn 0.997139 0.075585 0.000000
vn 0.921237 0.075585 0.381589
vn 0.705083 0.075585 0.705085
vn 0.381588 0.075585 0.921237
vn -0.000000 0.075585 0.997139
vn -0.381589 0.075585 0.921236
vn -0.705085 0.075585 0.705083
vn -0.921237 0.075585 0.381589
vn -0.997139 0.075585 -0.000000
vn -0.921237 0.075585 -0.381589
vn -0.705084 0.075585 -0.705084
vn -0.381589 0.075585 -0.921237
vn -0.000000 0.075585 -0.997139
vn -0.698587 -0.154764 0.698587
vn -0.705078 -0.075708 0.705077
vn -0.381586 -0.075708 0.921228
vn -0.378073 -0.154764 0.912748
vn -0.912748 -0.154764 0.378073
vn -0.921228 -0.075708 0.381585
vn -0.987952 -0.154764 -0.000000
vn -0.997130 -0.075708 -0.000000
vn -0.912748 -0.154764 -0.378073
vn -0.921228 -0.075708 -0.381585
vn -0.698587 -0.154764 -0.698588
vn -0.705077 -0.075708 -0.705078
vn -0.378072 -0.154764 -0.912748
vn -0.381585 -0.075708 -0.921228
vn 0.000000 -0.154764 -0.987951
vn 0.000000 -0.075708 -0.997130
vn 0.378073 -0.154764 -0.912748
vn 0.381585 -0.075708 -0.921228
vn 0.698588 -0.154764 -0.698587
vn 0.705078 -0.075708 -0.705077
vn 0.912748 -0.154764 -0.378072
vn 0.921228 -0.075708 -0.381585
vn 0.987951 -0.154764 0.000000
vn 0.997130 -0.075708 0.000000
vn 0.912748 -0.154764 0.378073
vn 0.921228 -0.075708 0.381585
vn 0.698587 -0.154764 0.698587
vn 0.705078 -0.075708 0.705077
vn 0.378073 -0.154764 0.912748
vn 0.381585 -0.075708 0.921228
vn -0.000000 -0.154764 0.987952
vn -0.000000 -0.075708 0.997130
vn -0.698972 -0.151247 0.698972
vn -0.378281 -0.151247 0.913251
vn -0.913251 -0.151247 0.378281
vn -0.988496 -0.151247 -0.000000
vn -0.913251 -0.151247 -0.378282
vn -0.698972 -0.151247 -0.698973
vn -0.378281 -0.151247 -0.913251
vn 0.000000 -0.151247 -0.988496
vn 0.378282 -0.151247 -0.913251
vn 0.698973 -0.151247 -0.698971
vn 0.913251 -0.151247 -0.378281
vn 0.988496 -0.151247 0.000000
vn 0.913251 -0.151247 0.378281
vn 0.698972 -0.151247 0.698972
vn 0.378281 -0.151247 0.913251
vn -0.000000 -0.151247 0.988496
vn 0.923880 0.000000 -0.382683
vn 0.707107 0.000000 -0.707106
vn 0.382684 0.000000 -0.923880
vn 0.000000 0.000000 -1.000000
vn -0.382684 0.000000 -0.923879
vn -0.707106 -0.000000 -0.707107
vn -0.923879 -0.000000 -0.382684
vn -1.000000 -0.000000 -0.000000
vn -0.923880 -0.000000 0.382683
vn -0.707107 -0.000000 0.707106
vn -0.382684 -0.000000 0.923879
vn -0.000000 -0.000000 1.000000
vn 0.382683 -0.000000 0.923880
vn 0.707107 0.000000 0.707107
vn 0.923880 0.000000 0.382683
vn 1.000000 0.000000 0.000000
vn -0.895022 -0.247981 0.370732
vn -0.909570 -0.175319 0.376756
vn -0.696155 -0.175319 0.696155
vn -0.685019 -0.247981 0.685022
vn -0.376757 -0.175319 0.909570
vn -0.370730 -0.247981 0.895022
vn -0.000000 -0.175319 0.984512
vn -0.000001 -0.247981 0.968765
vn 0.376756 -0.175319 0.909571
vn 0.370728 -0.247979 0.895024
vn 0.696154 -0.175319 0.696155
vn 0.685019 -0.247979 0.685022
vn 0.909570 -0.175319 0.376757
vn 0.895022 -0.247981 0.370731
vn 0.984512 -0.175319 0.000001
vn 0.968765 -0.247980 0.000001
vn 0.909570 -0.175319 -0.376756
vn 0.895023 -0.247979 -0.370730
vn 0.696155 -0.175319 -0.696155
vn 0.685022 -0.247981 -0.685019
vn 0.376757 -0.175319 -0.909570
vn 0.370733 -0.247983 -0.895020
vn -0.000000 -0.175319 -0.984512
vn 0.000001 -0.247982 -0.968765
vn -0.376756 -0.175319 -0.909570
vn -0.370731 -0.247980 -0.895022
vn -0.696155 -0.175319 -0.696155
vn -0.685020 -0.247979 -0.685021
vn -0.909570 -0.175319 -0.376756
vn -0.895021 -0.247980 -0.370734
vn -0.984512 -0.175319 -0.000001
vn -0.968765 -0.247981 -0.000000
vn 0.022075 0.999513 -0.022077
vn -0.000000 1.000000 -0.000000
vn 0.028842 0.999513 -0.011947
vn 0.011947 0.999513 -0.028843
vn 0.000000 0.999513 -0.031220
vn -0.011947 0.999513 -0.028845
vn -0.022075 0.999513 -0.022076
vn -0.028842 0.999513 -0.011947
vn -0.031219 0.999513 0.000002
vn -0.028842 0.999513 0.011948
vn -0.022075 0.999513 0.022074
vn -0.011947 0.999513 0.028843
vn -0.000000 0.999513 0.031220
vn 0.011947 0.999513 0.028844
vn 0.022075 0.999513 0.022074
vn 0.028842 0.999513 0.011946
vn 0.031219 0.999513 0.000002
vn 0.700609 -0.135257 -0.700609
vn 0.705084 -0.075585 -0.705084
vn 0.381589 -0.075585 -0.921237
vn 0.379167 -0.135257 -0.915390
vn 0.915390 -0.135257 -0.379167
vn 0.921237 -0.075585 -0.381589
vn 0.990811 -0.135257 0.000000
vn 0.997139 -0.075585 -0.000000
vn 0.915390 -0.135257 0.379167
vn 0.921237 -0.075585 0.381589
vn 0.700608 -0.135257 0.700609
vn 0.705083 -0.075585 0.705085
vn 0.379166 -0.135257 0.915390
vn 0.381588 -0.075585 0.921237
vn -0.000000 -0.135257 0.990811
vn -0.000000 -0.075585 0.997139
vn -0.379167 -0.135257 0.915389
vn -0.381589 -0.075585 0.921236
vn -0.700609 -0.135257 0.700608
vn -0.705085 -0.075585 0.705084
vn -0.915390 -0.135257 0.379167
vn -0.921237 -0.075585 0.381589
vn -0.990811 -0.135257 -0.000000
vn -0.997139 -0.075585 -0.000000
vn -0.915390 -0.135257 -0.379167
vn -0.921237 -0.075585 -0.381589
vn -0.700609 -0.135257 -0.700609
vn -0.705084 -0.075585 -0.705084
vn -0.379167 -0.135257 -0.915390
vn -0.381589 -0.075585 -0.921237
vn -0.000000 -0.135257 -0.990811
vn -0.000000 -0.075585 -0.997139
vn -0.698587 0.154764 0.698587
vn -0.378073 0.154764 0.912748
vn -0.381585 0.075708 0.921228
vn -0.705078 0.075708 0.705077
vn -0.912748 0.154764 0.378073
vn -0.921228 0.075708 0.381585
vn -0.987951 0.154764 -0.000000
vn -0.997130 0.075708 -0.000000
vn -0.912748 0.154764 -0.378073
vn -0.921228 0.075708 -0.381586
vn -0.698587 0.154764 -0.698588
vn -0.705077 0.075708 -0.705078
vn -0.378072 0.154764 -0.912748
vn -0.381584 0.075708 -0.921228
vn 0.000000 0.154764 -0.987951
vn 0.000000 0.075708 -0.997130
vn 0.378073 0.154764 -0.912748
vn 0.381586 0.075708 -0.921228
vn 0.698588 0.154765 -0.698586
vn 0.705078 0.075708 -0.705077
vn 0.912748 0.154764 -0.378072
vn 0.921228 0.075708 -0.381585
vn 0.987951 0.154764 0.000000
vn 0.997130 0.075708 0.000000
vn 0.912748 0.154764 0.378073
vn 0.921228 0.075708 0.381585
vn 0.698587 0.154764 0.698587
vn 0.705077 0.075708 0.705077
vn 0.378072 0.154764 0.912748
vn 0.381585 0.075708 0.921228
vn -0.000000 0.154764 0.987951
vn -0.000000 0.075708 0.997130
vn -0.698972 0.151247 0.698972
vn -0.378281 0.151247 0.913251
vn -0.913251 0.151247 0.378281
vn -0.988496 0.151247 -0.000000
vn -0.913251 0.151247 -0.378282
vn -0.698972 0.151247 -0.698973
vn -0.378281 0.151247 -0.913251
vn 0.000001 0.151247 -0.988496
vn 0.378282 0.151247 -0.913251
vn 0.698973 0.151247 -0.698971
vn 0.913251 0.151247 -0.378281
vn 0.988496 0.151247 0.000000
vn 0.913251 0.151247 0.378281
vn 0.698972 0.151247 0.698972
vn 0.378281 0.151247 0.913251
vn -0.000000 0.151247 0.988496
vn 0.646918 -0.713929 -0.267960
vn 0.646918 -0.713929 -0.267960
vn 0.495124 -0.713921 -0.495146
vn 0.495124 -0.713921 -0.495146
vn 0.700219 -0.713928 -0.000000
vn 0.700219 -0.713928 0.000000
vn 0.267961 -0.713925 -0.646922
vn 0.267961 -0.713925 -0.646922
vn 0.000001 -0.713931 -0.700216
vn 0.000001 -0.713931 -0.700216
vn -0.267961 -0.713925 -0.646922
vn -0.267961 -0.713925 -0.646922
vn -0.495131 -0.713930 -0.495126
vn -0.495131 -0.713930 -0.495126
vn -0.646915 -0.713929 -0.267968
vn -0.646915 -0.713929 -0.267968
vn -0.700217 -0.713930 -0.000005
vn -0.700217 -0.713930 -0.000005
vn -0.646918 -0.713928 0.267964
vn -0.646918 -0.713928 0.267964
vn -0.495126 -0.713922 0.495141
vn -0.495126 -0.713923 0.495141
vn -0.267959 -0.713917 0.646932
vn -0.267959 -0.713916 0.646932
vn 0.000000 -0.713922 0.700225
vn 0.000001 -0.713922 0.700225
vn 0.267964 -0.713933 0.646912
vn 0.267965 -0.713933 0.646911
vn 0.495130 -0.713930 0.495127
vn 0.495130 -0.713930 0.495127
vn 0.646916 -0.713927 0.267968
vn 0.646916 -0.713927 0.267968
vn 0.923880 -0.000000 -0.382683
vn 0.707107 -0.000000 -0.707107
vn 0.382684 -0.000000 -0.923879
vn 0.000000 -0.000000 -1.000000
vn -0.382682 -0.000000 -0.923880
vn -0.707106 0.000000 -0.707107
vn -0.923879 0.000000 -0.382684
vn -1.000000 0.000000 -0.000000
vn -0.923880 0.000000 0.382683
vn -0.707107 0.000000 0.707106
vn -0.382684 0.000000 0.923879
vn -0.000000 0.000000 1.000000
vn 0.382683 0.000000 0.923880
vn 0.707106 -0.000000 0.707107
vn 0.923880 0.000000 0.382684
vn 1.000000 -0.000000 0.000000
vn 0.000000 -1.000000 -0.000002
vn 0.000000 -1.000000 -0.000002
vn 0.000000 -1.000000 -0.000001
vn 0.000000 -1.000000 -0.000000
vn 0.000000 -1.000000 -0.000000
vn 0.000000 -1.000000 0.000000
vn 0.000000 -1.000000 0.000000
vn 0.000000 -1.000000 0.000002
vn 0.000000 -1.000000 -0.000000
vn 0.000000 -1.000000 0.000000
vn 0.000000 -1.000000 0.000001
vn 0.000000 -1.000000 -0.000000
vn 0.000000 -1.000000 -0.000000
vn 0.000000 -1.000000 -0.000001
vn 0.000000 -1.000000 -0.000002
vn 0.000000 -1.000000 -0.000002
vn 0.000000 -1.000000 0.000000
vn -0.000028 1.000000 0.000012
vn -0.000037 1.000000 0.000009
vn -0.000037 1.000000 0.000009
vn -0.000028 1.000000 0.000012
vn -0.000040 1.000000 -0.000000
vn -0.000040 1.000000 0.000000
vn -0.000037 1.000000 -0.000009
vn -0.000037 1.000000 -0.000009
vn -0.000028 1.000000 -0.000018
vn -0.000028 1.000000 -0.000018
vn -0.000015 1.000000 -0.000024
vn -0.000015 1.000000 -0.000024
vn -0.000000 1.000000 -0.000027
vn 0.000000 1.000000 -0.000027
vn 0.000015 1.000000 -0.000024
vn 0.000015 1.000000 -0.000024
vn 0.000028 1.000000 -0.000012
vn 0.000028 1.000000 -0.000012
vn 0.000037 1.000000 -0.000009
vn 0.000037 1.000000 -0.000009
vn 0.000040 1.000000 -0.000000
vn 0.000040 1.000000 0.000000
vn 0.000037 1.000000 0.000018
vn 0.000037 1.000000 0.000018
vn 0.000028 1.000000 0.000027
vn 0.000028 1.000000 0.000027
vn 0.000015 1.000000 0.000024
vn 0.000015 1.000000 0.000024
vn -0.000000 1.000000 0.000035
vn -0.000000 1.000000 0.000035
vn -0.000015 1.000000 0.000033
vn -0.000015 1.000000 0.000033
f 49/1/1 50/2/2 90/3/3 91/4/4
f 50/2/2 51/5/5 89/6/6 90/3/3
f 51/5/5 52/7/7 88/8/8 89/6/6
f 52/7/7 53/9/9 87/10/10 88/8/8
f 53/9/9 54/11/11 86/12/12 87/10/10
f 54/11/11 55/13/13 85/14/14 86/12/12
f 55/13/13 56/15/15 84/16/16 85/14/14
f 56/15/15 57/17/17 83/18/18 84/16/16
f 57/17/17 58/19/19 82/20/20 83/18/18
f 58/19/19 59/21/21 81/22/22 82/20/20
f 59/21/21 60/23/23 96/24/24 81/22/22
f 60/23/23 61/25/25 95/26/26 96/24/24
f 61/25/25 62/27/27 94/28/28 95/26/26
f 62/27/27 63/29/29 93/30/30 94/28/28
f 63/29/29 64/31/31 92/32/32 93/30/30
f 64/31/31 49/33/1 91/34/4 92/32/32
f 82/20/20 81/22/22 65/35/33 66/36/34
f 83/18/18 82/20/20 66/36/34 67/37/35
f 84/16/16 83/18/18 67/37/35 68/38/36
f 85/14/14 84/16/16 68/38/36 69/39/37
f 86/12/12 85/14/14 69/39/37 70/40/38
f 87/10/10 86/12/12 70/40/38 71/41/39
f 88/8/8 87/10/10 71/41/39 72/42/40
f 89/6/6 88/8/8 72/42/40 73/43/41
f 90/3/3 89/6/6 73/43/41 74/44/42
f 91/4/4 90/3/3 74/44/42 75/45/43
f 92/32/32 91/34/4 75/46/43 76/47/44
f 93/30/30 92/32/32 76/47/44 77/48/45
f 94/28/28 93/30/30 77/48/45 78/49/46
f 95/26/26 94/28/28 78/49/46 79/50/47
f 96/24/24 95/26/26 79/50/47 80/51/48
f 81/22/22 96/24/24 80/51/48 65/35/33
f 18/52/49 2/53/50 1/54/51 17/55/52
f 19/56/53 3/57/54 2/53/50 18/52/49
f 20/58/55 4/59/56 3/57/54 19/56/53
f 21/60/57 5/61/58 4/59/56 20/58/55
f 22/62/59 6/63/60 5/61/58 21/60/57
f 23/64/61 7/65/62 6/63/60 22/62/59
f 24/66/63 8/67/64 7/65/62 23/64/61
f 25/68/65 9/69/66 8/67/64 24/66/63
f 26/70/67 10/71/68 9/69/66 25/68/65
f 27/72/69 11/73/70 10/71/68 26/70/67
f 28/74/71 12/75/72 11/76/70 27/77/69
f 29/78/73 13/79/74 12/75/72 28/74/71
f 30/80/75 14/81/76 13/79/74 29/78/73
f 31/82/77 15/83/78 14/81/76 30/80/75
f 32/84/79 16/85/80 15/83/78 31/82/77
f 17/55/52 1/54/51 16/85/80 32/84/79
f 34/86/81 18/52/49 17/55/52 33/87/82
f 35/88/83 19/56/53 18/52/49 34/86/81
f 36/89/84 20/58/55 19/56/53 35/88/83
f 37/90/85 21/60/57 20/58/55 36/89/84
f 38/91/86 22/62/59 21/60/57 37/90/85
f 39/92/87 23/64/61 22/62/59 38/91/86
f 40/93/88 24/66/63 23/64/61 39/92/87
f 41/94/89 25/68/65 24/66/63 40/93/88
f 42/95/90 26/70/67 25/68/65 41/94/89
f 43/96/91 27/72/69 26/70/67 42/95/90
f 44/97/92 28/74/71 27/77/69 43/98/91
f 45/99/93 29/78/73 28/74/71 44/97/92
f 46/100/94 30/80/75 29/78/73 45/99/93
f 47/101/95 31/82/77 30/80/75 46/100/94
f 48/102/96 32/84/79 31/82/77 47/101/95
f 33/87/82 17/55/52 32/84/79 48/102/96
f 97/103/97 43/96/91 42/95/90 98/104/98
f 98/104/98 42/95/90 41/94/89 99/105/99
f 99/105/99 41/94/89 40/93/88 100/106/100
f 100/106/100 40/93/88 39/92/87 101/107/101
f 101/107/101 39/92/87 38/91/86 102/108/102
f 102/108/102 38/91/86 37/90/85 103/109/103
f 103/109/103 37/90/85 36/89/84 104/110/104
f 104/110/104 36/89/84 35/88/83 105/111/105
f 105/111/105 35/88/83 34/86/81 106/112/106
f 106/112/106 34/86/81 33/87/82 107/113/107
f 107/113/107 33/87/82 48/102/96 108/114/108
f 108/114/108 48/102/96 47/101/95 109/115/109
f 109/115/109 47/101/95 46/100/94 110/116/110
f 110/116/110 46/100/94 45/99/93 111/117/111
f 111/117/111 45/99/93 44/97/92 112/118/112
f 112/118/112 44/97/92 43/98/91 97/119/97
f 146/120/113 149/121/114 148/122/115 147/123/116
f 147/123/116 148/122/115 151/124/117 150/125/118
f 150/125/118 151/124/117 153/126/119 152/127/120
f 152/127/120 153/126/119 155/128/121 154/129/122
f 154/129/122 155/128/121 157/130/123 156/131/124
f 156/131/124 157/130/123 159/132/125 158/133/126
f 158/133/126 159/132/125 161/134/127 160/135/128
f 160/135/128 161/134/127 163/136/129 162/137/130
f 162/137/130 163/136/129 165/138/131 164/139/132
f 164/139/132 165/138/131 167/140/133 166/141/134
f 166/141/134 167/140/133 169/142/135 168/143/136
f 168/143/136 169/142/135 171/144/137 170/145/138
f 170/145/138 171/144/137 173/146/139 172/147/140
f 172/147/140 173/146/139 175/148/141 174/149/142
f 174/149/142 175/148/141 177/150/143 176/151/144
f 176/151/144 177/150/143 149/152/114 146/153/113
f 147/154/145 178/155/146 146/156/147
f 150/157/148 178/155/146 147/154/145
f 152/158/149 178/155/146 150/157/148
f 154/159/150 178/155/146 152/158/149
f 156/160/151 178/155/146 154/159/150
f 158/161/152 178/155/146 156/160/151
f 160/162/153 178/155/146 158/161/152
f 162/163/154 178/155/146 160/162/153
f 164/164/155 178/155/146 162/163/154
f 166/165/156 178/155/146 164/164/155
f 168/166/157 178/155/146 166/165/156
f 170/167/158 178/155/146 168/166/157
f 172/168/159 178/155/146 170/167/158
f 174/169/160 178/155/146 172/168/159
f 176/170/161 178/155/146 174/169/160
f 146/156/147 178/155/146 176/170/161
f 180/171/162 66/172/163 65/173/164 179/174/165
f 181/175/166 67/176/167 66/172/163 180/171/162
f 182/177/168 68/178/169 67/176/167 181/175/166
f 183/179/170 69/180/171 68/178/169 182/177/168
f 184/181/172 70/182/173 69/180/171 183/179/170
f 185/183/174 71/184/175 70/182/173 184/181/172
f 186/185/176 72/186/177 71/184/175 185/183/174
f 187/187/178 73/188/179 72/186/177 186/185/176
f 188/189/180 74/190/181 73/188/179 187/187/178
f 189/191/182 75/192/183 74/190/181 188/189/180
f 190/193/184 76/194/185 75/195/183 189/196/182
f 191/197/186 77/198/187 76/194/185 190/193/184
f 192/199/188 78/200/189 77/198/187 191/197/186
f 193/201/190 79/202/191 78/200/189 192/199/188
f 194/203/192 80/204/193 79/202/191 193/201/190
f 179/174/165 65/173/164 80/204/193 194/203/192
f 165/138/131 180/171/162 179/174/165 167/140/133
f 163/136/129 181/175/166 180/171/162 165/138/131
f 161/134/127 182/177/168 181/175/166 163/136/129
f 159/132/125 183/179/170 182/177/168 161/134/127
f 157/130/123 184/181/172 183/179/170 159/132/125
f 155/128/121 185/183/174 184/181/172 157/130/123
f 153/126/119 186/185/176 185/183/174 155/128/121
f 151/124/117 187/187/178 186/185/176 153/126/119
f 148/122/115 188/189/180 187/187/178 151/124/117
f 149/121/114 189/191/182 188/189/180 148/122/115
f 177/150/143 190/193/184 189/196/182 149/152/114
f 175/148/141 191/197/186 190/193/184 177/150/143
f 173/146/139 192/199/188 191/197/186 175/148/141
f 171/144/137 193/201/190 192/199/188 173/146/139
f 169/142/135 194/203/192 193/201/190 171/144/137
f 167/140/133 179/174/165 194/203/192 169/142/135
f 115/205/194 114/206/195 1/207/196 2/208/197
f 116/209/198 115/205/194 2/208/197 3/210/199
f 117/211/200 116/209/198 3/210/199 4/212/201
f 118/213/202 117/211/200 4/212/201 5/214/203
f 119/215/204 118/213/202 5/214/203 6/216/205
f 120/217/206 119/215/204 6/216/205 7/218/207
f 121/219/208 120/217/206 7/218/207 8/220/209
f 122/221/210 121/219/208 8/220/209 9/222/211
f 123/223/212 122/221/210 9/222/211 10/224/213
f 124/225/214 123/223/212 10/224/213 11/226/215
f 125/227/216 124/228/214 11/229/215 12/230/217
f 126/231/218 125/227/216 12/230/217 13/232/219
f 127/233/220 126/231/218 13/232/219 14/234/221
f 128/235/222 127/233/220 14/234/221 15/236/223
f 129/237/224 128/235/222 15/236/223 16/238/225
f 114/206/195 129/237/224 16/238/225 1/207/196
f 131/239/226 130/240/227 114/206/195 115/205/194
f 132/241/228 131/239/226 115/205/194 116/209/198
f 133/242/229 132/241/228 116/209/198 117/211/200
f 134/243/230 133/242/229 117/211/200 118/213/202
f 135/244/231 134/243/230 118/213/202 119/215/204
f 136/245/232 135/244/231 119/215/204 120/217/206
f 137/246/233 136/245/232 120/217/206 121/219/208
f 138/247/234 137/246/233 121/219/208 122/221/210
f 139/248/235 138/247/234 122/221/210 123/223/212
f 140/249/236 139/248/235 123/223/212 124/225/214
f 141/250/237 140/251/236 124/228/214 125/227/216
f 142/252/238 141/250/237 125/227/216 126/231/218
f 143/253/239 142/252/238 126/231/218 127/233/220
f 144/254/240 143/253/239 127/233/220 128/235/222
f 145/255/241 144/254/240 128/235/222 129/237/224
f 130/240/227 145/255/241 129/237/224 114/206/195
f 195/256/242 196/257/243 198/258/244 197/259/245
f 196/260/243 195/261/242 225/262/246 226/263/247
f 197/259/245 198/264/244 200/265/248 199/266/249
f 199/266/249 200/267/248 202/268/250 201/269/251
f 201/269/251 202/270/250 204/271/252 203/272/253
f 203/272/253 204/273/252 206/274/254 205/275/255
f 205/275/255 206/276/254 208/277/256 207/278/257
f 207/278/257 208/279/256 210/280/258 209/281/259
f 209/281/259 210/282/258 212/283/260 211/284/261
f 211/284/261 212/285/260 214/286/262 213/287/263
f 213/287/263 214/288/262 216/289/264 215/290/265
f 215/290/265 216/291/264 218/292/266 217/293/267
f 217/293/267 218/294/266 220/295/268 219/296/269
f 219/296/269 220/297/268 222/298/270 221/299/271
f 221/299/271 222/300/270 224/301/272 223/302/273
f 223/302/273 224/303/272 226/304/247 225/262/246
f 195/256/274 197/259/275 139/248/235 140/249/236
f 197/259/275 199/266/276 138/247/234 139/248/235
f 199/266/276 201/269/277 137/246/233 138/247/234
f 201/269/277 203/272/278 136/245/232 137/246/233
f 203/272/278 205/275/279 135/244/231 136/245/232
f 205/275/279 207/278/280 134/243/230 135/244/231
f 207/278/280 209/281/281 133/242/229 134/243/230
f 209/281/281 211/284/282 132/241/228 133/242/229
f 211/284/282 213/287/283 131/239/226 132/241/228
f 213/287/283 215/290/284 130/240/227 131/239/226
f 215/290/284 217/293/285 145/255/241 130/240/227
f 217/293/285 219/296/286 144/254/240 145/255/241
f 219/296/286 221/299/287 143/253/239 144/254/240
f 221/299/287 223/302/288 142/252/238 143/253/239
f 223/302/288 225/262/289 141/250/237 142/252/238
f 225/262/289 195/261/274 140/251/236 141/250/237
f 198/305/290 196/306/291 113/307/292
f 200/308/293 198/305/290 113/307/292
f 202/309/294 200/308/293 113/307/292
f 204/310/295 202/309/294 113/307/292
f 206/311/296 204/310/295 113/307/292
f 208/312/297 206/311/296 113/307/292
f 210/313/298 208/312/297 113/307/292
f 212/314/299 210/313/298 113/307/292
f 214/315/300 212/314/299 113/307/292
f 216/316/301 214/315/300 113/307/292
f 218/317/302 216/316/301 113/307/292
f 220/318/303 218/317/302 113/307/292
f 222/319/304 220/318/303 113/307/292
f 224/320/305 222/319/304 113/307/292
f 226/321/306 224/320/305 113/307/292
f 196/306/291 226/321/306 113/307/292
f 50/2/307 49/1/308 97/103/309 98/104/310
f 49/33/308 64/31/311 112/118/312 97/119/309
f 64/31/311 63/29/313 111/117/314 112/118/312
f 63/29/313 62/27/315 110/116/316 111/117/314
f 62/27/315 61/25/317 109/115/318 110/116/316
f 61/25/317 60/23/319 108/114/320 109/115/318
f 60/23/319 59/21/321 107/113/322 108/114/320
f 59/21/321 58/19/323 106/112/324 107/113/322
f 58/19/323 57/17/325 105/111/326 106/112/324
f 57/17/325 56/15/327 104/110/328 105/111/326
f 56/15/327 55/13/329 103/109/330 104/110/328
f 55/13/329 54/11/331 102/108/332 103/109/330
f 54/11/331 53/9/333 101/107/334 102/108/332
f 53/9/333 52/7/335 100/106/336 101/107/334
f 52/7/335 51/5/337 99/105/338 100/106/336
f 51/5/337 50/2/307 98/104/310 99/105/338
