# This file uses meters as units for non-parametric coordinates.

v 3.272593 39.482213 -1.355550
v 2.504735 39.482213 -2.504732
v 1.355554 39.482213 -3.272592
v 0.000002 39.482213 -3.542228
v -1.355550 39.482213 -3.272593
v -2.504732 39.482213 -2.504734
v -3.272593 39.482213 -1.355553
v -3.542228 39.482213 -0.000001
v -3.272593 39.482213 1.355551
v -2.504734 39.482213 2.504733
v -1.355553 39.482213 3.272594
v -0.000001 39.482213 3.542228
v 1.355551 39.482213 3.272594
v 2.504733 39.482213 2.504734
v 3.272593 39.482213 1.355551
v 3.542228 39.482213 0.000000
v 0.000000 0.608502 0.000000
v -1.355553 24.961225 3.272594
v -2.504734 24.961225 2.504733
v -3.272593 24.961225 1.355551
v -3.542228 24.961225 -0.000001
v -3.272593 24.961225 -1.355553
v -2.504732 24.961225 -2.504734
v -1.355550 24.961225 -3.272593
v 0.000002 24.961225 -3.542228
v 1.355554 24.961225 -3.272592
v 2.504735 24.961225 -2.504732
v 3.272593 24.961225 -1.355550
v 3.542228 24.961225 0.000000
v 3.272593 24.961225 1.355551
v 2.504733 24.961225 2.504734
v 1.355551 24.961225 3.272594
v -0.000001 24.961225 3.542228
v -1.676467 13.916417 4.047346
v -3.097705 13.916417 3.097705
v -4.047346 13.916417 1.676464
v -4.380816 13.916417 -0.000001
v -4.047345 13.916417 -1.676467
v -3.097704 13.916417 -3.097705
v -1.676463 13.916417 -4.047346
v 0.000002 13.916417 -4.380815
v 1.676468 13.916417 -4.047345
v 3.097706 13.916417 -3.097703
v 4.047347 13.916417 -1.676463
v 4.380816 13.916417 0.000000
v 4.047345 13.916417 1.676465
v 3.097704 13.916417 3.097705
v 1.676465 13.916417 4.047346
v -0.000001 13.916417 4.380816
v -2.494158 1.592214 6.021429
v -4.608604 1.592214 4.608602
v -6.021430 1.592214 2.494156
v -6.517549 1.592214 -0.000003
v -6.021429 1.592214 -2.494161
v -4.608601 1.592214 -4.608606
v -2.494154 1.592214 -6.021431
v 0.000004 1.592214 -6.517549
v 2.494162 1.592214 -6.021429
v 4.608606 1.592214 -4.608601
v 6.021432 1.592214 -2.494155
v 6.517550 1.592214 -0.000000
v 6.021430 1.592214 2.494158
v 4.608603 1.592214 4.608603
v 2.494158 1.592214 6.021430
v -0.000000 1.592214 6.517549
v 5.628962 0.987493 -2.331588
v 4.308221 0.987493 -4.308217
v 4.207507 1.543920 -4.207501
v 5.497371 1.543920 -2.277081
v 2.331594 0.987493 -5.628958
v 2.277088 1.543920 -5.497368
v 0.000003 0.987493 -6.092741
v 0.000004 1.543920 -5.950309
v -2.331589 0.987493 -5.628961
v -2.277081 1.543920 -5.497371
v -4.308218 0.987493 -4.308220
v -4.207501 1.543920 -4.207507
v -5.628959 0.987493 -2.331593
v -5.497368 1.543920 -2.277087
v -6.092741 0.987493 -0.000001
v -5.950309 1.543920 -0.000003
v -5.628960 0.987493 2.331589
v -5.497370 1.543920 2.277083
v -4.308220 0.987493 4.308218
v -4.207506 1.543920 4.207503
v -2.331593 0.987493 5.628959
v -2.277085 1.543920 5.497368
v -0.000001 0.987493 6.092741
v -0.000000 1.543920 5.950309
v 2.331591 0.987493 5.628960
v 2.277085 1.543920 5.497369
v 4.308219 0.987493 4.308219
v 4.207505 1.543920 4.207505
v 5.628960 0.987493 2.331591
v 5.497369 1.543920 2.277084
v 6.092742 0.987493 -0.000000
v 5.950310 1.543920 -0.000001
v -0.000000 1.177793 -0.000000
v -1.137852 24.939565 2.747018
v -2.102475 24.939565 2.102475
v -1.141880 39.482213 2.756743
v -2.109918 39.482213 2.109918
v -2.747018 24.939565 1.137850
v -2.756743 39.482213 1.141879
v -2.973349 24.939565 -0.000001
v -2.983875 39.482213 -0.000001
v -2.747018 24.939565 -1.137853
v -2.756743 39.482213 -1.141881
v -2.102474 24.939565 -2.102476
v -2.109917 39.482213 -2.109918
v -1.137850 24.939565 -2.747017
v -1.141878 39.482213 -2.756742
v 0.000002 24.939565 -2.973349
v 0.000002 39.482213 -2.983875
v 1.137853 24.939565 -2.747017
v 1.141881 39.482213 -2.756742
v 2.102476 24.939565 -2.102474
v 2.109919 39.482213 -2.109917
v 2.747018 24.939565 -1.137850
v 2.756743 39.482213 -1.141878
v 2.973349 24.939565 0.000000
v 2.983876 39.482213 0.000000
v 2.747018 24.939565 1.137851
v 2.756743 39.482213 1.141879
v 2.102475 24.939565 2.102476
v 2.109918 39.482213 2.109919
v 1.137850 24.939565 2.747018
v 1.141879 39.482213 2.756743
v -0.000001 24.939565 2.973350
v -0.000001 39.482213 2.983876
v -1.460294 13.845754 3.525458
v -2.698269 13.845746 2.698269
v -3.525458 13.845746 1.460291
v -3.815929 13.845746 -0.000001
v -3.525457 13.845746 -1.460294
v -2.698268 13.845746 -2.698269
v -1.460291 13.845746 -3.525457
v 0.000002 13.845746 -3.815928
v 1.460294 13.845746 -3.525457
v 2.698270 13.845746 -2.698267
v 3.525459 13.845746 -1.460290
v 3.815929 13.845746 -0.000000
v 3.525457 13.845746 1.460292
v 2.698269 13.845746 2.698269
v 1.460291 13.845746 3.525458
v -0.000001 13.845746 3.815928
v 6.021431 0.756047 -2.494154
v 5.882450 0.608502 -2.436587
v 4.608605 0.756047 -4.608600
v 4.502234 0.608502 -4.502228
v 2.494161 0.756047 -6.021428
v 2.436593 0.608502 -5.882447
v 0.000003 0.756047 -6.517549
v 0.000003 0.608502 -6.367115
v -2.494155 0.756047 -6.021431
v -2.436587 0.608502 -5.882450
v -4.608601 0.756047 -4.608605
v -4.502229 0.608502 -4.502233
v -6.021429 0.756047 -2.494161
v -5.882448 0.608502 -2.436592
v -6.517549 0.756047 -0.000002
v -6.367116 0.608502 -0.000002
v -6.021430 0.756047 2.494156
v -5.882449 0.608502 2.436588
v -4.608604 0.756047 4.608602
v -4.502232 0.608502 4.502230
v -2.494159 0.756047 6.021430
v -2.436591 0.608502 5.882448
v -0.000001 0.756047 6.517549
v -0.000001 0.608502 6.367116
v 2.494157 0.756047 6.021430
v 2.436589 0.608502 5.882449
v 4.608603 0.756047 4.608603
v 4.502231 0.608502 4.502232
v 6.021430 0.756047 2.494158
v 5.882448 0.608502 2.436590
v 6.517549 0.756047 -0.000000
v 6.367116 0.608502 -0.000000
vt 0.882343 0.758800
vt 0.882343 0.760265
vt 0.889012 0.760265
vt 0.889012 0.758800
vt 0.895681 0.760265
vt 0.895681 0.758800
vt 0.902350 0.760265
vt 0.902350 0.758800
vt 0.909020 0.760265
vt 0.909020 0.758800
vt 0.915689 0.760265
vt 0.915689 0.758800
vt 0.922358 0.760265
vt 0.922358 0.758800
vt 0.929027 0.760265
vt 0.929027 0.758800
vt 0.935697 0.760265
vt 0.935697 0.758800
vt 0.942366 0.760265
vt 0.942366 0.758800
vt 0.949035 0.760265
vt 0.949035 0.758800
vt 0.955704 0.760265
vt 0.955704 0.758800
vt 0.962374 0.760265
vt 0.962374 0.758800
vt 0.969043 0.760265
vt 0.969043 0.758800
vt 0.975712 0.760265
vt 0.975712 0.758800
vt 0.982381 0.760265
vt 0.982381 0.758800
vt 0.989051 0.760265
vt 0.989051 0.758800
vt 0.965857 0.779597
vt 0.932440 0.811124
vt 0.976102 0.794929
vt 0.950525 0.769352
vt 0.932440 0.765755
vt 0.914354 0.769352
vt 0.899022 0.779597
vt 0.888778 0.794929
vt 0.885180 0.813014
vt 0.888778 0.831100
vt 0.899022 0.846432
vt 0.914354 0.856676
vt 0.932440 0.860274
vt 0.950525 0.856676
vt 0.965857 0.846432
vt 0.976102 0.831100
vt 0.979699 0.813014
vt 0.942366 0.825935
vt 0.942366 0.865967
vt 0.949035 0.865967
vt 0.949035 0.825935
vt 0.935697 0.825935
vt 0.935697 0.865967
vt 0.929027 0.825935
vt 0.929027 0.865967
vt 0.922358 0.825935
vt 0.922358 0.865967
vt 0.915689 0.825935
vt 0.915689 0.865967
vt 0.909020 0.825935
vt 0.909020 0.865967
vt 0.902350 0.825935
vt 0.902350 0.865967
vt 0.895681 0.825935
vt 0.895681 0.865967
vt 0.889012 0.825935
vt 0.889012 0.865967
vt 0.882343 0.825935
vt 0.882343 0.865967
vt 0.982381 0.825935
vt 0.982381 0.865967
vt 0.989051 0.865967
vt 0.989051 0.825935
vt 0.975712 0.825935
vt 0.975712 0.865967
vt 0.969043 0.825935
vt 0.969043 0.865967
vt 0.962374 0.825935
vt 0.962374 0.865967
vt 0.955704 0.825935
vt 0.955704 0.865967
vt 0.942366 0.795487
vt 0.949035 0.795487
vt 0.935697 0.795487
vt 0.929027 0.795487
vt 0.922358 0.795487
vt 0.915689 0.795487
vt 0.909020 0.795487
vt 0.902350 0.795487
vt 0.895681 0.795487
vt 0.889012 0.795487
vt 0.882343 0.795487
vt 0.982381 0.795487
vt 0.989051 0.795487
vt 0.975712 0.795487
vt 0.969043 0.795487
vt 0.962374 0.795487
vt 0.955704 0.795487
vt 0.989051 0.760265
vt 0.942366 0.825935
vt 0.949035 0.825935
vt 0.935697 0.825935
vt 0.929027 0.825935
vt 0.922358 0.825935
vt 0.915689 0.825935
vt 0.909020 0.825935
vt 0.902350 0.825935
vt 0.895681 0.825935
vt 0.889012 0.825935
vt 0.882343 0.825935
vt 0.982381 0.825935
vt 0.989051 0.825935
vt 0.975712 0.825935
vt 0.969043 0.825935
vt 0.962374 0.825935
vt 0.955704 0.825935
vt 0.942366 0.795487
vt 0.949035 0.795487
vt 0.935697 0.795487
vt 0.929027 0.795487
vt 0.922358 0.795487
vt 0.915689 0.795487
vt 0.909020 0.795487
vt 0.902350 0.795487
vt 0.895681 0.795487
vt 0.889012 0.795487
vt 0.882343 0.795487
vt 0.982381 0.795487
vt 0.989051 0.795487
vt 0.975712 0.795487
vt 0.969043 0.795487
vt 0.962374 0.795487
vt 0.955704 0.795487
vt 0.949035 0.865967
vt 0.942366 0.865967
vt 0.935697 0.865967
vt 0.929027 0.865967
vt 0.922358 0.865967
vt 0.915689 0.865967
vt 0.909020 0.865967
vt 0.902350 0.865967
vt 0.895681 0.865967
vt 0.889012 0.865967
vt 0.882343 0.865967
vt 0.989051 0.865967
vt 0.982381 0.865967
vt 0.975712 0.865967
vt 0.969043 0.865967
vt 0.962374 0.865967
vt 0.955704 0.865967
vt 0.989051 0.865967
vt 0.982381 0.865967
vt 0.975712 0.865967
vt 0.969043 0.865967
vt 0.962374 0.865967
vt 0.955704 0.865967
vt 0.949035 0.865967
vt 0.942366 0.865967
vt 0.935697 0.865967
vt 0.929027 0.865967
vt 0.922358 0.865967
vt 0.915689 0.865967
vt 0.909020 0.865967
vt 0.902350 0.865967
vt 0.895681 0.865967
vt 0.889012 0.865967
vt 0.882343 0.865967
vt 0.882343 0.759020
vt 0.882419 0.758800
vt 0.888935 0.758800
vt 0.988974 0.758800
vt 0.982458 0.758800
vt 0.889089 0.758800
vt 0.895604 0.758800
vt 0.895758 0.758800
vt 0.902274 0.758800
vt 0.902427 0.758800
vt 0.908943 0.758800
vt 0.909097 0.758800
vt 0.915612 0.758800
vt 0.915766 0.758800
vt 0.922281 0.758800
vt 0.922435 0.758800
vt 0.928950 0.758800
vt 0.929104 0.758800
vt 0.935620 0.758800
vt 0.935774 0.758800
vt 0.942289 0.758800
vt 0.942443 0.758800
vt 0.948958 0.758800
vt 0.949112 0.758800
vt 0.955628 0.758800
vt 0.955781 0.758800
vt 0.962297 0.758800
vt 0.962451 0.758800
vt 0.968966 0.758800
vt 0.969120 0.758800
vt 0.975635 0.758800
vt 0.975789 0.758800
vt 0.982304 0.758800
vt 0.889012 0.759020
vt 0.882343 0.760265
vt 0.895681 0.759020
vt 0.889012 0.760265
vt 0.902350 0.759020
vt 0.895681 0.760265
vt 0.909020 0.759020
vt 0.902350 0.760265
vt 0.915689 0.759020
vt 0.909020 0.760265
vt 0.922358 0.759020
vt 0.915689 0.760265
vt 0.929027 0.759020
vt 0.922358 0.760265
vt 0.935697 0.759020
vt 0.929027 0.760265
vt 0.942366 0.759020
vt 0.935697 0.760265
vt 0.949035 0.759020
vt 0.942366 0.760265
vt 0.955704 0.759020
vt 0.949035 0.760265
vt 0.962374 0.759020
vt 0.955704 0.760265
vt 0.969043 0.759020
vt 0.962374 0.760265
vt 0.975712 0.759020
vt 0.969043 0.760265
vt 0.982381 0.759020
vt 0.975712 0.760265
vt 0.989051 0.759020
vt 0.982381 0.760265
vt 0.975094 0.795303
vt 0.965086 0.780324
vt 0.950108 0.770316
vt 0.932440 0.766802
vt 0.914772 0.770316
vt 0.899793 0.780324
vt 0.889785 0.795303
vt 0.886271 0.812971
vt 0.889785 0.830639
vt 0.899794 0.845617
vt 0.914772 0.855625
vt 0.932440 0.859139
vt 0.950108 0.855625
vt 0.965086 0.845617
vt 0.975094 0.830639
vt 0.932440 0.811124
vt 0.978609 0.812971
vn -0.895021 -0.247981 0.370733
vn -0.909570 -0.175319 0.376756
vn -0.696155 -0.175319 0.696154
vn -0.685020 -0.247982 0.685021
vn -0.376757 -0.175319 0.909570
vn -0.370732 -0.247983 0.895021
vn -0.000000 -0.175319 0.984512
vn -0.000001 -0.247981 0.968765
vn 0.376756 -0.175319 0.909571
vn 0.370729 -0.247980 0.895023
vn 0.696155 -0.175319 0.696155
vn 0.685021 -0.247981 0.685019
vn 0.909570 -0.175319 0.376756
vn 0.895022 -0.247982 0.370730
vn 0.984512 -0.175319 0.000000
vn 0.968765 -0.247982 0.000001
vn 0.909570 -0.175319 -0.376756
vn 0.895022 -0.247981 -0.370731
vn 0.696155 -0.175319 -0.696155
vn 0.685020 -0.247981 -0.685021
vn 0.376756 -0.175319 -0.909570
vn 0.370731 -0.247982 -0.895021
vn -0.000000 -0.175319 -0.984512
vn 0.000000 -0.247981 -0.968765
vn -0.376756 -0.175319 -0.909570
vn -0.370729 -0.247980 -0.895023
vn -0.696155 -0.175319 -0.696155
vn -0.685021 -0.247981 -0.685019
vn -0.909570 -0.175319 -0.376756
vn -0.895023 -0.247981 -0.370729
vn -0.984512 -0.175319 -0.000000
vn -0.968765 -0.247981 0.000001
vn 0.022075 0.999513 -0.022075
vn -0.000000 1.000000 0.000000
vn 0.028842 0.999513 -0.011945
vn 0.011947 0.999512 -0.028844
vn 0.000000 0.999512 -0.031221
vn -0.011947 0.999513 -0.028843
vn -0.022075 0.999513 -0.022076
vn -0.028842 0.999513 -0.011948
vn -0.031219 0.999513 -0.000000
vn -0.028842 0.999513 0.011948
vn -0.022075 0.999513 0.022076
vn -0.011947 0.999513 0.028843
vn -0.000000 0.999512 0.031221
vn 0.011947 0.999512 0.028844
vn 0.022075 0.999513 0.022076
vn 0.028842 0.999513 0.011945
vn 0.031219 0.999513 -0.000001
vn 0.706672 -0.035090 -0.706671
vn 0.707107 0.000724 -0.707106
vn 0.382684 0.000724 -0.923879
vn 0.382448 -0.035090 -0.923310
vn 0.923311 -0.035090 -0.382448
vn 0.923879 0.000724 -0.382683
vn 0.999384 -0.035090 0.000000
vn 1.000000 0.000724 -0.000000
vn 0.923310 -0.035090 0.382448
vn 0.923879 0.000724 0.382684
vn 0.706671 -0.035090 0.706672
vn 0.707106 0.000724 0.707107
vn 0.382448 -0.035090 0.923311
vn 0.382683 0.000724 0.923879
vn -0.000000 -0.035090 0.999384
vn -0.000000 0.000724 1.000000
vn -0.382448 -0.035090 0.923310
vn -0.382684 0.000724 0.923879
vn -0.706672 -0.035090 0.706671
vn -0.707107 0.000724 0.707106
vn -0.923311 -0.035090 0.382448
vn -0.923879 0.000724 0.382683
vn -0.999384 -0.035090 -0.000000
vn -1.000000 0.000724 0.000000
vn -0.923311 -0.035090 -0.382448
vn -0.923879 0.000724 -0.382684
vn -0.706671 -0.035090 -0.706671
vn -0.707107 0.000724 -0.707107
vn -0.382448 -0.035090 -0.923311
vn -0.382683 0.000724 -0.923879
vn 0.000000 -0.035090 -0.999384
vn -0.000000 0.000724 -1.000000
vn 0.700600 -0.135355 -0.700599
vn 0.379162 -0.135355 -0.915377
vn 0.915377 -0.135355 -0.379161
vn 0.990797 -0.135355 0.000000
vn 0.915377 -0.135355 0.379162
vn 0.700599 -0.135355 0.700600
vn 0.379161 -0.135355 0.915377
vn -0.000000 -0.135355 0.990797
vn -0.379162 -0.135355 0.915377
vn -0.700600 -0.135355 0.700599
vn -0.915377 -0.135355 0.379161
vn -0.990797 -0.135355 -0.000000
vn -0.915377 -0.135355 -0.379162
vn -0.700599 -0.135355 -0.700599
vn -0.379161 -0.135355 -0.915377
vn 0.000000 -0.135355 -0.990797
vn -0.706673 0.035054 0.706672
vn -0.382449 0.035054 0.923312
vn -0.382684 0.000000 0.923879
vn -0.707107 0.000000 0.707106
vn -0.923312 0.035054 0.382448
vn -0.923880 0.000000 0.382683
vn -0.999385 0.035054 -0.000000
vn -1.000000 0.000000 0.000000
vn -0.923312 0.035054 -0.382449
vn -0.923879 0.000000 -0.382684
vn -0.706672 0.035054 -0.706673
vn -0.707106 0.000000 -0.707107
vn -0.382448 0.035054 -0.923312
vn -0.382683 0.000000 -0.923880
vn 0.000000 0.035054 -0.999385
vn 0.000000 0.000000 -1.000000
vn 0.382449 0.035054 -0.923312
vn 0.382684 0.000000 -0.923879
vn 0.706673 0.035054 -0.706672
vn 0.707107 0.000000 -0.707106
vn 0.923880 -0.000000 -0.382683
vn 0.923312 0.035054 -0.382448
vn 0.999385 0.035054 0.000000
vn 1.000000 -0.000000 0.000000
vn 0.923312 0.035054 0.382448
vn 0.923880 0.000000 0.382684
vn 0.706672 0.035054 0.706672
vn 0.707107 0.000000 0.707107
vn 0.382448 0.035054 0.923312
vn 0.382683 0.000000 0.923880
vn -0.000000 0.035054 0.999385
vn -0.000000 0.000000 1.000000
vn -0.700691 0.134408 0.700690
vn -0.379211 0.134408 0.915496
vn -0.915496 0.134408 0.379211
vn -0.990926 0.134408 -0.000000
vn -0.915496 0.134408 -0.379211
vn -0.700690 0.134408 -0.700691
vn -0.379211 0.134408 -0.915496
vn 0.000000 0.134408 -0.990926
vn 0.379211 0.134408 -0.915496
vn 0.700691 0.134408 -0.700690
vn 0.915496 0.134408 -0.379211
vn 0.990926 0.134408 0.000001
vn 0.915496 0.134408 0.379211
vn 0.700691 0.134408 0.700691
vn 0.379211 0.134408 0.915496
vn -0.000000 0.134408 0.990926
vn -0.698215 0.158090 0.698215
vn -0.377871 0.158090 0.912262
vn -0.912262 0.158090 0.377871
vn -0.987425 0.158090 -0.000000
vn -0.912261 0.158090 -0.377871
vn -0.698214 0.158090 -0.698215
vn -0.377871 0.158090 -0.912262
vn 0.000001 0.158090 -0.987425
vn 0.377871 0.158090 -0.912261
vn 0.698215 0.158090 -0.698214
vn 0.912262 0.158090 -0.377871
vn 0.987425 0.158090 0.000001
vn 0.912261 0.158090 0.377871
vn 0.698215 0.158090 0.698215
vn 0.377871 0.158090 0.912262
vn -0.000000 0.158090 0.987425
vn 0.000000 1.000000 -0.000011
vn 0.000000 1.000000 -0.000011
vn 0.000000 1.000000 0.000000
vn 0.000000 1.000000 0.000000
vn 0.000000 1.000000 0.000003
vn 0.000000 1.000000 0.000003
vn 0.000000 1.000000 -0.000000
vn 0.000000 1.000000 -0.000000
vn 0.000000 1.000000 -0.000008
vn 0.000000 1.000000 -0.000008
vn 0.000000 1.000000 0.000005
vn 0.000000 1.000000 0.000005
vn 0.000000 1.000000 0.000000
vn 0.000000 1.000000 -0.000000
vn 0.000000 1.000000 -0.000011
vn 0.000000 1.000000 -0.000011
vn 0.000000 1.000000 0.000000
vn 0.000000 1.000000 0.000000
vn 0.000000 1.000000 -0.000005
vn 0.000000 1.000000 -0.000005
vn 0.000000 1.000000 -0.000005
vn 0.000000 1.000000 -0.000005
vn 0.000000 1.000000 0.000003
vn 0.000000 1.000000 0.000003
vn 0.000000 1.000000 0.000003
vn 0.000000 1.000000 0.000003
vn 0.000000 1.000000 -0.000011
vn 0.000000 1.000000 -0.000011
vn 0.000000 1.000000 0.000011
vn 0.000000 1.000000 0.000011
vn 0.000000 1.000000 0.000011
vn 0.000000 1.000000 0.000011
vn 0.646920 -0.713926 -0.267963
vn 0.646920 -0.713926 -0.267963
vn 0.495131 -0.713924 -0.495133
vn 0.495131 -0.713925 -0.495133
vn 0.700222 -0.713926 -0.000000
vn 0.700222 -0.713926 0.000000
vn 0.267962 -0.713924 -0.646923
vn 0.267962 -0.713924 -0.646923
vn 0.000000 -0.713926 -0.700221
vn 0.000000 -0.713926 -0.700221
vn -0.267961 -0.713924 -0.646923
vn -0.267961 -0.713924 -0.646923
vn -0.495129 -0.713922 -0.495139
vn -0.495129 -0.713922 -0.495139
vn -0.646920 -0.713925 -0.267966
vn -0.646920 -0.713925 -0.267966
vn -0.700221 -0.713926 0.000000
vn -0.700221 -0.713926 0.000000
vn -0.646923 -0.713927 0.267953
vn -0.646922 -0.713927 0.267953
vn -0.495133 -0.713927 0.495127
vn -0.495133 -0.713927 0.495127
vn -0.267964 -0.713930 0.646915
vn -0.267964 -0.713930 0.646915
vn -0.000000 -0.713932 0.700215
vn -0.000000 -0.713932 0.700215
vn 0.267961 -0.713923 0.646924
vn 0.267962 -0.713923 0.646924
vn 0.495132 -0.713924 0.495133
vn 0.495132 -0.713924 0.495133
vn 0.646921 -0.713925 0.267963
vn 0.646921 -0.713925 0.267963
vn 0.923880 -0.000001 -0.382682
vn 0.707108 -0.000001 -0.707106
vn 0.382684 -0.000001 -0.923879
vn 0.000001 -0.000000 -1.000000
vn -0.382683 -0.000000 -0.923880
vn -0.707106 -0.000000 -0.707107
vn -0.923879 0.000000 -0.382684
vn -1.000000 0.000000 -0.000000
vn -0.923879 -0.000000 0.382684
vn -0.707106 0.000001 0.707108
vn -0.382684 0.000001 0.923880
vn -0.000000 0.000000 1.000000
vn 0.382682 -0.000000 0.923880
vn 0.707105 -0.000001 0.707108
vn 0.923879 -0.000001 0.382684
vn 1.000000 -0.000001 0.000000
vn 0.000000 -1.000000 0.000001
vn 0.000000 -1.000000 -0.000002
vn 0.000000 -1.000000 -0.000000
vn 0.000000 -1.000000 0.000000
vn 0.000000 -1.000000 -0.000001
vn 0.000000 -1.000000 0.000000
vn 0.000000 -1.000000 0.000000
vn 0.000000 -1.000000 0.000000
vn 0.000000 -1.000000 0.000002
vn 0.000000 -1.000000 0.000002
vn 0.000000 -1.000000 -0.000001
vn 0.000000 -1.000000 -0.000001
vn 0.000000 -1.000000 0.000000
vn 0.000000 -1.000000 0.000000
vn 0.000000 -1.000000 0.000000
vn 0.000000 -1.000000 0.000000
vn 0.000000 -1.000000 -0.000002
f 66/1/1 69/2/2 68/3/3 67/4/4
f 67/4/4 68/3/3 71/5/5 70/6/6
f 70/6/6 71/5/5 73/7/7 72/8/8
f 72/8/8 73/7/7 75/9/9 74/10/10
f 74/10/10 75/9/9 77/11/11 76/12/12
f 76/12/12 77/11/11 79/13/13 78/14/14
f 78/14/14 79/13/13 81/15/15 80/16/16
f 80/16/16 81/15/15 83/17/17 82/18/18
f 82/18/18 83/17/17 85/19/19 84/20/20
f 84/20/20 85/19/19 87/21/21 86/22/22
f 86/22/22 87/21/21 89/23/23 88/24/24
f 88/24/24 89/23/23 91/25/25 90/26/26
f 90/26/26 91/25/25 93/27/27 92/28/28
f 92/28/28 93/27/27 95/29/29 94/30/30
f 94/30/30 95/29/29 97/31/31 96/32/32
f 96/32/32 97/31/31 69/33/2 66/34/1
f 67/35/33 98/36/34 66/37/35
f 70/38/36 98/36/34 67/35/33
f 72/39/37 98/36/34 70/38/36
f 74/40/38 98/36/34 72/39/37
f 76/41/39 98/36/34 74/40/38
f 78/42/40 98/36/34 76/41/39
f 80/43/41 98/36/34 78/42/40
f 82/44/42 98/36/34 80/43/41
f 84/45/43 98/36/34 82/44/42
f 86/46/44 98/36/34 84/45/43
f 88/47/45 98/36/34 86/46/44
f 90/48/46 98/36/34 88/47/45
f 92/49/47 98/36/34 90/48/46
f 94/50/48 98/36/34 92/49/47
f 96/51/49 98/36/34 94/50/48
f 66/37/35 98/36/34 96/51/49
f 100/52/50 102/53/51 101/54/52 99/55/53
f 103/56/54 104/57/55 102/53/51 100/52/50
f 105/58/56 106/59/57 104/57/55 103/56/54
f 107/60/58 108/61/59 106/59/57 105/58/56
f 109/62/60 110/63/61 108/61/59 107/60/58
f 111/64/62 112/65/63 110/63/61 109/62/60
f 113/66/64 114/67/65 112/65/63 111/64/62
f 115/68/66 116/69/67 114/67/65 113/66/64
f 117/70/68 118/71/69 116/69/67 115/68/66
f 119/72/70 120/73/71 118/71/69 117/70/68
f 121/74/72 122/75/73 120/76/71 119/77/70
f 123/78/74 124/79/75 122/75/73 121/74/72
f 125/80/76 126/81/77 124/79/75 123/78/74
f 127/82/78 128/83/79 126/81/77 125/80/76
f 129/84/80 130/85/81 128/83/79 127/82/78
f 99/55/53 101/54/52 130/85/81 129/84/80
f 132/86/82 100/52/50 99/55/53 131/87/83
f 133/88/84 103/56/54 100/52/50 132/86/82
f 134/89/85 105/58/56 103/56/54 133/88/84
f 135/90/86 107/60/58 105/58/56 134/89/85
f 136/91/87 109/62/60 107/60/58 135/90/86
f 137/92/88 111/64/62 109/62/60 136/91/87
f 138/93/89 113/66/64 111/64/62 137/92/88
f 139/94/90 115/68/66 113/66/64 138/93/89
f 140/95/91 117/70/68 115/68/66 139/94/90
f 141/96/92 119/72/70 117/70/68 140/95/91
f 142/97/93 121/74/72 119/77/70 141/98/92
f 143/99/94 123/78/74 121/74/72 142/97/93
f 144/100/95 125/80/76 123/78/74 143/99/94
f 145/101/96 127/82/78 125/80/76 144/100/95
f 146/102/97 129/84/80 127/82/78 145/101/96
f 131/87/83 99/55/53 129/84/80 146/102/97
f 85/19/19 132/86/82 131/87/83 87/21/21
f 83/17/17 133/88/84 132/86/82 85/19/19
f 81/15/15 134/89/85 133/88/84 83/17/17
f 79/13/13 135/90/86 134/89/85 81/15/15
f 77/11/11 136/91/87 135/90/86 79/13/13
f 75/9/9 137/92/88 136/91/87 77/11/11
f 73/7/7 138/93/89 137/92/88 75/9/9
f 71/5/5 139/94/90 138/93/89 73/7/7
f 68/3/3 140/95/91 139/94/90 71/5/5
f 69/2/2 141/96/92 140/95/91 68/3/3
f 97/31/31 142/97/93 141/98/92 69/33/2
f 95/29/29 143/99/94 142/97/93 97/31/31
f 93/27/27 144/100/95 143/99/94 95/29/29
f 91/25/25 145/101/96 144/100/95 93/27/27
f 89/23/23 146/102/97 145/101/96 91/25/25
f 87/21/21 131/87/83 146/102/97 89/23/23
f 19/104/98 18/105/99 11/161/100 10/162/101
f 20/106/102 19/104/98 10/162/101 9/163/103
f 21/107/104 20/106/102 9/163/103 8/164/105
f 22/108/106 21/107/104 8/164/105 7/165/107
f 23/109/108 22/108/106 7/165/107 6/166/109
f 24/110/110 23/109/108 6/166/109 5/167/111
f 25/111/112 24/110/110 5/167/111 4/168/113
f 26/112/114 25/111/112 4/168/113 3/169/115
f 27/113/116 26/112/114 3/169/115 2/170/117
f 1/171/118 28/114/119 27/113/116 2/170/117
f 29/115/120 28/116/119 1/155/118 16/156/121
f 30/117/122 29/115/120 16/156/121 15/157/123
f 31/118/124 30/117/122 15/157/123 14/158/125
f 32/119/126 31/118/124 14/158/125 13/159/127
f 33/120/128 32/119/126 13/159/127 12/160/129
f 18/105/99 33/120/128 12/160/129 11/161/100
f 35/121/130 34/122/131 18/105/99 19/104/98
f 36/123/132 35/121/130 19/104/98 20/106/102
f 37/124/133 36/123/132 20/106/102 21/107/104
f 38/125/134 37/124/133 21/107/104 22/108/106
f 39/126/135 38/125/134 22/108/106 23/109/108
f 40/127/136 39/126/135 23/109/108 24/110/110
f 41/128/137 40/127/136 24/110/110 25/111/112
f 42/129/138 41/128/137 25/111/112 26/112/114
f 43/130/139 42/129/138 26/112/114 27/113/116
f 44/131/140 43/130/139 27/113/116 28/114/119
f 45/132/141 44/133/140 28/116/119 29/115/120
f 46/134/142 45/132/141 29/115/120 30/117/122
f 47/135/143 46/134/142 30/117/122 31/118/124
f 48/136/144 47/135/143 31/118/124 32/119/126
f 49/137/145 48/136/144 32/119/126 33/120/128
f 34/122/131 49/137/145 33/120/128 18/105/99
f 51/224/146 50/226/147 34/122/131 35/121/130
f 52/222/148 51/224/146 35/121/130 36/123/132
f 53/220/149 52/222/148 36/123/132 37/124/133
f 54/218/150 53/220/149 37/124/133 38/125/134
f 55/216/151 54/218/150 38/125/134 39/126/135
f 56/214/152 55/216/151 39/126/135 40/127/136
f 57/212/153 56/214/152 40/127/136 41/128/137
f 58/210/154 57/212/153 41/128/137 42/129/138
f 59/208/155 58/210/154 42/129/138 43/130/139
f 60/206/156 59/208/155 43/130/139 44/131/140
f 61/236/157 60/103/156 44/133/140 45/132/141
f 62/234/158 61/236/157 45/132/141 46/134/142
f 63/232/159 62/234/158 46/134/142 47/135/143
f 64/230/160 63/232/159 47/135/143 48/136/144
f 65/228/161 64/230/160 48/136/144 49/137/145
f 50/226/147 65/228/161 49/137/145 34/122/131
f 11/138/162 101/54/163 102/53/164 10/139/165
f 10/139/165 102/53/164 104/57/166 9/140/167
f 9/140/167 104/57/166 106/59/168 8/141/169
f 8/141/169 106/59/168 108/61/170 7/142/171
f 7/142/171 108/61/170 110/63/172 6/143/173
f 6/143/173 110/63/172 112/65/174 5/144/175
f 5/144/175 112/65/174 114/67/176 4/145/177
f 4/145/177 114/67/176 116/69/178 3/146/179
f 3/146/179 116/69/178 118/71/180 2/147/181
f 2/147/181 118/71/180 120/73/182 1/148/183
f 1/149/183 120/76/182 122/75/184 16/150/185
f 16/150/185 122/75/184 124/79/186 15/151/187
f 15/151/187 124/79/186 126/81/188 14/152/189
f 14/152/189 126/81/188 128/83/190 13/153/191
f 13/153/191 128/83/190 130/85/192 12/154/193
f 12/154/193 130/85/192 101/54/163 11/138/162
f 147/172/194 148/173/195 150/174/196 149/205/197
f 148/175/195 147/235/194 177/233/198 178/176/199
f 149/205/197 150/177/196 152/178/200 151/207/201
f 151/207/201 152/179/200 154/180/202 153/209/203
f 153/209/203 154/181/202 156/182/204 155/211/205
f 155/211/205 156/183/204 158/184/206 157/213/207
f 157/213/207 158/185/206 160/186/208 159/215/209
f 159/215/209 160/187/208 162/188/210 161/217/211
f 161/217/211 162/189/210 164/190/212 163/219/213
f 163/219/213 164/191/212 166/192/214 165/221/215
f 165/221/215 166/193/214 168/194/216 167/223/217
f 167/223/217 168/195/216 170/196/218 169/225/219
f 169/225/219 170/197/218 172/198/220 171/227/221
f 171/227/221 172/199/220 174/200/222 173/229/223
f 173/229/223 174/201/222 176/202/224 175/231/225
f 175/231/225 176/203/224 178/204/199 177/233/198
f 147/172/226 149/205/227 59/208/155 60/206/156
f 149/205/227 151/207/228 58/210/154 59/208/155
f 151/207/228 153/209/229 57/212/153 58/210/154
f 153/209/229 155/211/230 56/214/152 57/212/153
f 155/211/230 157/213/231 55/216/151 56/214/152
f 157/213/231 159/215/232 54/218/150 55/216/151
f 159/215/232 161/217/233 53/220/149 54/218/150
f 161/217/233 163/219/234 52/222/148 53/220/149
f 163/219/234 165/221/235 51/224/146 52/222/148
f 165/221/235 167/223/236 50/226/147 51/224/146
f 167/223/236 169/225/237 65/228/161 50/226/147
f 169/225/237 171/227/238 64/230/160 65/228/161
f 171/227/238 173/229/239 63/232/159 64/230/160
f 173/229/239 175/231/240 62/234/158 63/232/159
f 175/231/240 177/233/241 61/236/157 62/234/158
f 177/233/241 147/235/226 60/103/156 61/236/157
f 150/238/242 148/237/243 17/252/244
f 152/239/245 150/238/242 17/252/244
f 154/240/246 152/239/245 17/252/244
f 156/241/247 154/240/246 17/252/244
f 158/242/248 156/241/247 17/252/244
f 160/243/249 158/242/248 17/252/244
f 162/244/250 160/243/249 17/252/244
f 164/245/251 162/244/250 17/252/244
f 166/246/252 164/245/251 17/252/244
f 168/247/253 166/246/252 17/252/244
f 170/248/254 168/247/253 17/252/244
f 172/249/255 170/248/254 17/252/244
f 174/250/256 172/249/255 17/252/244
f 176/251/257 174/250/256 17/252/244
f 178/253/258 176/251/257 17/252/244
f 148/237/243 178/253/258 17/252/244
